<?xml version="1.0" encoding="UTF-8"?>
<svg width="40px" height="38px" viewBox="0 0 40 38" version="1.1" xmlns="http://www.w3.org/2000/svg" xmlns:xlink="http://www.w3.org/1999/xlink">
    <!-- Generator: Sketch 48.1 (47250) - http://www.bohemiancoding.com/sketch -->
    <title>Icon: Download</title>
    <desc>Created with Sketch.</desc>
    <defs></defs>
    <g id="Mobile:-Store---Dashboard---Add-Product" stroke="none" stroke-width="1" fill="none" fill-rule="evenodd" transform="translate(-203.000000, -1145.000000)">
        <g id="Products-Add:-Información-General" transform="translate(15.000000, 56.000000)" fill="#DAD8D6" fill-rule="nonzero">
            <g id="Form" transform="translate(0.000000, 107.000000)">
                <g id="Article-Type" transform="translate(15.000000, 924.000000)">
                    <g id="Icon:-Download" transform="translate(173.000000, 58.000000)">
                        <path d="M0,35.5 C0,36.875 1.05882353,38 2.35294118,38 L37.6470588,38 C38.9411765,38 40,36.875 40,35.5 C40,34.125 38.9411765,33 37.6470588,33 L2.35294118,33 C1.05882353,33 0,34.125 0,35.5 Z" id="Shape"></path>
                        <path d="M19.9778193,0 C18.6643115,0 17.5896233,1.05084746 17.5896233,2.33521657 L17.5896233,23.6440678 L6.90244656,14.653484 C5.88746329,13.8361582 4.39484083,13.952919 3.55897226,14.8870056 C2.72310368,15.8794727 2.84251348,17.3389831 3.79779185,18.1563089 L18.4254919,30.4161959 C18.8434262,30.7664783 19.4404752,31 19.9778193,31 C20.5151633,31 21.1122123,30.8248588 21.5301466,30.4161959 L36.1578467,18.1563089 C37.1728299,17.3389831 37.2922397,15.8210923 36.3966663,14.8870056 C35.5010928,13.952919 34.0084703,13.7777778 33.053192,14.653484 L22.3660152,23.6440678 L22.3660152,2.33521657 C22.3660152,1.05084746 21.291327,0 19.9778193,0 Z" id="Shape"></path>
                    </g>
                </g>
            </g>
        </g>
    </g>
</svg>