<?xml version="1.0" encoding="utf-8"?>
<!-- Generator: Adobe Illustrator 22.0.1, SVG Export Plug-In . SVG Version: 6.00 Build 0)  -->
<svg version="1.1" id="Layer_1" xmlns="http://www.w3.org/2000/svg" xmlns:xlink="http://www.w3.org/1999/xlink" x="0px" y="0px"
	 viewBox="0 0 44 86.2" style="enable-background:new 0 0 44 86.2;" xml:space="preserve">
<style type="text/css">
	.st0{fill:none;stroke:#E63976;stroke-width:2;stroke-linecap:round;stroke-linejoin:round;stroke-miterlimit:10;}
	.st1{fill:#E63976;}
	.st2{fill:#FFFFFF;stroke:#E63976;stroke-width:2;stroke-linecap:round;stroke-linejoin:round;stroke-miterlimit:10;}
	.st3{fill:none;stroke:#DAD8D6;stroke-width:2;stroke-linecap:round;stroke-linejoin:round;stroke-miterlimit:10;}
	.st4{fill:#DAD8D6;}
	.st5{fill:#FFFFFF;stroke:#DAD8D6;stroke-width:2;stroke-linecap:round;stroke-linejoin:round;stroke-miterlimit:10;}
	.st6{fill:none;stroke:#E63976;stroke-width:1.5;stroke-linecap:round;stroke-linejoin:round;stroke-miterlimit:10;}
	.st7{fill:none;stroke:#DAD8D6;stroke-width:1.5;stroke-linecap:round;stroke-linejoin:round;stroke-miterlimit:10;}
</style>
<title>Icon: Pack</title>
<desc>Created with Sketch.</desc>
<g>
	<g>
		<path class="st0" d="M188.3,70.4h-8.2c-0.6,0-1-0.5-1-1v-1.8c0-0.6,0.5-1,1-1h39.7c0.6,0,1,0.5,1,1v1.8c0,0.6-0.5,1-1,1h-22"/>
		<path class="st1" d="M192.1,64.7c0,0-0.4-2,1.5-3c1.9-1,4.2-1,4.6-1.3C198.6,60,199.6,62.9,192.1,64.7z"/>
		<path class="st0" d="M181.4,70.4c0,0,2.6,10.3,2.9,11.6c0.3,1.3,1.2,2.4,5.4,2.3c4.2-0.1,20.2,0,22.4,0s2.3-0.8,3.1-3.1
			c0.8-2.3,2.7-7.6,2.7-7.6"/>
		<path class="st0" d="M189.4,62.3c1.1-3,3-6.5,5.8-6.5c6.3,0,7.7,10.6,7.7,10.6"/>
		<path class="st0" d="M200.9,58.4c0,0,3.9-7.7,4.8-8.7c0.9-1,4.3-3.9,7.5-1.7c3.6,2.4,2.4,6.1,1.7,7.3c-0.7,1.2-6.6,11.2-6.6,11.2"
			/>
		<path class="st2" d="M218,62.6c0.3,1.3,0.4,2.6,0.4,4h-3.7c0-8.9-6-14.9-14.9-14.9c-6.1,0-10.9,2.9-13.3,7.6
			c-1.1,2.1-1.6,4.6-1.6,7.4h-3.7c0-10.3,8.3-18.6,18.6-18.6c6.9,0,12.9,3.7,16.1,9.3"/>
		<line class="st0" x1="205.5" y1="57.1" x2="211.1" y2="56.6"/>
		<line class="st0" x1="202.7" y1="62.6" x2="205.3" y2="62.3"/>
		<line class="st0" x1="188.1" y1="75.1" x2="192.4" y2="75.1"/>
		<line class="st0" x1="200.8" y1="75.1" x2="205" y2="75.1"/>
		<line class="st0" x1="193.3" y1="79.7" x2="197.6" y2="79.7"/>
		<line class="st0" x1="206.1" y1="79.7" x2="210.4" y2="79.7"/>
		<line class="st0" x1="212.5" y1="75.1" x2="216.8" y2="75.1"/>
	</g>
	<g>
		<path class="st3" d="M188.3,23.9h-8.2c-0.6,0-1-0.5-1-1v-1.8c0-0.6,0.5-1,1-1h39.7c0.6,0,1,0.5,1,1v1.8c0,0.6-0.5,1-1,1h-22"/>
		<path class="st4" d="M192.1,18.2c0,0-0.4-2,1.5-3c1.9-1,4.2-1,4.6-1.3C198.6,13.5,199.6,16.4,192.1,18.2z"/>
		<path class="st3" d="M181.4,23.9c0,0,2.6,10.3,2.9,11.6c0.3,1.3,1.2,2.4,5.4,2.3c4.2-0.1,20.2,0,22.4,0s2.3-0.8,3.1-3.1
			c0.8-2.3,2.7-7.6,2.7-7.6"/>
		<path class="st3" d="M189.4,15.8c1.1-3,3-6.5,5.8-6.5c6.3,0,7.7,10.6,7.7,10.6"/>
		<path class="st3" d="M200.9,11.9c0,0,3.9-7.7,4.8-8.7c0.9-1,4.3-3.9,7.5-1.7c3.6,2.4,2.4,6.1,1.7,7.3c-0.7,1.2-6.6,11.2-6.6,11.2"
			/>
		<path class="st5" d="M218,16.1c0.3,1.3,0.4,2.6,0.4,4h-3.7c0-8.9-6-14.9-14.9-14.9c-6.1,0-10.9,2.9-13.3,7.6
			c-1.1,2.1-1.6,4.6-1.6,7.4h-3.7c0-10.3,8.3-18.6,18.6-18.6c6.9,0,12.9,3.7,16.1,9.3"/>
		<line class="st3" x1="205.5" y1="10.6" x2="211.1" y2="10.1"/>
		<line class="st3" x1="202.7" y1="16.1" x2="205.3" y2="15.8"/>
		<line class="st3" x1="188.1" y1="28.6" x2="192.4" y2="28.6"/>
		<line class="st3" x1="200.6" y1="28.6" x2="204.8" y2="28.6"/>
		<line class="st3" x1="193.3" y1="33.2" x2="197.6" y2="33.2"/>
		<line class="st3" x1="206.1" y1="33.2" x2="210.4" y2="33.2"/>
		<line class="st3" x1="212.5" y1="28.6" x2="216.8" y2="28.6"/>
	</g>
</g>
<desc>Created with Sketch.</desc>
<g>
	<path class="st0" d="M264.1,84c3.5,0,9.4,0,12.5,0s5-1,5-5c0-4.1-0.2-15.7-0.2-15.7l-5.5-8.8h-15.5"/>
	<path class="st0" d="M253.3,52.4c-0.2-1.7,0-3.8,2.3-3.8c3.8,0,21.9,0,21.9,0s-1.6,0.9-1.6,6l-4.9,8.9v17.9"/>
	<path class="st0" d="M278.5,54.8"/>
	<path class="st0" d="M279.6,54.5c0,0,2.1-0.4,2.1-2.8c0-3.9-3.8-3-3.8-3"/>
	<rect x="246.6" y="68" class="st0" width="10.8" height="10.9"/>
	<path class="st0" d="M258.8,57.2h-13.1c-0.8,0-1.5-0.7-1.5-1.5V55c0-0.8,0.7-1.5,1.5-1.5h13.1c0.8,0,1.5,0.7,1.5,1.5v0.7
		C260.3,56.5,259.6,57.2,258.8,57.2z"/>
	<path class="st0" d="M244.2,58.1l-2.9,2.6c0,0,1.2,1.5,2.9,1.5s2.2-1.5,4.1-1.5s2,1.5,4,1.5c2,0,0.8-1.5,3.4-1.5s1.6,1.5,4.4,1.5
		s2.3-1.5,2.3-1.5l-2.3-2.6"/>
	<path class="st0" d="M243.1,62.2c0,0-0.9,0.9-0.9,3.1c0,2.2,0,14,0,15.5s1.8,3.8,5.8,3.8c3.9,0,4.8,0,8.9,0c4.2,0,5-3,5-4.5
		c0-1.4,0-12.2,0-13.8c0-1.7-0.9-4.2-0.9-4.2"/>
</g>
<g>
	<path class="st3" d="M264.1,36.3c3.5,0,9.4,0,12.5,0s5-1,5-5c0-4.1-0.2-15.7-0.2-15.7l-5.5-8.8h-15.5"/>
	<path class="st3" d="M253.3,4.7c-0.2-1.7,0-3.8,2.3-3.8c3.8,0,21.9,0,21.9,0s-1.6,0.9-1.6,6l-4.9,8.9v17.9"/>
	<path class="st3" d="M278.5,7.1"/>
	<path class="st3" d="M279.6,6.9c0,0,2.1-0.4,2.1-2.8c0-3.9-3.8-3-3.8-3"/>
	<rect x="246.6" y="20.3" class="st3" width="10.8" height="10.9"/>
	<path class="st3" d="M258.8,9.5h-13.1c-0.8,0-1.5-0.7-1.5-1.5V7.3c0-0.8,0.7-1.5,1.5-1.5h13.1c0.8,0,1.5,0.7,1.5,1.5V8
		C260.3,8.8,259.6,9.5,258.8,9.5z"/>
	<path class="st3" d="M244.2,10.4l-2.9,2.6c0,0,1.2,1.5,2.9,1.5s2.2-1.5,4.1-1.5s2,1.5,4,1.5c2,0,0.8-1.5,3.4-1.5s1.6,1.5,4.4,1.5
		s2.3-1.5,2.3-1.5l-2.3-2.6"/>
	<path class="st3" d="M243.1,14.6c0,0-0.9,0.9-0.9,3.1s0,14,0,15.5S244,37,248,37c3.9,0,4.8,0,8.9,0c4.2,0,5-3,5-4.5s0-12.2,0-13.8
		s-0.9-4.2-0.9-4.2"/>
</g>
<g>
	<g>
		<polygon class="st0" points="140,44.2 119,52.1 140,60.4 161,52.1 		"/>
		<polygon class="st0" points="140,60.4 139.9,85.2 119,77.4 119,52.1 		"/>
		<polygon class="st0" points="140,60.4 139.9,85.2 161,77.4 161,52.1 		"/>
		<line class="st0" x1="122.6" y1="73.6" x2="128" y2="75.5"/>
		<line class="st0" x1="122.6" y1="69.5" x2="130.9" y2="72.5"/>
	</g>
	<g>
		<polygon id="Shape_3_" class="st1" points="149.1,57 149.1,67.6 151.5,64.9 153.3,65.6 153.3,55.3 134.4,46.7 129.5,48.7 		"/>
	</g>
</g>
<g>
	<g>
		<polygon class="st3" points="140,1.1 119,9 140,17.3 161,9 		"/>
		<polygon class="st3" points="140,17.3 139.9,42.1 119,34.3 119,9 		"/>
		<polygon class="st3" points="140,17.3 139.9,42.1 161,34.3 161,9 		"/>
		<line class="st3" x1="122.6" y1="30.4" x2="128" y2="32.3"/>
		<line class="st3" x1="122.6" y1="26.3" x2="130.9" y2="29.3"/>
	</g>
	<g>
		<polygon id="Shape_1_" class="st4" points="149.1,13.9 149.1,24.5 151.5,21.7 153.3,22.5 153.3,12.2 134.4,3.6 129.5,5.6 		"/>
	</g>
</g>
<g>
	<g>
		<path d="M372.8,65.8c-2.4,0-4.3,1.9-4.3,4.3s1.9,4.3,4.3,4.3c2.4,0,4.3-1.9,4.3-4.3C377.1,67.7,375.2,65.8,372.8,65.8z
			 M372.8,72.8c-1.5,0-2.7-1.2-2.7-2.7c0-1.5,1.2-2.7,2.7-2.7c1.5,0,2.7,1.2,2.7,2.7C375.5,71.6,374.3,72.8,372.8,72.8z"/>
	</g>
</g>
<g>
	<g>
		<g>
			<path class="st0" d="M313.7,77.4c-0.7,0-1.5,0.6-1.5,1.5c0,0.7,0.6,1.5,1.5,1.5c0.7,0,1.5-0.6,1.5-1.5
				C315.2,78.2,314.6,77.4,313.7,77.4z"/>
		</g>
	</g>
	<polyline class="st0" points="308.9,56.7 304.9,56.7 304.9,68.7 	"/>
	<polyline class="st0" points="332.3,69.6 332.3,56.7 325.8,56.7 	"/>
	<line class="st0" x1="332.3" y1="72.4" x2="332.3" y2="78.4"/>
	<line class="st0" x1="308.9" y1="74.4" x2="302.4" y2="74.4"/>
	<line class="st0" x1="303.6" y1="71.2" x2="313.1" y2="71.2"/>
	<path class="st0" d="M305.2,75.2v3h38.6c0,0,0-5.4,0-7.3s-1.6-3-4.2-3c-2.7,0-7.3,0-7.3,0"/>
	<path class="st0" d="M332.3,62.4h8c0,0,0-2.8-2.1-2.8c-2.1,0-5.9,0-5.9,0"/>
	<path class="st1" d="M343.9,71.2h-3c0,0-0.2,2.9,3,2.9"/>
	<line class="st0" x1="339.6" y1="62.4" x2="341.3" y2="68.2"/>
	<circle class="st2" cx="337.5" cy="78.9" r="3.8"/>
	<circle class="st2" cx="313.9" cy="78.9" r="3.8"/>
</g>
<circle class="st0" cx="318.6" cy="57.3" r="6.9"/>
<polyline class="st0" points="318.6,54.5 318.6,58.1 320.8,58.1 "/>
<g>
	<polyline class="st3" points="308.9,7.3 304.9,7.3 304.9,19.3 	"/>
	<polyline class="st3" points="332.3,20.3 332.3,7.3 325.8,7.3 	"/>
	<line class="st3" x1="332.3" y1="23.1" x2="332.3" y2="29.1"/>
	<line class="st3" x1="308.9" y1="25.1" x2="302.4" y2="25.1"/>
	<line class="st3" x1="303.6" y1="21.8" x2="313.1" y2="21.8"/>
	<path class="st3" d="M305.2,25.9v3h38.6c0,0,0-5.4,0-7.3s-1.6-3-4.2-3c-2.7,0-7.3,0-7.3,0"/>
	<path class="st3" d="M332.3,13h8c0,0,0-2.8-2.1-2.8c-2.1,0-5.9,0-5.9,0"/>
	<path class="st4" d="M343.9,21.8h-3c0,0-0.2,2.9,3,2.9"/>
	<line class="st3" x1="339.6" y1="13" x2="341.3" y2="18.8"/>
	<circle class="st5" cx="337.5" cy="29.6" r="3.8"/>
	<circle class="st5" cx="313.9" cy="29.6" r="3.8"/>
</g>
<circle class="st3" cx="318.6" cy="7.9" r="6.9"/>
<polyline class="st3" points="318.6,5.2 318.6,8.7 320.8,8.7 "/>
<polygon class="st0" points="375.9,44.1 397.3,44.1 403.6,53.1 369.7,53.1 "/>
<rect x="369.7" y="53.1" class="st0" width="33.9" height="25.8"/>
<polygon class="st1" points="384.8,44.1 383.6,52.5 383.6,59.7 386.6,57.5 389.7,59.7 389.7,52.5 388.4,44.1 "/>
<path class="st2" d="M372.8,83.6c0,0-6-7.3-7.5-9.7c-1.5-2.4-1.2-12.2,7.5-12.2c8.7,0,9.9,8.9,7.5,12.2
	C377.9,77.3,372.8,83.6,372.8,83.6z"/>
<circle class="st0" cx="372.8" cy="70.1" r="3.5"/>
<line class="st0" x1="391.4" y1="71.1" x2="399.9" y2="71.1"/>
<line class="st0" x1="391.4" y1="74.5" x2="396.2" y2="74.5"/>
<g>
	<g>
		<path class="st3" d="M372.8,22.5c-2.4,0-4.3,1.9-4.3,4.3s1.9,4.3,4.3,4.3c2.4,0,4.3-1.9,4.3-4.3C377.1,24.4,375.2,22.5,372.8,22.5
			z M372.8,29.5c-1.5,0-2.7-1.2-2.7-2.7s1.2-2.7,2.7-2.7c1.5,0,2.7,1.2,2.7,2.7S374.3,29.5,372.8,29.5z"/>
	</g>
</g>
<polygon class="st3" points="375.9,0.8 397.3,0.8 403.6,9.9 369.7,9.9 "/>
<rect x="369.7" y="9.9" class="st3" width="33.9" height="25.8"/>
<polygon class="st4" points="384.8,0.8 383.6,9.3 383.6,16.4 386.6,14.3 389.7,16.4 389.7,9.3 388.4,0.8 "/>
<path class="st5" d="M372.8,40.4c0,0-6-7.3-7.5-9.7s-1.2-12.2,7.5-12.2c8.7,0,9.9,8.9,7.5,12.2C377.9,34,372.8,40.4,372.8,40.4z"/>
<circle class="st3" cx="372.8" cy="26.9" r="3.5"/>
<line class="st3" x1="391.4" y1="27.8" x2="399.9" y2="27.8"/>
<line class="st3" x1="391.4" y1="31.3" x2="396.2" y2="31.3"/>
<g>
	<g>
		<path class="st0" d="M38.5,77.5c0,1.6-1.3,2.8-2.8,2.8H8.4c-1.6,0-2.8-1.3-2.8-2.8V56.7c0-1.6,1.3-2.8,2.8-2.8h27.3
			c1.6,0,2.8,1.3,2.8,2.8V77.5z"/>
	</g>
	<line class="st0" x1="17" y1="54" x2="17" y2="80.4"/>
	<line class="st0" x1="38.5" y1="67.2" x2="5.5" y2="67.2"/>
	<path class="st6" d="M17,67.1c0,0-7.4-2.9-4.7-5.6C15.1,58.7,17,67.1,17,67.1z"/>
	<path class="st6" d="M17,67.1c0,0,2.9,7.4,5.6,4.7S17,67.1,17,67.1z"/>
	<line class="st0" x1="28.8" y1="75.2" x2="35" y2="75.2"/>
	<line class="st0" x1="32.7" y1="71.8" x2="35" y2="71.8"/>
	<polyline class="st6" points="13.4,71.8 17,67.1 21.2,62.5 	"/>
</g>
<g>
	<g>
		<path class="st3" d="M38.5,33.8c0,1.6-1.3,2.8-2.8,2.8H8.4c-1.6,0-2.8-1.3-2.8-2.8V13c0-1.6,1.3-2.8,2.8-2.8h27.3
			c1.6,0,2.8,1.3,2.8,2.8V33.8z"/>
	</g>
	<line class="st3" x1="17" y1="10.3" x2="17" y2="36.6"/>
	<line class="st3" x1="38.5" y1="23.5" x2="5.5" y2="23.5"/>
	<path class="st7" d="M17,23.4c0,0-7.4-2.9-4.7-5.6S17,23.4,17,23.4z"/>
	<path class="st7" d="M17,23.4c0,0,2.9,7.4,5.6,4.7S17,23.4,17,23.4z"/>
	<line class="st3" x1="28.8" y1="31.4" x2="35" y2="31.4"/>
	<line class="st3" x1="32.7" y1="28.1" x2="35" y2="28.1"/>
	<polyline class="st7" points="13.4,28 17,23.4 21.2,18.7 	"/>
</g>
<g>
	<g>
		<polygon class="st0" points="81.9,52.6 63.4,58.2 81.9,64.1 100.4,58.2 		"/>
		<polyline class="st0" points="81.8,81.7 63.4,76.1 63.4,58.2 81.9,64.1 		"/>
		<polyline class="st0" points="81.8,71 81.8,81.7 100.4,76.1 100.4,58.2 81.9,64.1 81.9,67.4 		"/>
		<line class="st0" x1="66.6" y1="73.4" x2="71.3" y2="74.8"/>
	</g>
	<line class="st0" x1="73.8" y1="55.9" x2="90.2" y2="61.6"/>
</g>
<g>
	<g>
		<polygon class="st3" points="81.9,7.5 63.4,13.1 81.9,19 100.4,13.1 		"/>
		<polyline class="st3" points="81.8,36.6 63.4,31.1 63.4,13.1 81.9,19 		"/>
		<polyline class="st3" points="81.8,25.9 81.8,36.6 100.4,31.1 100.4,13.1 81.9,19 81.9,22.4 		"/>
		<line class="st3" x1="66.6" y1="28.3" x2="71.3" y2="29.7"/>
	</g>
	<line class="st3" x1="73.8" y1="10.1" x2="90.2" y2="15.8"/>
</g>
</svg>
