<?xml version="1.0" encoding="utf-8"?>
<!-- Generator: Adobe Illustrator 22.0.1, SVG Export Plug-In . SVG Version: 6.00 Build 0)  -->
<svg version="1.1" id="Layer_1" xmlns="http://www.w3.org/2000/svg" xmlns:xlink="http://www.w3.org/1999/xlink" x="0px" y="0px"
	 viewBox="0 0 38.9 85.5" style="enable-background:new 0 0 38.9 85.5;" xml:space="preserve">
<style type="text/css">
	.st0{fill:none;stroke:#E63976;stroke-width:2;stroke-linecap:round;stroke-linejoin:round;stroke-miterlimit:10;}
	.st1{fill:#E63976;}
	.st2{fill:#FFFFFF;stroke:#E63976;stroke-width:2;stroke-linecap:round;stroke-linejoin:round;stroke-miterlimit:10;}
	.st3{fill:none;stroke:#DAD8D6;stroke-width:2;stroke-linecap:round;stroke-linejoin:round;stroke-miterlimit:10;}
	.st4{fill:#DAD8D6;}
	.st5{fill:#FFFFFF;stroke:#DAD8D6;stroke-width:2;stroke-linecap:round;stroke-linejoin:round;stroke-miterlimit:10;}
</style>
<title>Icon: Pack</title>
<desc>Created with Sketch.</desc>
<g>
	<g>
		<path class="st0" d="M125.9,70.2h-8.2c-0.6,0-1-0.5-1-1v-1.8c0-0.6,0.5-1,1-1h39.7c0.6,0,1,0.5,1,1v1.8c0,0.6-0.5,1-1,1h-22"/>
		<path class="st1" d="M129.7,64.5c0,0-0.4-2,1.5-3c1.9-1,4.2-1,4.6-1.3C136.2,59.8,137.2,62.7,129.7,64.5z"/>
		<path class="st0" d="M119,70.2c0,0,2.6,10.3,2.9,11.6c0.3,1.3,1.2,2.4,5.4,2.3s20.2,0,22.4,0c2.2,0,2.3-0.8,3.1-3.1
			c0.8-2.3,2.7-7.6,2.7-7.6"/>
		<path class="st0" d="M127,62.1c1.1-3,3-6.5,5.8-6.5c6.3,0,7.7,10.6,7.7,10.6"/>
		<path class="st0" d="M138.5,58.2c0,0,3.9-7.7,4.8-8.7s4.3-3.9,7.5-1.7c3.6,2.4,2.4,6.1,1.7,7.3s-6.6,11.2-6.6,11.2"/>
		<path class="st2" d="M155.6,62.4c0.3,1.3,0.4,2.6,0.4,4h-3.7c0-8.9-6-14.9-14.9-14.9c-6.1,0-10.9,2.9-13.3,7.6
			c-1.1,2.1-1.6,4.6-1.6,7.4h-3.7c0-10.3,8.3-18.6,18.6-18.6c6.9,0,12.9,3.7,16.1,9.3"/>
		<line class="st0" x1="143.1" y1="56.9" x2="148.7" y2="56.4"/>
		<line class="st0" x1="140.3" y1="62.4" x2="142.9" y2="62.1"/>
		<line class="st0" x1="125.6" y1="74.9" x2="129.9" y2="74.9"/>
		<line class="st0" x1="138.4" y1="74.9" x2="142.6" y2="74.9"/>
		<line class="st0" x1="130.8" y1="79.5" x2="135.1" y2="79.5"/>
		<line class="st0" x1="143.7" y1="79.5" x2="148" y2="79.5"/>
		<line class="st0" x1="150.1" y1="74.9" x2="154.4" y2="74.9"/>
	</g>
	<g>
		<path class="st3" d="M125.9,23.7h-8.2c-0.6,0-1-0.5-1-1v-1.8c0-0.6,0.5-1,1-1h39.7c0.6,0,1,0.5,1,1v1.8c0,0.6-0.5,1-1,1h-22"/>
		<path class="st4" d="M129.7,18c0,0-0.4-2,1.5-3c1.9-1,4.2-1,4.6-1.3C136.2,13.3,137.2,16.2,129.7,18z"/>
		<path class="st3" d="M119,23.7c0,0,2.6,10.3,2.9,11.6c0.3,1.3,1.2,2.4,5.4,2.3s20.2,0,22.4,0c2.2,0,2.3-0.8,3.1-3.1
			s2.7-7.6,2.7-7.6"/>
		<path class="st3" d="M127,15.6c1.1-3,3-6.5,5.8-6.5c6.3,0,7.7,10.6,7.7,10.6"/>
		<path class="st3" d="M138.5,11.7c0,0,3.9-7.7,4.8-8.7s4.3-3.9,7.5-1.7c3.6,2.4,2.4,6.1,1.7,7.3s-6.6,11.2-6.6,11.2"/>
		<path class="st5" d="M155.6,15.9c0.3,1.3,0.4,2.6,0.4,4h-3.7c0-8.9-6-14.9-14.9-14.9c-6.1,0-10.9,2.9-13.3,7.6
			c-1.1,2.1-1.6,4.6-1.6,7.4h-3.7c0-10.3,8.3-18.6,18.6-18.6c6.9,0,12.9,3.7,16.1,9.3"/>
		<line class="st3" x1="143.1" y1="10.4" x2="148.7" y2="9.9"/>
		<line class="st3" x1="140.3" y1="15.9" x2="142.9" y2="15.6"/>
		<line class="st3" x1="125.6" y1="28.4" x2="129.9" y2="28.4"/>
		<line class="st3" x1="138.1" y1="28.4" x2="142.3" y2="28.4"/>
		<line class="st3" x1="130.8" y1="33" x2="135.1" y2="33"/>
		<line class="st3" x1="143.7" y1="33" x2="148" y2="33"/>
		<line class="st3" x1="150.1" y1="28.4" x2="154.4" y2="28.4"/>
	</g>
</g>
<desc>Created with Sketch.</desc>
<g>
	<path class="st0" d="M201.6,83.8c3.5,0,9.4,0,12.5,0s5-1,5-5c0-4.1-0.2-15.7-0.2-15.7l-5.5-8.8h-15.5"/>
	<path class="st0" d="M190.9,52.2c-0.2-1.7,0-3.8,2.3-3.8c3.8,0,21.9,0,21.9,0s-1.6,0.9-1.6,6l-4.9,8.9v17.9"/>
	<path class="st0" d="M216,54.6"/>
	<path class="st0" d="M217.1,54.3c0,0,2.1-0.4,2.1-2.8c0-3.9-3.8-3-3.8-3"/>
	<rect x="184.2" y="67.8" class="st0" width="10.8" height="10.9"/>
	<path class="st0" d="M196.4,57h-13.1c-0.8,0-1.5-0.7-1.5-1.5v-0.7c0-0.8,0.7-1.5,1.5-1.5h13.1c0.8,0,1.5,0.7,1.5,1.5v0.7
		C197.9,56.3,197.2,57,196.4,57z"/>
	<path class="st0" d="M181.7,57.9l-2.9,2.6c0,0,1.2,1.5,2.9,1.5s2.2-1.5,4.1-1.5c1.8,0,2,1.5,4,1.5c2,0,0.8-1.5,3.4-1.5
		s1.6,1.5,4.4,1.5c2.7,0,2.3-1.5,2.3-1.5l-2.3-2.6"/>
	<path class="st0" d="M180.7,62c0,0-0.9,0.9-0.9,3.1c0,2.2,0,14,0,15.5s1.8,3.8,5.8,3.8s4.8,0,8.9,0s5-3,5-4.5c0-1.4,0-12.2,0-13.8
		c0-1.7-0.9-4.2-0.9-4.2"/>
</g>
<g>
	<path class="st3" d="M201.6,36.1c3.5,0,9.4,0,12.5,0s5-1,5-5c0-4.1-0.2-15.7-0.2-15.7l-5.5-8.8h-15.5"/>
	<path class="st3" d="M190.9,4.5c-0.2-1.7,0-3.8,2.3-3.8c3.8,0,21.9,0,21.9,0s-1.6,0.9-1.6,6l-4.9,8.9v17.9"/>
	<path class="st3" d="M216,6.9"/>
	<path class="st3" d="M217.1,6.6c0,0,2.1-0.4,2.1-2.8c0-3.9-3.8-3-3.8-3"/>
	<rect x="184.2" y="20.1" class="st3" width="10.8" height="10.9"/>
	<path class="st3" d="M196.4,9.3h-13.1c-0.8,0-1.5-0.7-1.5-1.5V7.1c0-0.8,0.7-1.5,1.5-1.5h13.1c0.8,0,1.5,0.7,1.5,1.5v0.7
		C197.9,8.6,197.2,9.3,196.4,9.3z"/>
	<path class="st3" d="M181.7,10.2l-2.9,2.6c0,0,1.2,1.5,2.9,1.5s2.2-1.5,4.1-1.5c1.8,0,2,1.5,4,1.5c2,0,0.8-1.5,3.4-1.5
		s1.6,1.5,4.4,1.5c2.7,0,2.3-1.5,2.3-1.5l-2.3-2.6"/>
	<path class="st3" d="M180.7,14.4c0,0-0.9,0.9-0.9,3.1s0,14,0,15.5s1.8,3.8,5.8,3.8s4.8,0,8.9,0s5-3,5-4.5s0-12.2,0-13.8
		s-0.9-4.2-0.9-4.2"/>
</g>
<g>
	<g>
		<polygon class="st0" points="77.6,44 56.6,51.9 77.6,60.2 98.6,51.9 		"/>
		<polygon class="st0" points="77.6,60.2 77.5,85 56.6,77.2 56.6,51.9 		"/>
		<polygon class="st0" points="77.6,60.2 77.5,85 98.6,77.2 98.6,51.9 		"/>
		<line class="st0" x1="60.1" y1="73.4" x2="65.6" y2="75.3"/>
		<line class="st0" x1="60.1" y1="69.3" x2="68.5" y2="72.3"/>
	</g>
	<g>
		<polygon id="Shape_3_" class="st1" points="86.7,56.8 86.7,67.4 89.1,64.7 90.9,65.4 90.9,55.1 72,46.5 67.1,48.5 		"/>
	</g>
</g>
<g>
	<g>
		<polygon class="st3" points="77.6,0.9 56.6,8.8 77.6,17.1 98.6,8.8 		"/>
		<polygon class="st3" points="77.6,17.1 77.5,41.9 56.6,34.1 56.6,8.8 		"/>
		<polygon class="st3" points="77.6,17.1 77.5,41.9 98.6,34.1 98.6,8.8 		"/>
		<line class="st3" x1="60.1" y1="30.2" x2="65.6" y2="32.1"/>
		<line class="st3" x1="60.1" y1="26.1" x2="68.5" y2="29.1"/>
	</g>
	<g>
		<polygon id="Shape_1_" class="st4" points="86.7,13.7 86.7,24.3 89.1,21.5 90.9,22.3 90.9,12 72,3.4 67.1,5.4 		"/>
	</g>
</g>
<g>
	<g>
		<path d="M310.4,65.6c-2.4,0-4.3,1.9-4.3,4.3s1.9,4.3,4.3,4.3s4.3-1.9,4.3-4.3C314.7,67.5,312.8,65.6,310.4,65.6z M310.4,72.6
			c-1.5,0-2.7-1.2-2.7-2.7c0-1.5,1.2-2.7,2.7-2.7s2.7,1.2,2.7,2.7C313.1,71.4,311.9,72.6,310.4,72.6z"/>
	</g>
</g>
<g>
	<g>
		<g>
			<path class="st0" d="M251.3,77.2c-0.7,0-1.5,0.6-1.5,1.5c0,0.7,0.6,1.5,1.5,1.5c0.7,0,1.5-0.6,1.5-1.5
				C252.8,78,252.1,77.2,251.3,77.2z"/>
		</g>
	</g>
	<polyline class="st0" points="246.4,56.5 242.5,56.5 242.5,68.5 	"/>
	<polyline class="st0" points="269.8,69.4 269.8,56.5 263.4,56.5 	"/>
	<line class="st0" x1="269.8" y1="72.2" x2="269.8" y2="78.2"/>
	<line class="st0" x1="246.4" y1="74.2" x2="240" y2="74.2"/>
	<line class="st0" x1="241.2" y1="71" x2="250.7" y2="71"/>
	<path class="st0" d="M242.8,75v3h38.6c0,0,0-5.4,0-7.3s-1.6-3-4.2-3c-2.7,0-7.3,0-7.3,0"/>
	<path class="st0" d="M269.8,62.2h8c0,0,0-2.8-2.1-2.8s-5.9,0-5.9,0"/>
	<path class="st1" d="M281.4,71h-3c0,0-0.2,2.9,3,2.9"/>
	<line class="st0" x1="277.2" y1="62.2" x2="278.9" y2="68"/>
	<circle class="st2" cx="275" cy="78.7" r="3.8"/>
	<circle class="st2" cx="251.5" cy="78.7" r="3.8"/>
</g>
<circle class="st0" cx="256.2" cy="57" r="6.9"/>
<polyline class="st0" points="256.2,54.3 256.2,57.9 258.4,57.9 "/>
<g>
	<polyline class="st3" points="246.4,7.1 242.5,7.1 242.5,19.1 	"/>
	<polyline class="st3" points="269.8,20.1 269.8,7.1 263.4,7.1 	"/>
	<line class="st3" x1="269.8" y1="22.9" x2="269.8" y2="28.9"/>
	<line class="st3" x1="246.4" y1="24.9" x2="240" y2="24.9"/>
	<line class="st3" x1="241.2" y1="21.6" x2="250.7" y2="21.6"/>
	<path class="st3" d="M242.8,25.7v3h38.6c0,0,0-5.4,0-7.3c0-1.9-1.6-3-4.2-3c-2.7,0-7.3,0-7.3,0"/>
	<path class="st3" d="M269.8,12.8h8c0,0,0-2.8-2.1-2.8s-5.9,0-5.9,0"/>
	<path class="st4" d="M281.4,21.6h-3c0,0-0.2,2.9,3,2.9"/>
	<line class="st3" x1="277.2" y1="12.8" x2="278.9" y2="18.6"/>
	<circle class="st5" cx="275" cy="29.4" r="3.8"/>
	<circle class="st5" cx="251.5" cy="29.4" r="3.8"/>
</g>
<circle class="st3" cx="256.2" cy="7.7" r="6.9"/>
<polyline class="st3" points="256.2,5 256.2,8.5 258.4,8.5 "/>
<polygon class="st0" points="313.5,43.9 334.8,43.9 341.2,52.9 307.2,52.9 "/>
<rect x="307.2" y="52.9" class="st0" width="33.9" height="25.8"/>
<polygon class="st1" points="322.3,43.9 321.2,52.3 321.2,59.5 324.2,57.3 327.2,59.5 327.2,52.3 325.9,43.9 "/>
<path class="st2" d="M310.4,83.4c0,0-6-7.3-7.5-9.7c-1.5-2.4-1.2-12.2,7.5-12.2c8.7,0,9.9,8.9,7.5,12.2
	C315.4,77.1,310.4,83.4,310.4,83.4z"/>
<circle class="st0" cx="310.4" cy="69.9" r="3.5"/>
<line class="st0" x1="329" y1="70.9" x2="337.5" y2="70.9"/>
<line class="st0" x1="329" y1="74.3" x2="333.8" y2="74.3"/>
<g>
	<g>
		<path class="st3" d="M310.4,22.3c-2.4,0-4.3,1.9-4.3,4.3s1.9,4.3,4.3,4.3s4.3-1.9,4.3-4.3C314.7,24.2,312.8,22.3,310.4,22.3z
			 M310.4,29.3c-1.5,0-2.7-1.2-2.7-2.7c0-1.5,1.2-2.7,2.7-2.7s2.7,1.2,2.7,2.7C313.1,28.1,311.9,29.3,310.4,29.3z"/>
	</g>
</g>
<polygon class="st3" points="313.5,0.6 334.8,0.6 341.2,9.7 307.2,9.7 "/>
<rect x="307.2" y="9.7" class="st3" width="33.9" height="25.8"/>
<polygon class="st4" points="322.3,0.6 321.2,9.1 321.2,16.2 324.2,14 327.2,16.2 327.2,9.1 325.9,0.6 "/>
<path class="st5" d="M310.4,40.2c0,0-6-7.3-7.5-9.7c-1.5-2.4-1.2-12.2,7.5-12.2c8.7,0,9.9,8.9,7.5,12.2S310.4,40.2,310.4,40.2z"/>
<circle class="st3" cx="310.4" cy="26.7" r="3.5"/>
<line class="st3" x1="329" y1="27.6" x2="337.5" y2="27.6"/>
<line class="st3" x1="329" y1="31" x2="333.8" y2="31"/>
<g>
	<g>
		<path class="st0" d="M-24,77.3c0,1.6-1.3,2.8-2.8,2.8h-27.3c-1.6,0-2.8-1.3-2.8-2.8V56.5c0-1.6,1.3-2.8,2.8-2.8h27.3
			c1.6,0,2.8,1.3,2.8,2.8V77.3z"/>
	</g>
	<line class="st0" x1="-45.4" y1="53.8" x2="-45.4" y2="80.2"/>
	<line class="st0" x1="-24" y1="67" x2="-56.9" y2="67"/>
	<path class="st0" d="M-45.4,66.9c0,0-7.4-2.9-4.7-5.6C-47.3,58.5-45.4,66.9-45.4,66.9z"/>
	<path class="st0" d="M-45.4,66.9c0,0,2.9,7.4,5.6,4.7C-37,68.8-45.4,66.9-45.4,66.9z"/>
	<line class="st0" x1="-33.6" y1="75" x2="-27.4" y2="75"/>
	<line class="st0" x1="-29.8" y1="71.6" x2="-27.4" y2="71.6"/>
	<polyline class="st0" points="-49,71.6 -45.4,66.9 -41.2,62.3 	"/>
</g>
<g>
	<g>
		<path class="st3" d="M-24,33.6c0,1.6-1.3,2.8-2.8,2.8h-27.3c-1.6,0-2.8-1.3-2.8-2.8V12.8c0-1.6,1.3-2.8,2.8-2.8h27.3
			c1.6,0,2.8,1.3,2.8,2.8V33.6z"/>
	</g>
	<line class="st3" x1="-45.4" y1="10.1" x2="-45.4" y2="36.4"/>
	<line class="st3" x1="-24" y1="23.3" x2="-56.9" y2="23.3"/>
	<path class="st3" d="M-45.4,23.2c0,0-7.4-2.9-4.7-5.6C-47.3,14.8-45.4,23.2-45.4,23.2z"/>
	<path class="st3" d="M-45.4,23.2c0,0,2.9,7.4,5.6,4.7C-37,25.1-45.4,23.2-45.4,23.2z"/>
	<line class="st3" x1="-33.6" y1="31.2" x2="-27.4" y2="31.2"/>
	<line class="st3" x1="-29.8" y1="27.8" x2="-27.4" y2="27.8"/>
	<polyline class="st3" points="-49,27.8 -45.4,23.2 -41.2,18.5 	"/>
</g>
<g>
	<g>
		<polygon class="st0" points="19.5,52.4 1,58 19.5,63.9 37.9,58 		"/>
		<polyline class="st0" points="19.4,81.5 1,75.9 1,58 19.5,63.9 		"/>
		<polyline class="st0" points="19.4,70.8 19.4,81.5 37.9,75.9 37.9,58 19.5,63.9 19.4,67.2 		"/>
		<line class="st0" x1="4.1" y1="73.2" x2="8.9" y2="74.6"/>
	</g>
	<line class="st0" x1="11.3" y1="55.7" x2="27.8" y2="61.4"/>
</g>
<g>
	<g>
		<polygon class="st3" points="19.5,7.3 1,12.9 19.5,18.8 37.9,12.9 		"/>
		<polyline class="st3" points="19.4,36.4 1,30.9 1,12.9 19.5,18.8 		"/>
		<polyline class="st3" points="19.4,25.7 19.4,36.4 37.9,30.9 37.9,12.9 19.5,18.8 19.4,22.2 		"/>
		<line class="st3" x1="4.1" y1="28.1" x2="8.9" y2="29.5"/>
	</g>
	<line class="st3" x1="11.3" y1="9.9" x2="27.8" y2="15.6"/>
</g>
</svg>
