<?xml version="1.0" encoding="utf-8"?>
<!-- Generator: Adobe Illustrator 22.0.1, SVG Export Plug-In . SVG Version: 6.00 Build 0)  -->
<svg version="1.1" id="Capa_1" xmlns="http://www.w3.org/2000/svg" xmlns:xlink="http://www.w3.org/1999/xlink" x="0px" y="0px"
	 viewBox="0 0 23 24" style="enable-background:new 0 0 23 24;" xml:space="preserve">
<style type="text/css">
	.st0{fill:none;stroke:#8C1C50;stroke-width:4;stroke-linecap:round;stroke-miterlimit:10;}
</style>
<title>header_search</title>
<desc>Created with Sketch.</desc>
<g id="Symbols">
	<g id="Menu" transform="translate(-134.000000, -15.000000)">
		<g id="header_search" transform="translate(136.000000, 17.000000)">
			<ellipse id="Oval" class="st0" cx="7.5" cy="7" rx="7.5" ry="7"/>
			<path id="Line" class="st0" d="M12.5,13.5l6,6"/>
		</g>
	</g>
</g>
</svg>
