<?xml version="1.0" encoding="utf-8"?>
<!-- Generator: Adobe Illustrator 22.0.1, SVG Export Plug-In . SVG Version: 6.00 Build 0)  -->
<svg version="1.1" id="Capa_1" xmlns="http://www.w3.org/2000/svg" xmlns:xlink="http://www.w3.org/1999/xlink" x="0px" y="0px"
	 viewBox="0 0 32 30" style="enable-background:new 0 0 32 30;" xml:space="preserve">
<style type="text/css">
	.st0{fill:#8C1C50;}
</style>
<title>Group 6</title>
<desc>Created with Sketch.</desc>
<g id="Menu:-Logged-In" transform="translate(-1182.000000, -17.000000)">
	<g id="Page-1" transform="translate(1181.000000, 16.000000)">
		<g id="Group-6" transform="translate(0.488246, 0.785182)">
			<path id="Combined-Shape" class="st0" d="M6.9,14c0.7,1,1.8,1.7,3.2,1.7c1.4,0,2.5-0.7,3.2-1.7c0.7,1,1.8,1.7,3.2,1.7
				c1.4,0,2.5-0.7,3.2-1.7c0.7,1,1.8,1.7,3.2,1.7c1.4,0,2.5-0.7,3.2-1.7c0.7,1,1.8,1.7,3.2,1.7c0.2,0,0.5,0,0.7-0.1v14.3H3V15.7
				c0.2,0,0.5,0.1,0.7,0.1C5.1,15.8,6.2,15.1,6.9,14z M9.8,19.7V26h13.6v-6.4H9.8z"/>
			<path id="Fill-2" class="st0" d="M0.5,9.2V11c0,1.7,1.4,3.1,3.2,3.1s3.2-1.4,3.2-3.1c0,1.7,1.4,3.1,3.2,3.1s3.2-1.4,3.2-3.1
				c0,1.7,1.4,3.1,3.2,3.1s3.2-1.4,3.2-3.1c0,1.7,1.4,3.1,3.2,3.1s3.2-1.4,3.2-3.1c0,1.7,1.4,3.1,3.2,3.1s3.2-1.4,3.2-3.1V9.2h-6.4
				h-6.4h-6.4H6.9H0.5z"/>
			<polygon id="Fill-1" class="st0" points="5.1,0.2 0.5,7.7 32.5,7.7 27.9,0.2 			"/>
		</g>
	</g>
</g>
</svg>
