<?xml version="1.0" encoding="utf-8"?>
<!-- Generator: Adobe Illustrator 22.0.1, SVG Export Plug-In . SVG Version: 6.00 Build 0)  -->
<svg version="1.1" id="Capa_1" xmlns="http://www.w3.org/2000/svg" xmlns:xlink="http://www.w3.org/1999/xlink" x="0px" y="0px"
	 viewBox="0 0 26 22" style="enable-background:new 0 0 26 22;" xml:space="preserve">
<style type="text/css">
	.st0{fill:#8C1C50;}
</style>
<title>header_cart</title>
<desc>Created with Sketch.</desc>
<g id="Symbols">
	<g id="Menu" transform="translate(-251.000000, -16.000000)">
		<g id="shopping-cart" transform="translate(251.000000, 9.000000)">
			<path id="header_cart" class="st0" d="M23.4,21.1L26,9.5H5.5L4.8,7H0.9C0.4,7,0,7.4,0,7.9s0.4,0.9,0.9,0.9h2.7l3.8,12.7l-1.7,2.4
				l-0.5,0.6c-0.1-0.1-0.2,0-0.2,0.1c-0.3,0.5-0.5,1-0.5,1.6c0,1.5,1.3,2.8,2.8,2.8s2.8-1.2,2.8-2.8c0-0.4-0.1-0.8-0.2-1.1h7.9
				c-0.1,0.3-0.2,0.7-0.2,1.1c0,1.5,1.3,2.8,2.8,2.8s2.8-1.3,2.8-2.8c0-1.4-1.1-2.7-2.5-2.8h-0.4h-0.7H8l0.7-1L23.4,21.1z
				 M20.4,25.4c0.6,0,1,0.4,1,1s-0.4,1-1,1s-1-0.4-1-1S19.8,25.4,20.4,25.4z M8.3,26.4c0,0.6-0.4,1-1,1s-1-0.4-1-1s0.4-1,1-1
				S8.3,25.8,8.3,26.4z"/>
		</g>
	</g>
</g>
</svg>
