<?xml version="1.0" encoding="utf-8"?>
<!-- Generator: Adobe Illustrator 22.0.1, SVG Export Plug-In . SVG Version: 6.00 Build 0)  -->
<svg version="1.1" id="Capa_1" xmlns="http://www.w3.org/2000/svg" xmlns:xlink="http://www.w3.org/1999/xlink" x="0px" y="0px"
	 viewBox="0 0 28.2 22.5" style="enable-background:new 0 0 28.2 22.5;" xml:space="preserve">
<style type="text/css">
	.st0{fill:none;stroke:#E63976;stroke-linecap:round;stroke-linejoin:round;}
	.st1{fill:none;stroke:#E63976;stroke-width:1.2;stroke-linecap:round;stroke-linejoin:round;}
</style>
<title>Page 1</title>
<desc>Created with Sketch.</desc>
<path class="st0" d="M1.2,10.5"/>
<g>
	<path class="st1" d="M7.4,12.2c0,0,0-4,0-6S9.4,0.6,14,0.6s6.7,4,6.7,5.7s0,6,0,6"/>
	<line class="st1" x1="10.9" y1="10.9" x2="17.1" y2="10.9"/>
	<line class="st1" x1="19.3" y1="14.8" x2="19.3" y2="19"/>
	<line class="st1" x1="15.8" y1="14.8" x2="15.8" y2="19"/>
	<line class="st1" x1="12.4" y1="14.8" x2="12.4" y2="19"/>
	<line class="st1" x1="8.9" y1="14.8" x2="8.9" y2="19"/>
	<path class="st1" d="M0.6,11.1h2.3c0,0,1.4,7.2,1.7,8.6c0.3,1.4,1,2.3,2.8,2.3s13.2,0,14,0c0.9,0,1.6-0.9,2-2.6
		c0.3-1.7,1.7-8.3,1.7-8.3h2.4"/>
</g>
</svg>
