<?xml version="1.0" encoding="utf-8"?>
<!-- Generator: Adobe Illustrator 22.0.1, SVG Export Plug-In . SVG Version: 6.00 Build 0)  -->
<svg version="1.1" id="Capa_1" xmlns="http://www.w3.org/2000/svg" xmlns:xlink="http://www.w3.org/1999/xlink" x="0px" y="0px"
	 viewBox="0 0 28.4 23.3" style="enable-background:new 0 0 28.4 23.3;" xml:space="preserve">
<style type="text/css">
	.st0{fill:none;stroke:#E63976;stroke-linecap:round;stroke-linejoin:round;}
</style>
<title>Page 1</title>
<desc>Created with Sketch.</desc>
<g>
	<line class="st0" x1="23.8" y1="7" x2="4.7" y2="7"/>
	<polyline class="st0" points="1.8,7 0.5,7 4.4,0.5 24.4,0.5 27.9,7 26.4,7 	"/>
	<polyline class="st0" points="26.3,9.8 26.3,22.8 2.4,22.8 2.4,10 	"/>
	<path class="st0" d="M7.2,7c0,1.8-1.5,3.3-3.3,3.3S0.5,8.9,0.5,7"/>
	<path class="st0" d="M14.2,7c0,1.8-1.5,3.3-3.3,3.3S7.5,8.9,7.5,7"/>
	<path class="st0" d="M20.9,7c0,1.8-1.5,3.3-3.3,3.3S14.2,8.9,14.2,7"/>
	<path class="st0" d="M27.9,7c0,1.8-1.5,3.3-3.3,3.3S21.3,8.8,21.3,7"/>
	<line class="st0" x1="16.6" y1="10.4" x2="16.6" y2="22.8"/>
	<line class="st0" x1="24" y1="14.2" x2="24" y2="17.1"/>
	<line class="st0" x1="9.5" y1="13.4" x2="11.8" y2="15"/>
	<line class="st0" x1="7" y1="15.9" x2="9.3" y2="17.6"/>
	<line class="st0" x1="6.9" y1="13.6" x2="12" y2="17.3"/>
	<line class="st0" x1="1" y1="22.8" x2="28.3" y2="22.8"/>
</g>
<line class="st0" x1="16.6" y1="20" x2="26.3" y2="20"/>
</svg>
