<?xml version="1.0" encoding="utf-8"?>
<!-- Generator: Adobe Illustrator 22.0.1, SVG Export Plug-In . SVG Version: 6.00 Build 0)  -->
<svg version="1.1" id="Layer_1" xmlns="http://www.w3.org/2000/svg" xmlns:xlink="http://www.w3.org/1999/xlink" x="0px" y="0px"
	 viewBox="0 0 1024 640" style="enable-background:new 0 0 1024 640;" xml:space="preserve">
<style type="text/css">
	.st0{fill:url(#SVGID_1_);}
	.st1{fill:#999999;}
	.st2{fill:#5399DB;}
	.st3{fill:#003383;}
	.st4{fill:#142667;}
</style>
<g id="visa">
	<g>
		
			<linearGradient id="SVGID_1_" gradientUnits="userSpaceOnUse" x1="268.168" y1="721.2006" x2="268.168" y2="766.2007" gradientTransform="matrix(14.2222 0 0 14.2222 -3301.9387 -10257.0596)">
			<stop  offset="0" style="stop-color:#FFFFFF"/>
			<stop  offset="1" style="stop-color:#BDCCD4"/>
		</linearGradient>
		<path class="st0" d="M1024,576c0,35.6-28.4,64-64,64H64c-35.6,0-64-28.4-64-64V64C0,28.4,28.4,0,64,0h896c35.6,0,64,28.4,64,64
			V576z"/>
		<g>
			<path class="st1" d="M960,2.8c34.1,0,61.2,28.4,61.2,61.2v512c0,34.1-28.4,61.2-61.2,61.2H64c-34.1,0-61.2-28.4-61.2-61.2V64
				C2.8,29.9,31.3,2.8,64,2.8H960 M960,0H64C28.4,0,0,28.4,0,64v512c0,35.6,28.4,64,64,64h896c35.6,0,64-28.4,64-64V64
				C1024,28.4,995.6,0,960,0L960,0z"/>
		</g>
	</g>
</g>
<g>
	<g>
		<g>
			<g>
				<g>
					<path class="st2" d="M600.6,434.2h-42.6c-2.9,0-5.4,2.1-5.9,5l-17.2,109.3c-0.3,2.2,1.3,4.1,3.5,4.1h21.9c2,0,3.8-1.5,4.1-3.5
						l4.9-31c0.5-2.9,2.9-5,5.9-5h13.5c28.1,0,44.3-13.6,48.5-40.5c1.9-11.8,0.1-21-5.4-27.5C625.6,438,614.8,434.2,600.6,434.2z
						 M605.5,474.2c-2.3,15.3-14,15.3-25.3,15.3h-6.4l4.5-28.6c0.3-1.7,1.8-3,3.5-3h2.9c7.7,0,15,0,18.7,4.4
						C605.7,464.9,606.4,468.8,605.5,474.2z"/>
					<path class="st3" d="M296.4,434.2h-42.6c-2.9,0-5.4,2.1-5.9,5l-17.2,109.3c-0.3,2.2,1.3,4.1,3.5,4.1h20.4c2.9,0,5.4-2.1,5.9-5
						l4.7-29.5c0.5-2.9,2.9-5,5.9-5h13.5c28.1,0,44.3-13.6,48.5-40.5c1.9-11.8,0.1-21-5.4-27.5C321.4,438,310.7,434.2,296.4,434.2z
						 M301.4,474.2c-2.3,15.3-14,15.3-25.3,15.3h-6.4l4.5-28.6c0.3-1.7,1.8-3,3.5-3h2.9c7.7,0,15,0,18.7,4.4
						C301.5,464.9,302.2,468.8,301.4,474.2z"/>
					<path class="st3" d="M423.9,473.7h-20.4c-1.8,0-3.2,1.3-3.5,3l-0.9,5.7l-1.4-2.1c-4.4-6.4-14.3-8.6-24.1-8.6
						c-22.6,0-41.8,17.1-45.6,41.1c-2,12,0.8,23.4,7.6,31.4c6.2,7.3,15.1,10.4,25.7,10.4c18.2,0,28.3-11.7,28.3-11.7l-0.9,5.7
						c-0.3,2.2,1.3,4.1,3.5,4.1h18.4c2.9,0,5.4-2.1,5.9-5l11-69.9C427.7,475.6,426.1,473.7,423.9,473.7z M395.4,513.4
						c-2,11.7-11.2,19.5-23,19.5c-5.9,0-10.7-1.9-13.7-5.5c-3-3.6-4.2-8.7-3.2-14.3c1.8-11.6,11.2-19.6,22.9-19.6
						c5.8,0,10.5,1.9,13.6,5.6C395.1,502.7,396.3,507.8,395.4,513.4z"/>
					<path class="st2" d="M728,473.7h-20.4c-1.8,0-3.2,1.3-3.5,3l-0.9,5.7l-1.4-2.1c-4.4-6.4-14.3-8.6-24.1-8.6
						c-22.6,0-41.8,17.1-45.6,41.1c-2,12,0.8,23.4,7.6,31.4c6.2,7.3,15.1,10.4,25.7,10.4c18.2,0,28.3-11.7,28.3-11.7l-0.9,5.7
						c-0.3,2.2,1.3,4.1,3.5,4.1h18.4c2.9,0,5.4-2.1,5.9-5l11-69.9C731.9,475.6,730.2,473.7,728,473.7z M699.6,513.4
						c-2,11.7-11.2,19.5-23,19.5c-5.9,0-10.7-1.9-13.7-5.5c-3-3.6-4.2-8.7-3.2-14.3c1.8-11.6,11.2-19.6,22.9-19.6
						c5.8,0,10.5,1.9,13.6,5.6C699.2,502.7,700.5,507.8,699.6,513.4z"/>
					<path class="st3" d="M532.6,473.7h-20.5c-2,0-3.8,1-4.9,2.6L478.9,518l-12-40.1c-0.8-2.5-3.1-4.2-5.7-4.2h-20.2
						c-2.4,0-4.2,2.4-3.4,4.7l22.6,66.3l-21.3,30c-1.7,2.4,0,5.6,2.9,5.6h20.5c1.9,0,3.8-1,4.9-2.6l68.3-98.5
						C537.2,476.9,535.5,473.7,532.6,473.7z"/>
					<path class="st2" d="M752.1,437.2l-17.5,111.3c-0.3,2.2,1.3,4.1,3.5,4.1h17.6c2.9,0,5.4-2.1,5.9-5l17.3-109.3
						c0.3-2.2-1.3-4.1-3.5-4.1h-19.7C753.9,434.2,752.4,435.5,752.1,437.2z"/>
				</g>
			</g>
		</g>
	</g>
	<g>
		<path class="st2" d="M635.3,145.2c4.2-26.7,0-44.9-14.5-61.4c-15.9-18.1-44.7-25.9-81.5-25.9H432.4c-7.5,0-13.9,5.5-15.1,12.9
			l-44.5,282.1c-0.9,5.6,3.4,10.6,9.1,10.6h66l-4.6,28.9c-0.8,4.9,3,9.3,7.9,9.3h55.6c6.6,0,12.2-4.8,13.2-11.3l0.5-2.8l10.5-66.4
			l0.7-3.7c1-6.5,6.6-11.3,13.2-11.3h8.3c53.9,0,96-21.9,108.4-85.2c5.1-26.4,2.5-48.5-11.1-64C646.4,152.2,641.2,148.4,635.3,145.2
			L635.3,145.2"/>
		<path class="st4" d="M635.3,145.2c4.2-26.7,0-44.9-14.5-61.4c-15.9-18.1-44.7-25.9-81.5-25.9H432.4c-7.5,0-13.9,5.5-15.1,12.9
			l-44.5,282.1c-0.9,5.6,3.4,10.6,9.1,10.6h66l16.6-105.1l-0.5,3.3c1.2-7.4,7.5-12.9,15-12.9h31.3c61.6,0,109.8-25,123.9-97.4
			C634.6,149.3,634.9,147.2,635.3,145.2"/>
		<path class="st3" d="M482.2,145.6c0.7-4.5,3.6-8.1,7.4-10c1.8-0.8,3.7-1.3,5.8-1.3h83.8c9.9,0,19.2,0.6,27.6,2
			c2.4,0.4,4.8,0.8,7.1,1.3c2.3,0.5,4.5,1.1,6.6,1.7c1.1,0.3,2.1,0.6,3.2,1c4.2,1.4,8,3,11.6,4.9c4.2-26.7,0-44.9-14.5-61.4
			c-15.9-18.1-44.7-25.9-81.5-25.9H432.4c-7.5,0-13.9,5.5-15.1,12.9l-44.5,282.1c-0.9,5.6,3.4,10.6,9.1,10.6h66l16.6-105.1
			L482.2,145.6z"/>
	</g>
</g>
</svg>