<?xml version="1.0" encoding="utf-8"?>
<!-- Generator: Adobe Illustrator 22.0.1, SVG Export Plug-In . SVG Version: 6.00 Build 0)  -->
<svg version="1.1" id="Layer_1" xmlns="http://www.w3.org/2000/svg" xmlns:xlink="http://www.w3.org/1999/xlink" x="0px" y="0px"
	 viewBox="0 0 72 45" style="enable-background:new 0 0 72 45;" xml:space="preserve">
<style type="text/css">
	.st0{fill:url(#SVGID_1_);}
	.st1{fill:#999999;}
	.st2{fill:#0058A0;}
	.st3{fill:#FAA61A;}
</style>
<g id="visa">
	<g>
		
			<linearGradient id="SVGID_1_" gradientUnits="userSpaceOnUse" x1="36" y1="46" x2="36" y2="1" gradientTransform="matrix(1 0 0 -1 0 46)">
			<stop  offset="0" style="stop-color:#FFFFFF"/>
			<stop  offset="1" style="stop-color:#BDCCD4"/>
		</linearGradient>
		<path class="st0" d="M72,40.5c0,2.5-2,4.5-4.5,4.5h-63C2,45,0,43,0,40.5v-36C0,2,2,0,4.5,0h63C70,0,72,2,72,4.5V40.5z"/>
		<g>
			<path class="st1" d="M67.5,0.2c2.4,0,4.3,2,4.3,4.3v36c0,2.4-2,4.3-4.3,4.3h-63c-2.4,0-4.3-2-4.3-4.3v-36c0-2.4,2-4.3,4.3-4.3
				L67.5,0.2 M67.5,0h-63C2,0,0,2,0,4.5v36C0,43,2,45,4.5,45h63c2.5,0,4.5-2,4.5-4.5v-36C72,2,70,0,67.5,0L67.5,0z"/>
		</g>
	</g>
	<g>
		<g>
			<polyline class="st2" points="26.6,30.7 29.1,14.5 33.3,14.5 30.7,30.7 26.7,30.7 			"/>
			<path class="st2" d="M45.9,14.8c-0.8-0.3-2.1-0.7-3.7-0.7c-4.1,0-7,2.2-7.1,5.3c0,2.3,2.1,3.6,3.7,4.4c1.6,0.8,2.2,1.3,2.2,2
				c0,1.1-1.3,1.6-2.5,1.6c-1.7,0-2.6-0.2-3.9-0.8l-0.5-0.3L33.3,30c1,0.5,2.8,0.8,4.7,0.9c4.4,0,7.2-2.2,7.3-5.5
				c0-1.8-1.1-3.2-3.5-4.4c-1.5-0.8-2.4-1.2-2.3-2c0-0.7,0.8-1.4,2.4-1.4c1.4,0,2.4,0.3,3.1,0.6l0.4,0.2L45.9,14.8"/>
			<path class="st2" d="M56.9,14.5h-3.6c-1,0-1.8,0.3-2.2,1.4L45,30.7h4.4c0,0,0.7-2,0.9-2.5c0.5,0,4.7,0,5.4,0
				c0.1,0.6,0.5,2.4,0.5,2.4H60l-3.3-16.2 M51.4,24.8c0.3-0.7,1.7-4.5,1.7-4.5c0,0,0.3-0.9,0.6-1.5l0.3,1.4c0,0,0.8,3.9,1,4.6
				C54.2,24.8,52.2,24.8,51.4,24.8z"/>
			<path class="st2" d="M23.1,14.4L19,25.4l-0.5-2.2c-0.8-2.6-3.1-5.4-5.8-6.8l3.7,14.2l4.4,0l6.6-16.1H23"/>
			<path class="st3" d="M15.1,14.5H8.4l-0.1,0.3c5.2,1.3,8.7,4.6,10.2,8.5L17,15.8C16.8,14.8,16.1,14.5,15.1,14.5z"/>
		</g>
	</g>
</g>
</svg>
