<?xml version="1.0" encoding="UTF-8"?>
<svg width="114px" height="91px" viewBox="0 0 114 91" version="1.1" xmlns="http://www.w3.org/2000/svg" xmlns:xlink="http://www.w3.org/1999/xlink">
    <!-- Generator: Sketch 52.2 (67145) - http://www.bohemiancoding.com/sketch -->
    <title>icon_search_store copy 4</title>
    <desc>Created with Sketch.</desc>
    <g id="Landing-CR-Pro" stroke="none" stroke-width="1" fill="none" fill-rule="evenodd" stroke-linecap="round" stroke-linejoin="round">
        <g id="icon_search_store-copy-4" transform="translate(2.000000, 2.000000)" stroke="#FFFFFF" stroke-width="3">
            <g id="Group">
                <path d="M92.1418242,25.4810231 L16.7722469,25.4810231" id="Path"></path>
                <polyline id="Path" points="5.32869855 25.4810231 0.198832036 25.4810231 15.5884316 0.183580858 94.5094549 0.183580858 108.320634 25.4810231 102.401557 25.4810231"></polyline>
                <polyline id="Path" points="102.006952 36.3783828 102.006952 86.9732673 7.69632925 86.9732673 7.69632925 37.1567657"></polyline>
                <path d="M26.6373749,25.4810231 C26.6373749,32.4864686 20.7182981,38.3243399 13.615406,38.3243399 C6.5125139,38.3243399 0.198832036,32.8756601 0.198832036,25.4810231" id="Path"></path>
                <path d="M54.259733,25.4810231 C54.259733,32.4864686 48.3406563,38.3243399 41.2377642,38.3243399 C34.1348721,38.3243399 27.8211902,32.8756601 27.8211902,25.4810231" id="Path"></path>
                <path d="M80.6982759,25.4810231 C80.6982759,32.4864686 74.7791991,38.3243399 67.676307,38.3243399 C60.5734149,38.3243399 54.259733,32.8756601 54.259733,25.4810231" id="Path"></path>
                <path d="M108.320634,25.4810231 C108.320634,32.4864686 102.401557,38.3243399 95.2986652,38.3243399 C88.1957731,38.3243399 82.2766963,32.4864686 82.2766963,25.4810231" id="Path"></path>
                <path d="M63.7302558,38.7135314 L63.7302558,86.9732673" id="Path"></path>
                <path d="M92.9310345,53.5028053 L92.9310345,64.7893564" id="Path"></path>
                <path d="M35.7132925,50.3892739 L44.7892102,56.6163366" id="Path"></path>
                <path d="M25.8481646,60.1190594 L34.9240823,66.7353135" id="Path"></path>
                <path d="M25.4535595,51.1676568 L45.5784205,65.5677393" id="Path"></path>
                <path d="M2.17185762,86.9732673 L109.899055,86.9732673" id="Path"></path>
            </g>
            <path d="M64,76 L102,76" id="Path"></path>
        </g>
    </g>
</svg>