<?xml version="1.0" encoding="utf-8"?>
<!-- Generator: Adobe Illustrator 22.1.0, SVG Export Plug-In . SVG Version: 6.00 Build 0)  -->
<svg version="1.1" id="Capa_1" xmlns="http://www.w3.org/2000/svg" xmlns:xlink="http://www.w3.org/1999/xlink" x="0px" y="0px"
	 viewBox="0 0 93 90.8" style="enable-background:new 0 0 93 90.8;" xml:space="preserve">
<style type="text/css">
	.st0{fill:none;stroke:#646469;stroke-width:3;stroke-miterlimit:10;}
	.st1{fill:none;stroke:#646469;stroke-width:3;stroke-linecap:round;stroke-linejoin:round;stroke-miterlimit:10;}
	.st2{fill:none;stroke:#646469;stroke-width:3;stroke-linejoin:round;stroke-miterlimit:10;}
</style>
<title>inspire copy</title>
<desc>Created with Sketch.</desc>
<path class="st0" d="M81.6,72.1h-70c-5.5,0-10-4.5-10-10v-51c0-5.5,4.5-10,10-10h70c5.5,0,10,4.5,10,10v51
	C91.5,67.7,87.1,72.1,81.6,72.1z"/>
<rect x="39.3" y="72.1" class="st0" width="14.7" height="9.2"/>
<path class="st0" d="M28.6,88.5h35.7c0,0,0.6-7.2-9.2-7.2s-10.2,0-18,0C28.6,81.3,28.6,88.5,28.6,88.5z"/>
<line class="st0" x1="1.7" y1="58.5" x2="91.1" y2="58.5"/>
<line class="st1" x1="49.8" y1="64.4" x2="35.6" y2="64.4"/>
<line class="st1" x1="55.8" y1="64.4" x2="55.8" y2="64.4"/>
<path class="st1" d="M26,30.5h2.7c0,0,3,13.8,3.4,15c0.5,1.1,1.7,3.6,5.5,3.6s16.3,0,18.7,0c2.4,0,4.1-2.2,4.6-4.4
	c0.5-2.3,3.1-14.2,3.1-14.2h3.5"/>
<line class="st2" x1="37.7" y1="30.5" x2="54.6" y2="30.5"/>
<path class="st1" d="M34.8,32.3c0,0,0-8.5,0-11.2S38.5,12,46.7,12s11.1,6.3,11.1,10.2s0,10.2,0,10.2"/>
<line class="st1" x1="55.1" y1="37.5" x2="55.1" y2="42.5"/>
<line class="st1" x1="49.4" y1="37.5" x2="49.4" y2="42.5"/>
<line class="st1" x1="43.7" y1="37.5" x2="43.7" y2="42.5"/>
<line class="st1" x1="38" y1="37.5" x2="38" y2="42.5"/>
</svg>
