<?xml version="1.0" encoding="utf-8"?>
<!-- Generator: Adobe Illustrator 22.0.1, SVG Export Plug-In . SVG Version: 6.00 Build 0)  -->
<svg version="1.1" id="Capa_1" xmlns="http://www.w3.org/2000/svg" xmlns:xlink="http://www.w3.org/1999/xlink" x="0px" y="0px"
	 viewBox="0 0 23.9 20.4" style="enable-background:new 0 0 23.9 20.4;" xml:space="preserve">
<style type="text/css">
	.st0{fill:none;stroke:#424245;stroke-width:1.25;stroke-linecap:round;stroke-linejoin:round;}
</style>
<g>
	<path class="st0" d="M9.2,15.9c-2.3-0.7-3.9-2.8-3.9-5.2c0-3,2.4-5.4,5.4-5.4c2.2,0,4.1,1.3,5,3.2"/>
	<line class="st0" x1="10.7" y1="0.6" x2="10.7" y2="2.9"/>
	<line class="st0" x1="17.8" y1="3.6" x2="16.2" y2="5.2"/>
	<line class="st0" x1="3.6" y1="17.8" x2="5.2" y2="16.2"/>
	<line class="st0" x1="0.6" y1="10.7" x2="2.9" y2="10.7"/>
	<line class="st0" x1="3.6" y1="3.6" x2="5.2" y2="5.2"/>
	<path class="st0" d="M16.4,18.1c0.5,1,1.6,1.7,2.9,1.7c1.7,0,3.2-1.3,3.2-2.9c0-0.2,0-0.5-0.1-0.7c0.5-0.5,0.9-1.2,0.9-2
		c0-1.6-1.4-2.9-3.2-2.9c-0.3,0-0.5,0-0.8,0.1c-0.1-1.5-1.5-2.7-3.1-2.7c-1.7,0-3.1,1.3-3.2,2.8c-0.3-0.1-0.7-0.2-1.1-0.2
		c-1.7,0-3.2,1.3-3.2,2.9c0,0.9,0.5,1.7,1.2,2.2c0,0.2-0.1,0.3-0.1,0.5c0,1.6,1.4,2.9,3.2,2.9C15.6,19.8,16.4,18.1,16.4,18.1z"/>
</g>
</svg>
