<?xml version="1.0" encoding="utf-8"?>
<!-- Generator: Adobe Illustrator 22.0.1, SVG Export Plug-In . SVG Version: 6.00 Build 0)  -->
<svg version="1.1" id="Capa_1" xmlns="http://www.w3.org/2000/svg" xmlns:xlink="http://www.w3.org/1999/xlink" x="0px" y="0px"
	 viewBox="0 0 21.4 21.4" style="enable-background:new 0 0 21.4 21.4;" xml:space="preserve">
<style type="text/css">
	.st0{fill:none;stroke:#FFFFFF;stroke-width:1.25;stroke-linecap:round;stroke-linejoin:round;}
</style>
<g>
	<circle class="st0" cx="10.7" cy="10.7" r="5.4"/>
	<line class="st0" x1="10.7" y1="0.6" x2="10.7" y2="2.9"/>
	<line class="st0" x1="17.8" y1="3.6" x2="16.2" y2="5.2"/>
	<line class="st0" x1="20.8" y1="10.7" x2="18.5" y2="10.7"/>
	<line class="st0" x1="17.8" y1="17.8" x2="16.2" y2="16.2"/>
	<line class="st0" x1="10.7" y1="20.8" x2="10.7" y2="18.5"/>
	<line class="st0" x1="3.6" y1="17.8" x2="5.2" y2="16.2"/>
	<line class="st0" x1="0.6" y1="10.7" x2="2.9" y2="10.7"/>
	<line class="st0" x1="3.6" y1="3.6" x2="5.2" y2="5.2"/>
</g>
</svg>
