<?xml version="1.0" encoding="utf-8"?>
<!-- Generator: Adobe Illustrator 22.0.1, SVG Export Plug-In . SVG Version: 6.00 Build 0)  -->
<svg version="1.1" id="Capa_1" xmlns="http://www.w3.org/2000/svg" xmlns:xlink="http://www.w3.org/1999/xlink" x="0px" y="0px"
	 viewBox="0 0 18.4 17.3" style="enable-background:new 0 0 18.4 17.3;" xml:space="preserve">
<style type="text/css">
	.st0{fill:none;stroke:#424245;stroke-width:1.25;stroke-linecap:round;stroke-linejoin:round;}
</style>
<title>Page 1</title>
<desc>Created with Sketch.</desc>
<g>
	<defs>
		<rect id="SVGID_1_" x="-740" y="-1558.3" width="1440" height="3146"/>
	</defs>
	<clipPath id="SVGID_2_">
		<use xlink:href="#SVGID_1_"  style="overflow:visible;"/>
	</clipPath>
</g>
<g>
	<path class="st0" d="M16.8,8.5c-0.1,0.9-0.3,2-0.4,2"/>
	<path class="st0" d="M8.6,16.6c-4.4,0-8-3.6-8-8s3.6-8,8-8c3.7,0,6.7,2.1,7.6,5.5"/>
	<polyline class="st0" points="5.9,10.5 9.1,9.5 9.1,4.5 	"/>
	<polyline class="st0" points="12.5,4.8 16.3,6.4 17.6,3 	"/>
	<path class="st0" d="M15.5,13.1c-0.9,1.2-2.6,2.6-4,3.1"/>
</g>
</svg>
