<?xml version="1.0" encoding="utf-8"?>
<!-- Generator: Adobe Illustrator 22.1.0, SVG Export Plug-In . SVG Version: 6.00 Build 0)  -->
<svg version="1.1" id="Layer_1" xmlns="http://www.w3.org/2000/svg" xmlns:xlink="http://www.w3.org/1999/xlink" x="0px" y="0px"
	 viewBox="0 0 646.7 398.8" style="enable-background:new 0 0 646.7 398.8;" xml:space="preserve">
<style type="text/css">
	.st0{fill:#E63976;}
	.st1{fill:#FFFFFF;}
	.st2{fill:#43434C;}
</style>
<g>
	<g>
		<g>
			<ellipse class="st0" cx="323.3" cy="90.7" rx="90.6" ry="90.6"/>
			<g>
				<path class="st1" d="M352.9,72.4c-1-15.4-13.8-27.7-29.5-27.7s-28.5,12.2-29.5,27.7v15.3v4.8c0,2.5,2,4.6,4.6,4.6
					c2.5,0,4.6-2,4.6-4.6v-4.8V74.3c0-11.2,9.1-20.4,20.4-20.4c11.2,0,20.4,9.1,20.4,20.4l0,0v13.4v4.8c0,2.5,2,4.6,4.6,4.6
					c2.5,0,4.6-2,4.6-4.6v-4.8V72.4H352.9z"/>
				<g>
					<path class="st1" d="M373.7,88.5c0-2.1-1.7-3.9-3.9-3.9h-7.4c-1.8,0-3.4,1.3-3.8,3.1l-7.5,35.3c-0.3,1.3-1.8,2.6-3.2,2.6h-49.3
						c-1.4,0-2.9-1.3-3.2-2.6L288,87.7c-0.4-1.8-2-3.1-3.8-3.1h-7.4c-2.1,0-3.9,1.7-3.9,3.9c0,2.1,1.7,3.9,3.9,3.9h3.5
						c0.4,0,0.9,0.4,1,0.8l6.6,31.5c1,4.9,5.8,8.8,10.8,8.8H348c5,0,9.8-3.8,10.8-8.8l6.6-31.5c0.1-0.4,0.5-0.8,1-0.8h3.5
						C372,92.4,373.7,90.7,373.7,88.5z"/>
					<rect x="307.7" y="84.7" class="st1" width="31.4" height="7.8"/>
					<path class="st1" d="M343.9,102.7C343.9,102.6,343.9,102.6,343.9,102.7c0-1.4-1.1-2.5-2.4-2.5s-2.4,1.1-2.4,2.4v0.1v12.8v0.1
						c0,1.3,1.1,2.4,2.4,2.4s2.4-1.1,2.4-2.4v-0.1V102.7z"/>
					<path class="st1" d="M331.8,102.7C331.8,102.6,331.8,102.6,331.8,102.7c0-1.4-1.1-2.5-2.4-2.5s-2.4,1.1-2.4,2.4v0.1v12.8v0.1
						c0,1.3,1.1,2.4,2.4,2.4s2.4-1.1,2.4-2.4v-0.1V102.7z"/>
					<path class="st1" d="M319.8,102.7C319.8,102.6,319.8,102.6,319.8,102.7c0-1.4-1.1-2.5-2.4-2.5s-2.4,1.1-2.4,2.4v0.1v12.8v0.1
						c0,1.3,1.1,2.4,2.4,2.4s2.4-1.1,2.4-2.4v-0.1V102.7z"/>
					<path class="st1" d="M307.7,102.7C307.7,102.6,307.7,102.6,307.7,102.7c0-1.4-1.1-2.5-2.4-2.5s-2.4,1.1-2.4,2.4v0.1v12.8v0.1
						c0,1.3,1.1,2.4,2.4,2.4s2.4-1.1,2.4-2.4v-0.1V102.7z"/>
				</g>
			</g>
		</g>
		<g>
			<g>
				<path class="st2" d="M408.5,282.6L408.5,282.6H407c-1.8,0-2.8-0.9-2.8-2.8v-31c0-13.9-4.9-24.8-25.3-24.8
					c-5.7,0-21.1,1.9-21.1,10.9v3c0,2.3,1.9,4.2,4.2,4.2c2.3,0,4.2-1.9,4.2-4.2V237c0-4.8,9.4-5.7,12.6-5.7
					c11.8,0,16.7,4.8,16.7,18.3v0.8h-3.6c-11.2,0-39.6,0.8-39.6,22.2c0,12.9,11.2,19.2,22,19.2c16.2,0,21.6-14,21.5-14h0.3
					c0,0-0.1,1.9-0.1,4.8c0,5.3,2.2,7.7,7.7,7.7h5l0,0c2.1,0,3.8-1.7,3.8-3.8C412.2,284.3,410.6,282.6,408.5,282.6z M395.3,260.2
					c0,11.2-7.5,24-19.8,24c-9.6,0-14.4-6.2-14.4-12.2c0-14.5,20.3-14.8,30.5-14.8h3.7L395.3,260.2L395.3,260.2z"/>
				<path class="st2" d="M259,282.6L259,282.6h-1.5c-1.8,0-2.8-0.9-2.8-2.8v-31c0-13.9-4.9-24.8-25.3-24.8
					c-5.7,0-21.1,1.9-21.1,10.9v3c0,2.3,1.9,4.2,4.2,4.2s4.2-1.9,4.2-4.2V237c0-4.8,9.4-5.7,12.6-5.7c11.8,0,16.7,4.8,16.7,18.3v0.8
					h-3.6c-11.2,0-39.6,0.8-39.6,22.2c0,12.9,11.2,19.2,22,19.2c16.2,0,21.6-14,21.5-14h0.3c0,0-0.1,1.9-0.1,4.8
					c0,5.3,2.2,7.7,7.7,7.7h5l0,0c2.1,0,3.8-1.7,3.8-3.8C262.7,284.3,261,282.6,259,282.6z M245.8,260.2c0,11.2-7.5,24-19.8,24
					c-9.6,0-14.4-6.2-14.4-12.2c0-14.5,20.3-14.8,30.5-14.8h3.7V260.2z"/>
				<path class="st2" d="M201.4,286.3c0-2.1-1.7-3.9-3.9-3.9c-0.2,0-0.4,0-0.5,0.1h-4.5c-1.8,0-2.9-0.9-2.9-2.9v-31.2
					c0-16.2-5.7-25.5-22.1-25.5c-15.4,0-23.8,10.6-26.1,16.6h-0.3c0,0,0.3-2.1,0.3-4.7v-3c0-5-2.5-7.3-8-7.3h-9.1l0,0h-0.1
					c-2.1,0-3.9,1.7-3.9,3.9s1.7,3.9,3.9,3.9c0.1,0,0.2,0,0.3,0h5.3c1.8,0,2.9,1,2.9,2.9v52.3c0,0.1,0,0.1,0,0.2s0,0.1,0,0.2v0.2
					l0,0c0.2,2.3,2.1,4.1,4.4,4.1c2.3,0,4.2-1.8,4.4-4.1l0,0V288c0-0.1,0-0.2,0-0.2c0-0.1,0-0.2,0-0.2v-28.7c0-3.1,0.3-6.1,1-8.9
					c3-10.8,12.7-18.5,23.9-18.5c12.7,0,14.2,9.1,14.2,19.5v31.5c0,5.6,2.3,8,8,8h9.3l0,0C199.9,290,201.4,288.3,201.4,286.3z"/>
				<path class="st2" d="M121.3,282.6L121.3,282.6h-1.5c-1.8,0-2.8-0.9-2.8-2.8v-31c0-13.9-4.9-24.8-25.3-24.8
					c-5.7,0-21.1,1.9-21.1,10.9v3c0,2.3,1.9,4.2,4.2,4.2c2.3,0,4.2-1.9,4.2-4.2V237c0-4.8,9.4-5.7,12.6-5.7
					c11.8,0,16.7,4.8,16.7,18.3v0.8h-3.6c-11.2,0-39.6,0.8-39.6,22.2c0,12.9,11.2,19.2,22,19.2c16.2,0,21.6-14,21.5-14h0.3
					c0,0-0.1,1.9-0.1,4.8c0,5.3,2.2,7.7,7.7,7.7h5l0,0c2.1,0,3.8-1.7,3.8-3.8C125.1,284.3,123.4,282.6,121.3,282.6z M108.2,260.2
					c0,11.2-7.5,24-19.8,24C78.8,284.2,74,278,74,272c0-14.5,20.3-14.8,30.5-14.8h3.7V260.2z"/>
				<path class="st2" d="M345.7,282.8c-4.9,0-14.5-2-14.5-17.1v-32.9h13l0,0c2,0,3.7-1.6,3.7-3.7c0-2-1.6-3.7-3.7-3.7l0,0h-13v-14.7
					c0-2.4-1.9-4.3-4.3-4.3s-4.3,1.9-4.3,4.3l0,0v14.7h-5.4l0,0l0,0c-2,0-3.7,1.6-3.7,3.7c0,2,1.6,3.7,3.7,3.7l0,0l0,0h5.3v33.8
					c0,21.6,15,24.1,22.5,24.1c0.3,0,0.5,0,0.7,0c2.2,0,3.9-1.8,3.9-3.9C349.6,284.6,347.9,282.8,345.7,282.8z"/>
				<path class="st2" d="M274.1,240.9c0-6.3,5.4-9.4,14.4-9.4c4.2,0,11.2,1.8,11.2,6.6v1.2c0,2.3,1.8,4.1,4.1,4.1
					c2.3,0,4.1-1.8,4.1-4.1v-3.6c0-9.1-13.1-11.7-19.7-11.7c-13,0-23,5.8-23,17.5c0,20.8,36.3,18.3,36.3,32.4
					c0,6.8-6.4,10.3-13.6,10.3c-8.2,0-14-4-17.2-6.9l0,0c-0.7-0.6-1.6-0.9-2.5-0.9c-2.2,0-4,1.8-4,4c0,1.2,0.6,2.3,1.4,3l0,0
					c3.6,3.4,10.9,8.4,22.1,8.4c12.9,0,22.6-7.3,22.6-18.1C310.4,252.1,274.1,255.5,274.1,240.9z"/>
				<path class="st2" d="M58.3,280.6c0-2.2-1.7-3.9-3.9-3.9c-1.1,0-2,0.4-2.7,1.1c-3.5,2.6-9.3,5.9-17.3,5.9
					c-13.6,0-25.3-9.9-25.3-25.9c0-15.7,11.2-26.1,25.1-26.1c5.4,0,14.8,2.6,14.8,8v0.5c0,2.3,1.8,4.1,4.1,4.1s4.1-1.8,4.1-4.1v-2.6
					c0-10.7-15.7-13.8-23-13.8C14.8,224,0,238.1,0,257.9c0,20.1,14.7,33.8,34,33.8c11,0,18.6-4.7,22.4-7.8
					C57.5,283.3,58.3,282,58.3,280.6z"/>
			</g>
			<g>
				<g>
					<path class="st0" d="M642.9,282.6L642.9,282.6h-1.5c-1.8,0-2.8-0.9-2.8-2.8v-31c0-13.9-4.9-24.8-25.3-24.8
						c-5.7,0-21.1,1.9-21.1,10.9v3c0,2.3,1.9,4.2,4.2,4.2s4.2-1.9,4.2-4.2V237c0-4.8,9.4-5.7,12.6-5.7c11.8,0,16.7,4.8,16.7,18.3
						v0.8h-3.6c-11.2,0-39.6,0.8-39.6,22.2c0,12.9,11.2,19.2,22,19.2c16.2,0,21.6-14,21.5-14h0.3c0,0-0.1,1.9-0.1,4.8
						c0,5.3,2.2,7.7,7.7,7.7h5l0,0c2.1,0,3.8-1.7,3.8-3.8C646.7,284.3,645,282.6,642.9,282.6z M629.8,260.2c0,11.2-7.5,24-19.8,24
						c-9.6,0-14.4-6.2-14.4-12.2c0-14.5,20.3-14.8,30.5-14.8h3.7V260.2z"/>
					<path class="st0" d="M543.5,240.9c0-6.3,5.4-9.4,14.4-9.4c4.2,0,11.2,1.8,11.2,6.6v1.2c0,2.3,1.8,4.1,4.1,4.1s4.1-1.8,4.1-4.1
						v-3.6c0-9.1-13.1-11.7-19.7-11.7c-13,0-23,5.8-23,17.5c0,20.8,36.3,18.3,36.3,32.4c0,6.8-6.4,10.3-13.6,10.3
						c-8.2,0-14-4-17.2-6.9l0,0c-0.7-0.6-1.6-0.9-2.5-0.9c-2.2,0-4,1.8-4,4c0,1.2,0.6,2.3,1.4,3l0,0c3.6,3.4,10.9,8.4,22.1,8.4
						c12.9,0,22.6-7.3,22.6-18.1C579.8,252.1,543.5,255.5,543.5,240.9z"/>
					<path class="st0" d="M491.9,224c18.9,0,34.2,14.4,34.2,33.6c0,19.6-15.3,34.2-34.1,34.2c-18.9,0-34.2-14.7-34.2-34.2
						C457.8,238.4,473.1,224,491.9,224z M492,283.9c13.8,0,25.1-11.3,25.1-26.4c0-14.7-11.3-25.6-25.1-25.6
						c-13.9,0-25.2,10.9-25.2,25.6C466.8,272.6,478.2,283.9,492,283.9z"/>
					<path class="st0" d="M452.2,224.9c-10.2,0-17.4,7.5-20.5,17.2h-0.3c0,0,0.3-2.2,0.3-4.9v-4.4c0-5.1-2.4-7.3-7.8-7.3h-5.8l0,0
						l0,0c-2.1,0-3.8,1.7-3.8,3.8s1.7,3.8,3.8,3.8l0,0l0,0h2.2c1.8,0,2.8,1,2.8,2.8v49.9c0,2.4,2,4.4,4.4,4.4s4.4-2,4.4-4.4v-22.9
						c0-4.1,0.5-8.5,1.8-12.6c2.8-9.4,9.5-16.6,18.5-16.7c2.4,0,4.4-2,4.4-4.4C456.5,226.8,454.6,224.9,452.2,224.9z"/>
				</g>
			</g>
		</g>
	</g>
	<g>
		<path class="st2" d="M89.8,368.5c-2.2-1-3.9-2.4-5.1-4l1.5-1.6c1.2,1.5,2.8,2.8,4.7,3.7c1.9,1,3.9,1.4,5.8,1.4
			c3,0,5.3-0.8,7.2-2.3c1.8-1.6,2.7-3.6,2.7-6.1c0-2.4-0.7-4.4-2.2-6.1s-3.9-3.5-7.4-5.2c-3-1.5-5.3-2.8-6.9-4
			c-1.6-1.1-2.7-2.3-3.3-3.4c-0.6-1.2-1-2.5-1-4.1c0-3,1-5.4,3.1-7.2c2.1-1.8,4.8-2.7,8.2-2.7c2.4,0,4.6,0.6,6.6,1.7
			c2.1,1.1,3.6,2.6,4.5,4.5l-1.7,1.1c-0.9-1.6-2.3-2.9-4-3.8c-1.8-1-3.7-1.4-5.7-1.4c-2.6,0-4.8,0.7-6.4,2.1s-2.4,3.2-2.4,5.5
			c0,1.3,0.3,2.5,0.9,3.4c0.6,1,1.6,1.9,3.1,3c1.5,1,3.8,2.3,6.8,3.9c3.5,1.8,6,3.7,7.6,5.6c1.5,2,2.3,4.2,2.3,6.8
			c0,3.3-1.1,5.9-3.4,7.8s-5.2,2.9-9,2.9C94.3,370.1,92,369.6,89.8,368.5z"/>
		<path class="st2" d="M115.1,331.8c-0.4-0.5-0.6-1-0.6-1.8s0.2-1.3,0.6-1.8s1-0.7,1.6-0.7s1.2,0.2,1.6,0.7s0.6,1,0.6,1.8
			s-0.2,1.3-0.6,1.8s-1,0.7-1.6,0.7S115.5,332.2,115.1,331.8z M115.6,339.5h2.3v29.9h-2.3V339.5z"/>
		<path class="st2" d="M161.4,355.5H139c0.2,3.9,1.2,7,3.1,9.2s4.4,3.3,7.7,3.3c1.9,0,3.6-0.4,5.2-1.3c1.6-0.9,2.7-2,3.5-3.4
			l1.6,1.6c-2.4,3.5-5.8,5.2-10.2,5.2c-4,0-7.2-1.4-9.5-4.2c-2.3-2.8-3.5-6.6-3.5-11.3c0-4.9,1.1-8.7,3.4-11.5
			c2.2-2.8,5.3-4.2,9.2-4.2c3.8,0,6.7,1.3,8.8,3.9s3.2,6.1,3.2,10.7v2L161.4,355.5L161.4,355.5z M159.1,352.9c0-3.6-0.9-6.5-2.6-8.7
			c-1.8-2.2-4.1-3.3-7-3.3c-3.2,0-5.7,1.1-7.5,3.3c-1.8,2.2-2.8,5.3-2.9,9.2h20.1v-0.5H159.1z"/>
		<path class="st2" d="M169.1,368.9c-1.6-0.8-2.8-1.8-3.5-3.1l1.7-1.2c1.5,2.3,3.9,3.5,7.3,3.5c2.1,0,3.8-0.6,5.1-1.9
			c1.3-1.2,1.9-2.8,1.9-4.8c0-1.6-0.5-2.9-1.6-4s-2.8-2.1-5.3-3.1c-3.2-1.2-5.4-2.5-6.7-3.7c-1.3-1.3-1.9-2.8-1.9-4.6
			c0-2.1,0.8-3.8,2.4-5.1c1.6-1.3,3.7-1.9,6.3-1.9c1.7,0,3.3,0.4,4.8,1.3c1.5,0.8,2.5,1.9,3.1,3.3l-1.7,1.1
			c-1.4-2.4-3.5-3.7-6.3-3.7c-1.9,0-3.4,0.5-4.6,1.4s-1.8,2.1-1.8,3.5s0.5,2.5,1.6,3.4s3.1,2,6.1,3.1c2.8,1.1,4.7,2.3,6,3.8
			c1.2,1.4,1.9,3.2,1.9,5.3c0,2.6-0.9,4.7-2.7,6.3s-4.1,2.4-7,2.4C172.4,370.1,170.7,369.7,169.1,368.9z"/>
		<path class="st2" d="M204.9,366.8c-1.8-2.2-2.7-5.4-2.7-9.5v-17.7h2.3v18.1c0,6.9,2.8,10.4,8.3,10.4c2,0,3.7-0.5,5.3-1.6
			s2.8-2.5,3.7-4.3s1.3-3.9,1.3-6.2v-16.4h2.3v24.6c0,1.8,0.2,3.6,0.5,5.3H224c-0.4-1.7-0.6-3.8-0.6-6.2h-0.2c-1,2.2-2.4,3.8-4.3,5
			c-1.8,1.2-3.9,1.8-6.2,1.8C209.3,370.1,206.7,369,204.9,366.8z M217.4,328.7h2.8l-5.1,7.6h-2L217.4,328.7z"/>
		<path class="st2" d="M232.8,346.7c0-3.3-0.1-5.7-0.2-7.2h1.9c0.2,2.2,0.3,4.4,0.2,6.4h0.2c1-2.2,2.4-3.9,4.3-5.1
			c1.9-1.3,4-1.9,6.3-1.9c3.5,0,6.1,1.1,7.8,3.4c1.8,2.3,2.6,5.6,2.6,10.1v17.1h-2.3v-17.1c0-7.6-2.7-11.4-8-11.4
			c-2,0-3.9,0.5-5.5,1.6s-2.9,2.5-3.8,4.4c-0.9,1.9-1.4,4-1.4,6.2v16.3h-2.3v-22.8H232.8z"/>
		<path class="st2" d="M263.2,331.8c-0.4-0.5-0.6-1-0.6-1.8s0.2-1.3,0.6-1.8s1-0.7,1.6-0.7s1.2,0.2,1.6,0.7s0.6,1,0.6,1.8
			s-0.2,1.3-0.6,1.8s-1,0.7-1.6,0.7S263.7,332.2,263.2,331.8z M263.7,339.5h2.3v29.9h-2.3V339.5z"/>
		<path class="st2" d="M275.4,366c-2.3-2.7-3.4-6.6-3.4-11.5s1.2-8.7,3.5-11.4c2.3-2.8,5.5-4.1,9.6-4.1c2.2,0,4.2,0.4,6,1.3
			s3.2,2.2,4.3,4l-1.4,1.4c-1-1.5-2.2-2.6-3.8-3.5c-1.6-0.8-3.3-1.3-5.2-1.3c-3.4,0-6,1.2-7.9,3.6s-2.8,5.7-2.8,9.9s0.9,7.5,2.8,9.9
			s4.5,3.6,7.9,3.6c1.9,0,3.6-0.4,5.2-1.2c1.6-0.8,2.8-2,3.8-3.5l1.4,1.4c-1.2,1.8-2.6,3.1-4.3,4s-3.7,1.3-6,1.3
			C280.9,370.1,277.7,368.7,275.4,366z"/>
		<path class="st2" d="M303.5,368.1c-2-1.3-3.6-3.1-4.8-5.5c-1.1-2.4-1.7-5.1-1.7-8.1c0-3.1,0.6-5.8,1.7-8.1
			c1.1-2.4,2.7-4.2,4.8-5.5s4.4-1.9,7.1-1.9s5,0.7,7.1,1.9s3.6,3.1,4.8,5.5c1.1,2.4,1.7,5.1,1.7,8.1c0,3.1-0.6,5.8-1.7,8.1
			s-2.7,4.2-4.8,5.5s-4.4,1.9-7.1,1.9S305.5,369.4,303.5,368.1z M316.4,366.3c1.7-1.1,3-2.7,4-4.8c1-2.1,1.4-4.4,1.4-7s-0.5-5-1.4-7
			c-1-2.1-2.3-3.7-4-4.8c-1.7-1.1-3.6-1.7-5.8-1.7s-4.1,0.6-5.8,1.7c-1.7,1.1-3,2.7-4,4.8c-1,2.1-1.4,4.4-1.4,7s0.5,5,1.4,7
			c1,2.1,2.3,3.7,4,4.8c1.7,1.1,3.6,1.7,5.8,1.7S314.7,367.5,316.4,366.3z"/>
		<path class="st2" d="M331.2,365.2c0.6,0.7,0.8,1.7,0.8,2.9c0,1.8-0.4,3.6-1.3,5.6s-2,3.7-3.4,5.1l-0.8-1c0.9-1.1,1.7-2.4,2.3-3.8
			c0.6-1.5,1-2.9,1.1-4.2c-0.4,0.1-0.7,0.1-0.9,0.1c-0.8,0-1.4-0.3-1.9-0.8s-0.7-1.2-0.7-2.1s0.3-1.6,0.8-2.1s1.2-0.8,2-0.8
			C329.9,364.1,330.7,364.5,331.2,365.2z"/>
		<path class="st2" d="M373.3,355.5H351c0.2,3.9,1.2,7,3.1,9.2s4.4,3.3,7.7,3.3c1.9,0,3.6-0.4,5.2-1.3s2.7-2,3.5-3.4l1.6,1.6
			c-2.4,3.5-5.8,5.2-10.2,5.2c-4,0-7.2-1.4-9.6-4.2c-2.3-2.8-3.5-6.6-3.5-11.3c0-4.9,1.1-8.7,3.4-11.5c2.2-2.8,5.3-4.2,9.2-4.2
			c3.8,0,6.7,1.3,8.8,3.9c2.1,2.6,3.2,6.1,3.2,10.7v2L373.3,355.5L373.3,355.5z M371,352.9c0-3.6-0.9-6.5-2.6-8.7
			c-1.8-2.2-4.1-3.3-7-3.3c-3.2,0-5.7,1.1-7.5,3.3c-1.8,2.2-2.8,5.3-2.9,9.2h20V352.9z"/>
		<path class="st2" d="M381,368.9c-1.6-0.8-2.8-1.8-3.5-3.1l1.7-1.2c1.5,2.3,3.9,3.5,7.3,3.5c2.1,0,3.8-0.6,5.1-1.9
			c1.3-1.2,1.9-2.8,1.9-4.8c0-1.6-0.5-2.9-1.6-4s-2.8-2.1-5.3-3.1c-3.2-1.2-5.4-2.5-6.7-3.7c-1.3-1.3-1.9-2.8-1.9-4.6
			c0-2.1,0.8-3.8,2.4-5.1c1.6-1.3,3.7-1.9,6.3-1.9c1.7,0,3.3,0.4,4.8,1.3c1.5,0.8,2.5,1.9,3.1,3.3l-1.7,1.1
			c-1.4-2.4-3.5-3.7-6.3-3.7c-1.9,0-3.4,0.5-4.6,1.4s-1.8,2.1-1.8,3.5s0.5,2.5,1.6,3.4s3.1,2,6.1,3.1c2.8,1.1,4.8,2.3,6,3.8
			c1.2,1.4,1.9,3.2,1.9,5.3c0,2.6-0.9,4.7-2.7,6.3c-1.8,1.6-4.1,2.4-7,2.4C384.4,370.1,382.6,369.7,381,368.9z"/>
		<path class="st2" d="M402.4,361.4v-19.8H397v-2h5.4v-8.3l2-0.8h0.2v9h8.4v2h-8.4v19.1c0,2.6,0.4,4.5,1.1,5.6s2,1.7,3.7,1.7
			c1.5,0,2.8-0.3,3.7-0.8l0.4,2c-1.3,0.6-2.6,1-4.1,1C404.8,370.1,402.4,367.2,402.4,361.4z"/>
		<path class="st2" d="M420.3,367.6c-1.8-1.6-2.7-3.8-2.7-6.4c0-2.9,1-5.2,3.1-6.9s5-2.5,8.7-2.5h7.8V350c0-2.9-0.7-5.1-2.2-6.7
			c-1.5-1.5-3.6-2.3-6.4-2.3c-1.8,0-3.4,0.4-4.8,1.3c-1.5,0.9-2.6,2.1-3.5,3.7l-1.6-1.6c1-1.8,2.4-3.1,4.2-4.1s3.7-1.4,6-1.4
			c3.3,0,5.9,0.9,7.8,2.8c1.9,1.8,2.8,4.4,2.8,7.6v14.9c0,1.4,0.2,3.1,0.7,5.3h-1.9c-0.3-0.8-0.5-2.4-0.8-4.9h-0.1
			c-1.1,1.8-2.5,3.1-4.3,4.1c-1.7,1-3.6,1.4-5.7,1.4C424.5,370.1,422.2,369.3,420.3,367.6z M432.1,366.9c1.6-0.8,2.8-1.8,3.8-3
			c0.9-1.3,1.4-2.6,1.4-4V354h-8c-3,0-5.3,0.6-6.9,1.9s-2.5,3.1-2.5,5.3c0,2,0.7,3.6,2.1,4.9s3.1,1.9,5.2,1.9
			C428.9,368,430.6,367.7,432.1,366.9z M432.8,328.7h2.8l-5.1,7.6h-2L432.8,328.7z"/>
		<path class="st2" d="M461.4,367.6c-1.8-1.6-2.7-3.8-2.7-6.4c0-2.9,1-5.2,3.1-6.9s5-2.5,8.7-2.5h7.8V350c0-2.9-0.7-5.1-2.2-6.7
			c-1.5-1.5-3.6-2.3-6.4-2.3c-1.8,0-3.4,0.4-4.8,1.3c-1.5,0.9-2.6,2.1-3.5,3.7l-1.6-1.6c1-1.8,2.4-3.1,4.2-4.1s3.7-1.4,6-1.4
			c3.3,0,5.9,0.9,7.8,2.8c1.9,1.8,2.8,4.4,2.8,7.6v14.9c0,1.4,0.2,3.1,0.7,5.3h-1.9c-0.3-0.8-0.5-2.4-0.8-4.9h-0.1
			c-1.1,1.8-2.5,3.1-4.3,4.1c-1.7,1-3.6,1.4-5.7,1.4C465.6,370.1,463.2,369.3,461.4,367.6z M473.2,366.9c1.6-0.8,2.8-1.8,3.8-3
			c0.9-1.3,1.4-2.6,1.4-4V354h-8c-3,0-5.3,0.6-6.9,1.9s-2.5,3.1-2.5,5.3c0,2,0.7,3.6,2.1,4.9s3.1,1.9,5.2,1.9
			C470,368,471.6,367.7,473.2,366.9z"/>
		<path class="st2" d="M508.3,364.4h-0.1c-0.9,1.7-2.2,3.1-3.9,4.1s-3.6,1.5-5.7,1.5c-2.5,0-4.7-0.6-6.6-1.9s-3.4-3.1-4.4-5.5
			s-1.6-5.1-1.6-8.2c0-4.8,1.1-8.6,3.3-11.4c2.2-2.8,5.3-4.1,9.1-4.1c2.2,0,4.2,0.6,6.1,1.8s3.2,2.7,4,4.4h0.1c0-2,0.1-3.8,0.2-5.6
			h1.9c-0.1,1.6-0.2,4-0.2,7.2V384h-2.3v-19.6H508.3z M505.6,364.8c1.8-2.1,2.6-4.9,2.6-8.6v-4.7c0-2-0.4-3.8-1.3-5.4
			c-0.8-1.6-2-2.8-3.5-3.7c-1.5-0.9-3.2-1.3-5.1-1.3c-3.2,0-5.6,1.2-7.5,3.5c-1.8,2.4-2.7,5.6-2.7,9.7c0,2.7,0.4,5,1.3,7.1
			c0.8,2.1,2,3.7,3.6,4.8c1.5,1.1,3.3,1.7,5.3,1.7C501.5,367.9,503.9,366.9,505.6,364.8z"/>
		<path class="st2" d="M520.2,366.8c-1.8-2.2-2.7-5.4-2.7-9.5v-17.7h2.3v18.1c0,6.9,2.8,10.4,8.3,10.4c2,0,3.7-0.5,5.3-1.6
			s2.8-2.5,3.7-4.3s1.3-3.9,1.3-6.2v-16.4h2.3v24.6c0,1.8,0.2,3.6,0.5,5.3h-1.9c-0.4-1.7-0.6-3.8-0.6-6.2h-0.2c-1,2.2-2.4,3.8-4.2,5
			s-3.9,1.8-6.2,1.8C524.6,370.1,522,369,520.2,366.8z"/>
		<path class="st2" d="M549.2,339.5h2.3v29.9h-2.3V339.5z M553.8,328.7h2.8l-5.1,7.6h-2L553.8,328.7z"/>
		<path class="st2" d="M559.3,369.3c-0.5-0.5-0.7-1.1-0.7-1.9s0.2-1.4,0.7-1.9s1.1-0.7,1.9-0.7s1.4,0.2,1.9,0.7s0.7,1.1,0.7,1.9
			s-0.2,1.4-0.7,1.9s-1.1,0.7-1.9,0.7S559.8,369.8,559.3,369.3z"/>
	</g>
</g>
</svg>
