<?xml version="1.0" encoding="utf-8"?>
<!-- Generator: Adobe Illustrator 22.0.1, SVG Export Plug-In . SVG Version: 6.00 Build 0)  -->
<svg version="1.1" id="Layer_1" xmlns="http://www.w3.org/2000/svg" xmlns:xlink="http://www.w3.org/1999/xlink" x="0px" y="0px"
	 viewBox="0 0 238 8" style="enable-background:new 0 0 238 8;" xml:space="preserve">
<style type="text/css">
	.st0{fill:#FFFFFF;}
</style>
<path class="st0" d="M223.1,7.5l-14.9-6l-14.9,6l-14.9-6l-14.9,6l-14.9-6l-14.9,6l-14.9-6l-14.9,6l-14.9-6l-14.9,6l-14.9-6l-14.9,6
	l-14.9-6l-14.9,6L0,1.5V8h238V1.5L223.1,7.5z"/>
</svg>
