<?xml version="1.0" encoding="UTF-8"?>
<svg width="70px" height="70px" viewBox="0 0 70 70" version="1.1" xmlns="http://www.w3.org/2000/svg" xmlns:xlink="http://www.w3.org/1999/xlink">
    <!-- Generator: Sketch 54.1 (76490) - https://sketchapp.com -->
    <title>Artboard</title>
    <desc>Created with Sketch.</desc>
    <g id="Artboard" stroke="none" stroke-width="1" fill="none" fill-rule="evenodd">
        <g id="login" transform="translate(1.000000, 1.000000)" fill="#3F3F3F" fill-rule="nonzero">
            <path d="M17.7793132,62.6875 L8.2059114,62.6875 C7.05153818,62.6875 6.35510149,62.0546484 6.04277985,61.6773281 C5.50358561,61.02575 5.29469517,60.177875 5.47005498,59.3505859 C8.27811043,46.1010781 20.1814857,36.4250234 33.9230969,36.1110547 C34.1519976,36.1194219 34.3814391,36.125 34.6122326,36.125 C34.8450542,36.125 35.0765237,36.1192891 35.3074525,36.1107891 C38.6676818,36.1860937 41.9498982,36.8067266 45.074061,37.9591406 C46.4720722,38.4751172 48.0311115,37.7795781 48.5561093,36.4061641 C49.0811071,35.0328828 48.3733132,33.5014219 46.9751669,32.9857109 C46.5275059,32.8204922 46.0767352,32.6658984 45.6238012,32.5192734 C50.0991945,29.2215391 53,23.9685391 53,18.0625 C53,8.10289063 44.7513287,0 34.6122326,0 C24.4731366,0 16.2244652,8.10289063 16.2244652,18.0625 C16.2244652,23.9738516 19.1302733,29.2309687 23.6124268,32.5281719 C19.5061409,33.8560313 15.652822,35.921 12.2805595,38.6457812 C6.09740234,43.6417891 1.79831528,50.6103281 0.175459606,58.2678984 C-0.333178489,60.6672891 0.27605151,63.1317578 1.84698878,65.0291172 C3.40994901,66.9171797 5.72775413,68 8.2059114,68 L17.7793132,68 C19.2727785,68 20.4833966,66.8107969 20.4833966,65.34375 C20.4833966,63.8767031 19.2727785,62.6875 17.7793132,62.6875 Z M21.6326321,18.0625 C21.6326321,11.0320703 27.4551998,5.3125 34.6122326,5.3125 C41.7692655,5.3125 47.5918331,11.0320703 47.5918331,18.0625 C47.5918331,24.8846797 42.1087631,30.4722344 35.2441769,30.7972266 C35.033664,30.7935078 34.8231511,30.7903203 34.6122326,30.7903203 C34.4007733,30.7903203 34.1894492,30.793375 33.9782603,30.7970937 C27.1146205,30.4711719 21.6326321,24.8840156 21.6326321,18.0625 Z" id="Shape"></path>
            <path d="M65.9920801,45.2884085 C64.8693256,42.6901542 62.3402754,41.0066483 59.542766,41 L51.3628283,41 C51.3569266,41 51.3514184,41 51.3453856,41 C48.3945648,41 45.8201375,42.7991045 44.7842027,45.5869024 C44.6463665,45.957849 44.4778419,46.4251278 44.3019729,46.9698792 L27.1287201,46.9698792 C26.419605,46.9698792 25.7407851,47.2668807 25.2467521,47.7931799 L20.7410453,52.5945909 C19.7486515,53.6520736 19.7536351,55.3357153 20.7521929,56.386821 L25.3423587,61.2186242 C25.8354736,61.7377324 26.5095723,62.0301208 27.213048,62.0301208 L35.7376416,62.0301208 C37.1862979,62.0301208 38.3605935,60.8152503 38.3605935,59.3165393 C38.3605935,57.8178282 37.1862979,56.6029578 35.7376416,56.6029578 L28.3128517,56.6029578 L26.2895066,54.4730677 L28.2379664,52.3970422 L46.2695803,52.3970422 C47.4779742,52.3970422 48.5299091,51.5429424 48.8172535,50.3287504 C49.0294503,49.4323188 49.2956799,48.5704853 49.6807292,47.5343042 C49.934631,46.8510244 50.5722706,46.427163 51.3516807,46.427163 C51.3533857,46.427163 51.3550906,46.427163 51.3567955,46.427163 L59.5366021,46.427163 C60.2783729,46.4289268 60.9167994,46.8413912 61.2028323,47.5033694 C61.9069637,49.1331464 62.7477509,51.6562345 62.754046,54.4211026 C62.7603411,57.2064583 61.9204719,59.7873457 61.2145044,61.4620325 C60.9299141,62.1374429 60.2861106,62.5729727 59.5672906,62.5729727 C59.565848,62.5729727 59.5644054,62.5729727 59.5629628,62.5729727 L51.2842709,62.5729727 C50.5586312,62.5712089 49.8788932,62.0881914 49.5929915,61.3711275 C49.2862373,60.6016915 49.0204011,59.7231695 48.7802699,58.6850889 C48.4430894,57.2276243 47.02722,56.3288861 45.6189571,56.6775813 C44.2100385,57.0264122 43.3413168,58.4907964 43.6784973,59.948261 C43.9828909,61.2642124 44.33135,62.4064945 44.7435469,63.440369 C45.8450555,66.2033377 48.4076795,67.9930804 51.2782381,68 L59.55693,68 C59.5625693,68 59.5678152,68 59.5734546,68 C62.3735869,67.9998643 64.9042108,66.2863733 66.0232933,63.6309981 C66.9297854,61.4803491 68.0084744,58.1345032 67.9999498,54.4082131 C67.9915563,50.692099 66.9034248,47.3976754 65.9920801,45.2884085 Z" id="Path"></path>
            <circle id="Oval" cx="57.5" cy="55.5" r="2.5"></circle>
        </g>
    </g>
</svg>