<?xml version="1.0" encoding="utf-8"?>
<!-- Generator: Adobe Illustrator 22.1.0, SVG Export Plug-In . SVG Version: 6.00 Build 0)  -->
<svg version="1.1" id="Capa_1" xmlns="http://www.w3.org/2000/svg" xmlns:xlink="http://www.w3.org/1999/xlink" x="0px" y="0px"
	 viewBox="0 0 393 408.1" style="enable-background:new 0 0 393 408.1;" xml:space="preserve">
<style type="text/css">
	.st0{fill:#A0D0DE;}
	.st1{fill:#77ADBD;}
	.st2{fill:#F0E2E3;}
	.st3{fill:#FCEFF0;}
	.st4{fill:#EA5C9D;}
	.st5{fill:none;stroke:#568B9C;stroke-width:9;stroke-linecap:round;stroke-linejoin:round;stroke-miterlimit:10;}
	.st6{fill:none;stroke:#77ADBD;stroke-width:5;stroke-linecap:round;stroke-linejoin:round;stroke-miterlimit:10;}
	.st7{fill:#568B9C;}
	.st8{fill:#E63976;}
	.st9{fill:none;stroke:#EA5C9D;stroke-linecap:round;stroke-linejoin:round;stroke-miterlimit:10;stroke-dasharray:5,7;}
</style>
<path class="st0" d="M71.6,273.1h316.3c0,0,0-115.9,0-126.5c0-10.6-8-71.1-82-71.1s-126.7,0-160.9,0s-74.9,23.9-74.9,78.1
	S71.6,273.1,71.6,273.1z"/>
<path class="st1" d="M146.4,84.8c-0.6,0-1.2,0-1.8,0c-31,0-67.7,21.6-67.7,70.8c0,49.2,1.3,108.3,1.3,108.3h142.4
	c0,0,0-105.1,0-114.7C220.6,139.6,213.4,84.8,146.4,84.8z"/>
<rect x="195.8" y="285.2" class="st1" width="66.4" height="113.3"/>
<path class="st2" d="M151.9,227.5L23.6,242c-4.4,0.5-8.3-2.7-8.8-7l-9.5-83.9c-0.5-4.4,2.7-8.3,7-8.8l128.3-14.5
	c4.4-0.5,8.3,2.7,8.8,7l9.5,83.9C159.5,223.1,156.3,227,151.9,227.5z"/>
<path class="st3" d="M139.7,127.9L13.3,142.2c-4.9,0.6-8.4,5-7.9,9.9c0,0,73.6,33.2,76.7,32.9c3.1-0.4,67.5-49.1,67.5-49.1
	C149,130.9,144.6,127.3,139.7,127.9z"/>
<path id="Fill-82_1_" class="st4" d="M304.1,167.7c0,0-12.6-25.5-24.4-18.6c-11.7,6.7,7.7,42.7,22.4,43.6
	c14.6,0.9,36.4-28.5,30.9-40.8C327.3,139.6,309.4,151.6,304.1,167.7"/>
<line class="st5" x1="161.6" y1="398.5" x2="298.9" y2="398.5"/>
<line class="st6" x1="373.2" y1="248.4" x2="324.2" y2="248.4"/>
<line class="st6" x1="308" y1="248.4" x2="308" y2="248.4"/>
<path class="st7" d="M271,293.6h-84c-5,0-9.2-4.1-9.2-9.2v-2.2c0-5,4.1-9.2,9.2-9.2h84c5,0,9.2,4.1,9.2,9.2v2.2
	C280.2,289.5,276,293.6,271,293.6z"/>
<path class="st4" d="M323.4,2.7l-2.8,0c-1.2,0-2.1,0.9-2.2,2.1l-3.8,104c0,1.2,2.1,5.4,6.9,5.4s6.9-4,6.9-5.3L325.6,4.8
	C325.5,3.7,324.6,2.7,323.4,2.7z"/>
<polygon class="st8" points="324.2,3 355,6.3 350.9,34.4 326.5,37.2 "/>
<path class="st6" d="M312.5,100.3"/>
<path class="st9" d="M9,204.2c-4.6,8.4-6.9,19.8-7,33.3c-1,67.1,86.6-77.2,162.3-77.2c55.6,0,52.3,36.1,52.3,36.1"/>
<path class="st9" d="M46,138.5c0,0,67.5-62.9,42.1-96.2C65.8,13,11.3,30.9,5.4,58.4"/>
</svg>
