{
  "data": {
    "name": "nombre del landing",
    "slug": "slug del landing",
    "banner": "https://canastarosa.s3.amazonaws.com/media/market/store/photo/8ed0c65994fca019b084c282b2de1043.jpg",
    "listings": [
      {
        "type": "store",
        "name": "La mejores tiendas para navidad",
        "excerpt": "Descripción corta",
        "items": [
          {
            "id": 23953,
            "api_link": "http://localhost:8000/api/v1/market/stores/cacao-co/",
            "description": "Descripción larga",
            "excerpt": "Descripción corta",
            "name": "Cacao Co",
            "photo": {
              "medium": "https://canastarosa.s3.amazonaws.com/media/market/store/photo/8ed0c65994fca019b084c282b2de1043.jpg",
              "big": "https://canastarosa.s3.amazonaws.com/media/market/store/photo/8ed0c65994fca019b084c282b2de1043.jpg",
              "original": "https://canastarosa.s3.amazonaws.com/media/market/store/photo/8ed0c65994fca019b084c282b2de1043.jpg",
              "small": "https://canastarosa.s3.amazonaws.com/media/market/store/photo/8ed0c65994fca019b084c282b2de1043.jpg"
            },
            "slug": "cacao-co",
            "slogan": "(No es chocolate)"
          },
          {
            "id": 23953,
            "api_link": "http://localhost:8000/api/v1/market/stores/cacao-co/",
            "description": "Descripción larga",
            "excerpt": "Descripción corta",
            "name": "Cacao Co",
            "photo": {
              "medium": "https://canastarosa.s3.amazonaws.com/media/market/store/photo/8ed0c65994fca019b084c282b2de1043.jpg",
              "big": "https://canastarosa.s3.amazonaws.com/media/market/store/photo/8ed0c65994fca019b084c282b2de1043.jpg",
              "original": "https://canastarosa.s3.amazonaws.com/media/market/store/photo/8ed0c65994fca019b084c282b2de1043.jpg",
              "small": "https://canastarosa.s3.amazonaws.com/media/market/store/photo/8ed0c65994fca019b084c282b2de1043.jpg"
            },
            "slug": "cacao-co",
            "slogan": "(No es chocolate)"
          },
          {
            "id": 23953,
            "api_link": "http://localhost:8000/api/v1/market/stores/cacao-co/",
            "description": "Descripción larga",
            "excerpt": "Descripción corta",
            "name": "Cacao Co",
            "photo": {
              "medium": "https://canastarosa.s3.amazonaws.com/media/market/store/photo/8ed0c65994fca019b084c282b2de1043.jpg",
              "big": "https://canastarosa.s3.amazonaws.com/media/market/store/photo/8ed0c65994fca019b084c282b2de1043.jpg",
              "original": "https://canastarosa.s3.amazonaws.com/media/market/store/photo/8ed0c65994fca019b084c282b2de1043.jpg",
              "small": "https://canastarosa.s3.amazonaws.com/media/market/store/photo/8ed0c65994fca019b084c282b2de1043.jpg"
            },
            "slug": "cacao-co",
            "slogan": "(No es chocolate)"
          },
          {
            "id": 23953,
            "api_link": "http://localhost:8000/api/v1/market/stores/cacao-co/",
            "description": "Descripción larga",
            "excerpt": "Descripción corta",
            "name": "Cacao Co",
            "photo": {
              "medium": "https://canastarosa.s3.amazonaws.com/media/market/store/photo/8ed0c65994fca019b084c282b2de1043.jpg",
              "big": "https://canastarosa.s3.amazonaws.com/media/market/store/photo/8ed0c65994fca019b084c282b2de1043.jpg",
              "original": "https://canastarosa.s3.amazonaws.com/media/market/store/photo/8ed0c65994fca019b084c282b2de1043.jpg",
              "small": "https://canastarosa.s3.amazonaws.com/media/market/store/photo/8ed0c65994fca019b084c282b2de1043.jpg"
            },
            "slug": "cacao-co",
            "slogan": "(No es chocolate)"
          },
          {
            "id": 23953,
            "api_link": "http://localhost:8000/api/v1/market/stores/cacao-co/",
            "description": "Descripción larga",
            "excerpt": "Descripción corta",
            "name": "Cacao Co",
            "photo": {
              "medium": "https://canastarosa.s3.amazonaws.com/media/market/store/photo/8ed0c65994fca019b084c282b2de1043.jpg",
              "big": "https://canastarosa.s3.amazonaws.com/media/market/store/photo/8ed0c65994fca019b084c282b2de1043.jpg",
              "original": "https://canastarosa.s3.amazonaws.com/media/market/store/photo/8ed0c65994fca019b084c282b2de1043.jpg",
              "small": "https://canastarosa.s3.amazonaws.com/media/market/store/photo/8ed0c65994fca019b084c282b2de1043.jpg"
            },
            "slug": "cacao-co",
            "slogan": "(No es chocolate)"
          },
          {
            "id": 23953,
            "api_link": "http://localhost:8000/api/v1/market/stores/cacao-co/",
            "description": "Descripción larga",
            "excerpt": "Descripción corta",
            "name": "Cacao Co",
            "photo": {
              "medium": "https://canastarosa.s3.amazonaws.com/media/market/store/photo/8ed0c65994fca019b084c282b2de1043.jpg",
              "big": "https://canastarosa.s3.amazonaws.com/media/market/store/photo/8ed0c65994fca019b084c282b2de1043.jpg",
              "original": "https://canastarosa.s3.amazonaws.com/media/market/store/photo/8ed0c65994fca019b084c282b2de1043.jpg",
              "small": "https://canastarosa.s3.amazonaws.com/media/market/store/photo/8ed0c65994fca019b084c282b2de1043.jpg"
            },
            "slug": "cacao-co",
            "slogan": "(No es chocolate)"
          },
          {
            "id": 23953,
            "api_link": "http://localhost:8000/api/v1/market/stores/cacao-co/",
            "description": "Descripción larga",
            "excerpt": "Descripción corta",
            "name": "Cacao Co",
            "photo": {
              "medium": "https://canastarosa.s3.amazonaws.com/media/market/store/photo/8ed0c65994fca019b084c282b2de1043.jpg",
              "big": "https://canastarosa.s3.amazonaws.com/media/market/store/photo/8ed0c65994fca019b084c282b2de1043.jpg",
              "original": "https://canastarosa.s3.amazonaws.com/media/market/store/photo/8ed0c65994fca019b084c282b2de1043.jpg",
              "small": "https://canastarosa.s3.amazonaws.com/media/market/store/photo/8ed0c65994fca019b084c282b2de1043.jpg"
            },
            "slug": "cacao-co",
            "slogan": "(No es chocolate)"
          },
          {
            "id": 23953,
            "api_link": "http://localhost:8000/api/v1/market/stores/cacao-co/",
            "description": "Descripción larga",
            "excerpt": "Descripción corta",
            "name": "Cacao Co",
            "photo": {
              "medium": "https://canastarosa.s3.amazonaws.com/media/market/store/photo/8ed0c65994fca019b084c282b2de1043.jpg",
              "big": "https://canastarosa.s3.amazonaws.com/media/market/store/photo/8ed0c65994fca019b084c282b2de1043.jpg",
              "original": "https://canastarosa.s3.amazonaws.com/media/market/store/photo/8ed0c65994fca019b084c282b2de1043.jpg",
              "small": "https://canastarosa.s3.amazonaws.com/media/market/store/photo/8ed0c65994fca019b084c282b2de1043.jpg"
            },
            "slug": "cacao-co",
            "slogan": "(No es chocolate)"
          }
        ]
      },
      {
        "type": "product",
        "name": "Los mejores productos para navidad",
        "excerpt": "Descripción corta",
        "items": [
          {
            "id": 12349,
            "api_link": "http://localhost:8000/api/v1/market/stores/cacao-co/products/manjar-de-cacao-organico-01801081/",
            "name": "Manjar de cacao orgánico",
            "photos": {
              "big": "https://canastarosa.s3.amazonaws.com/media/market/product/558b40c02e4988025b37e7f5fc532649.JPG",
              "small": "https://canastarosa.s3.amazonaws.com/media/market/product/558b40c02e4988025b37e7f5fc532649.JPG",
              "original": "https://canastarosa.s3.amazonaws.com/media/market/product/558b40c02e4988025b37e7f5fc532649.JPG",
              "medium": "https://canastarosa.s3.amazonaws.com/media/market/product/558b40c02e4988025b37e7f5fc532649.JPG"
            },
            "price": "200.00",
            "quantity": 4,
            "slug": "manjar-de-cacao-organico-01801081",
            "store": {
              "api_link": "http://localhost:8000/api/v1/market/stores/cacao-co/",
              "description": "Descripción larga",
              "excerpt": "Descripción corta",
              "name": "Cacao Co.",
              "photo": {
                "medium": "https://canastarosa.s3.amazonaws.com/media/market/store/photo/8ed0c65994fca019b084c282b2de1043.jpg",
                "big": "https://canastarosa.s3.amazonaws.com/media/market/store/photo/8ed0c65994fca019b084c282b2de1043.jpg",
                "original": "https://canastarosa.s3.amazonaws.com/media/market/store/photo/8ed0c65994fca019b084c282b2de1043.jpg",
                "small": "https://canastarosa.s3.amazonaws.com/media/market/store/photo/8ed0c65994fca019b084c282b2de1043.jpg"
              },
              "slogan": "(No es chocolate)",
              "slug": "cacao-co"
            }
          },
          {
            "id": 12349,
            "api_link": "http://localhost:8000/api/v1/market/stores/cacao-co/products/manjar-de-cacao-organico-01801081/",
            "name": "Manjar de cacao orgánico",
            "photos": {
              "big": "https://canastarosa.s3.amazonaws.com/media/market/product/558b40c02e4988025b37e7f5fc532649.JPG",
              "small": "https://canastarosa.s3.amazonaws.com/media/market/product/558b40c02e4988025b37e7f5fc532649.JPG",
              "original": "https://canastarosa.s3.amazonaws.com/media/market/product/558b40c02e4988025b37e7f5fc532649.JPG",
              "medium": "https://canastarosa.s3.amazonaws.com/media/market/product/558b40c02e4988025b37e7f5fc532649.JPG"
            },
            "price": "200.00",
            "quantity": 4,
            "slug": "manjar-de-cacao-organico-01801081",
            "store": {
              "api_link": "http://localhost:8000/api/v1/market/stores/cacao-co/",
              "description": "Descripción larga",
              "excerpt": "Descripción corta",
              "name": "Cacao Co.",
              "photo": {
                "medium": "https://canastarosa.s3.amazonaws.com/media/market/store/photo/8ed0c65994fca019b084c282b2de1043.jpg",
                "big": "https://canastarosa.s3.amazonaws.com/media/market/store/photo/8ed0c65994fca019b084c282b2de1043.jpg",
                "original": "https://canastarosa.s3.amazonaws.com/media/market/store/photo/8ed0c65994fca019b084c282b2de1043.jpg",
                "small": "https://canastarosa.s3.amazonaws.com/media/market/store/photo/8ed0c65994fca019b084c282b2de1043.jpg"
              },
              "slogan": "(No es chocolate)",
              "slug": "cacao-co"
            }
          },
          {
            "id": 12349,
            "api_link": "http://localhost:8000/api/v1/market/stores/cacao-co/products/manjar-de-cacao-organico-01801081/",
            "name": "Manjar de cacao orgánico",
            "photos": {
              "big": "https://canastarosa.s3.amazonaws.com/media/market/product/558b40c02e4988025b37e7f5fc532649.JPG",
              "small": "https://canastarosa.s3.amazonaws.com/media/market/product/558b40c02e4988025b37e7f5fc532649.JPG",
              "original": "https://canastarosa.s3.amazonaws.com/media/market/product/558b40c02e4988025b37e7f5fc532649.JPG",
              "medium": "https://canastarosa.s3.amazonaws.com/media/market/product/558b40c02e4988025b37e7f5fc532649.JPG"
            },
            "price": "200.00",
            "quantity": 4,
            "slug": "manjar-de-cacao-organico-01801081",
            "store": {
              "api_link": "http://localhost:8000/api/v1/market/stores/cacao-co/",
              "description": "Descripción larga",
              "excerpt": "Descripción corta",
              "name": "Cacao Co.",
              "photo": {
                "medium": "https://canastarosa.s3.amazonaws.com/media/market/store/photo/8ed0c65994fca019b084c282b2de1043.jpg",
                "big": "https://canastarosa.s3.amazonaws.com/media/market/store/photo/8ed0c65994fca019b084c282b2de1043.jpg",
                "original": "https://canastarosa.s3.amazonaws.com/media/market/store/photo/8ed0c65994fca019b084c282b2de1043.jpg",
                "small": "https://canastarosa.s3.amazonaws.com/media/market/store/photo/8ed0c65994fca019b084c282b2de1043.jpg"
              },
              "slogan": "(No es chocolate)",
              "slug": "cacao-co"
            }
          },
          {
            "id": 12349,
            "api_link": "http://localhost:8000/api/v1/market/stores/cacao-co/products/manjar-de-cacao-organico-01801081/",
            "name": "Manjar de cacao orgánico",
            "photos": {
              "big": "https://canastarosa.s3.amazonaws.com/media/market/product/558b40c02e4988025b37e7f5fc532649.JPG",
              "small": "https://canastarosa.s3.amazonaws.com/media/market/product/558b40c02e4988025b37e7f5fc532649.JPG",
              "original": "https://canastarosa.s3.amazonaws.com/media/market/product/558b40c02e4988025b37e7f5fc532649.JPG",
              "medium": "https://canastarosa.s3.amazonaws.com/media/market/product/558b40c02e4988025b37e7f5fc532649.JPG"
            },
            "price": "200.00",
            "quantity": 4,
            "slug": "manjar-de-cacao-organico-01801081",
            "store": {
              "api_link": "http://localhost:8000/api/v1/market/stores/cacao-co/",
              "description": "Descripción larga",
              "excerpt": "Descripción corta",
              "name": "Cacao Co.",
              "photo": {
                "medium": "https://canastarosa.s3.amazonaws.com/media/market/store/photo/8ed0c65994fca019b084c282b2de1043.jpg",
                "big": "https://canastarosa.s3.amazonaws.com/media/market/store/photo/8ed0c65994fca019b084c282b2de1043.jpg",
                "original": "https://canastarosa.s3.amazonaws.com/media/market/store/photo/8ed0c65994fca019b084c282b2de1043.jpg",
                "small": "https://canastarosa.s3.amazonaws.com/media/market/store/photo/8ed0c65994fca019b084c282b2de1043.jpg"
              },
              "slogan": "(No es chocolate)",
              "slug": "cacao-co"
            }
          },
          {
            "id": 12349,
            "api_link": "http://localhost:8000/api/v1/market/stores/cacao-co/products/manjar-de-cacao-organico-01801081/",
            "name": "Manjar de cacao orgánico",
            "photos": {
              "big": "https://canastarosa.s3.amazonaws.com/media/market/product/558b40c02e4988025b37e7f5fc532649.JPG",
              "small": "https://canastarosa.s3.amazonaws.com/media/market/product/558b40c02e4988025b37e7f5fc532649.JPG",
              "original": "https://canastarosa.s3.amazonaws.com/media/market/product/558b40c02e4988025b37e7f5fc532649.JPG",
              "medium": "https://canastarosa.s3.amazonaws.com/media/market/product/558b40c02e4988025b37e7f5fc532649.JPG"
            },
            "price": "200.00",
            "quantity": 4,
            "slug": "manjar-de-cacao-organico-01801081",
            "store": {
              "api_link": "http://localhost:8000/api/v1/market/stores/cacao-co/",
              "description": "Descripción larga",
              "excerpt": "Descripción corta",
              "name": "Cacao Co.",
              "photo": {
                "medium": "https://canastarosa.s3.amazonaws.com/media/market/store/photo/8ed0c65994fca019b084c282b2de1043.jpg",
                "big": "https://canastarosa.s3.amazonaws.com/media/market/store/photo/8ed0c65994fca019b084c282b2de1043.jpg",
                "original": "https://canastarosa.s3.amazonaws.com/media/market/store/photo/8ed0c65994fca019b084c282b2de1043.jpg",
                "small": "https://canastarosa.s3.amazonaws.com/media/market/store/photo/8ed0c65994fca019b084c282b2de1043.jpg"
              },
              "slogan": "(No es chocolate)",
              "slug": "cacao-co"
            }
          },
          {
            "id": 12349,
            "api_link": "http://localhost:8000/api/v1/market/stores/cacao-co/products/manjar-de-cacao-organico-01801081/",
            "name": "Manjar de cacao orgánico",
            "photos": {
              "big": "https://canastarosa.s3.amazonaws.com/media/market/product/558b40c02e4988025b37e7f5fc532649.JPG",
              "small": "https://canastarosa.s3.amazonaws.com/media/market/product/558b40c02e4988025b37e7f5fc532649.JPG",
              "original": "https://canastarosa.s3.amazonaws.com/media/market/product/558b40c02e4988025b37e7f5fc532649.JPG",
              "medium": "https://canastarosa.s3.amazonaws.com/media/market/product/558b40c02e4988025b37e7f5fc532649.JPG"
            },
            "price": "200.00",
            "quantity": 4,
            "slug": "manjar-de-cacao-organico-01801081",
            "store": {
              "api_link": "http://localhost:8000/api/v1/market/stores/cacao-co/",
              "description": "Descripción larga",
              "excerpt": "Descripción corta",
              "name": "Cacao Co.",
              "photo": {
                "medium": "https://canastarosa.s3.amazonaws.com/media/market/store/photo/8ed0c65994fca019b084c282b2de1043.jpg",
                "big": "https://canastarosa.s3.amazonaws.com/media/market/store/photo/8ed0c65994fca019b084c282b2de1043.jpg",
                "original": "https://canastarosa.s3.amazonaws.com/media/market/store/photo/8ed0c65994fca019b084c282b2de1043.jpg",
                "small": "https://canastarosa.s3.amazonaws.com/media/market/store/photo/8ed0c65994fca019b084c282b2de1043.jpg"
              },
              "slogan": "(No es chocolate)",
              "slug": "cacao-co"
            }
          },
          {
            "id": 12349,
            "api_link": "http://localhost:8000/api/v1/market/stores/cacao-co/products/manjar-de-cacao-organico-01801081/",
            "name": "Manjar de cacao orgánico",
            "photos": {
              "big": "https://canastarosa.s3.amazonaws.com/media/market/product/558b40c02e4988025b37e7f5fc532649.JPG",
              "small": "https://canastarosa.s3.amazonaws.com/media/market/product/558b40c02e4988025b37e7f5fc532649.JPG",
              "original": "https://canastarosa.s3.amazonaws.com/media/market/product/558b40c02e4988025b37e7f5fc532649.JPG",
              "medium": "https://canastarosa.s3.amazonaws.com/media/market/product/558b40c02e4988025b37e7f5fc532649.JPG"
            },
            "price": "200.00",
            "quantity": 4,
            "slug": "manjar-de-cacao-organico-01801081",
            "store": {
              "api_link": "http://localhost:8000/api/v1/market/stores/cacao-co/",
              "description": "Descripción larga",
              "excerpt": "Descripción corta",
              "name": "Cacao Co.",
              "photo": {
                "medium": "https://canastarosa.s3.amazonaws.com/media/market/store/photo/8ed0c65994fca019b084c282b2de1043.jpg",
                "big": "https://canastarosa.s3.amazonaws.com/media/market/store/photo/8ed0c65994fca019b084c282b2de1043.jpg",
                "original": "https://canastarosa.s3.amazonaws.com/media/market/store/photo/8ed0c65994fca019b084c282b2de1043.jpg",
                "small": "https://canastarosa.s3.amazonaws.com/media/market/store/photo/8ed0c65994fca019b084c282b2de1043.jpg"
              },
              "slogan": "(No es chocolate)",
              "slug": "cacao-co"
            }
          },
          {
            "id": 12349,
            "api_link": "http://localhost:8000/api/v1/market/stores/cacao-co/products/manjar-de-cacao-organico-01801081/",
            "name": "Manjar de cacao orgánico",
            "photos": {
              "big": "https://canastarosa.s3.amazonaws.com/media/market/product/558b40c02e4988025b37e7f5fc532649.JPG",
              "small": "https://canastarosa.s3.amazonaws.com/media/market/product/558b40c02e4988025b37e7f5fc532649.JPG",
              "original": "https://canastarosa.s3.amazonaws.com/media/market/product/558b40c02e4988025b37e7f5fc532649.JPG",
              "medium": "https://canastarosa.s3.amazonaws.com/media/market/product/558b40c02e4988025b37e7f5fc532649.JPG"
            },
            "price": "200.00",
            "quantity": 4,
            "slug": "manjar-de-cacao-organico-01801081",
            "store": {
              "api_link": "http://localhost:8000/api/v1/market/stores/cacao-co/",
              "description": "Descripción larga",
              "excerpt": "Descripción corta",
              "name": "Cacao Co.",
              "photo": {
                "medium": "https://canastarosa.s3.amazonaws.com/media/market/store/photo/8ed0c65994fca019b084c282b2de1043.jpg",
                "big": "https://canastarosa.s3.amazonaws.com/media/market/store/photo/8ed0c65994fca019b084c282b2de1043.jpg",
                "original": "https://canastarosa.s3.amazonaws.com/media/market/store/photo/8ed0c65994fca019b084c282b2de1043.jpg",
                "small": "https://canastarosa.s3.amazonaws.com/media/market/store/photo/8ed0c65994fca019b084c282b2de1043.jpg"
              },
              "slogan": "(No es chocolate)",
              "slug": "cacao-co"
            }
          }
        ]
      },
      {
        "type": "article",
        "name": "Los mejores articulos para navidad",
        "excerpt": "Descripción corta",
        "items": [
          {
            "id": 23409,
            "title": "PASTEL DE TE VERDE SALUDABLE",
            "excerpt": "Un delicioso pastel de te verde.",
            "cover_photo": {
              "medium": "http://www.sweetcannela.com/wp-content/uploads/2014/03/GTC5-1024x1024.jpg",
              "big": "http://www.sweetcannela.com/wp-content/uploads/2014/03/GTC5-1024x1024.jpg",
              "original": "http://www.sweetcannela.com/wp-content/uploads/2014/03/GTC5-1024x1024.jpg",
              "small": "http://www.sweetcannela.com/wp-content/uploads/2014/03/GTC5-1024x1024.jpg"
            },
            "slug": "healthy-green-tea-cake"
          },
          {
            "id": 23409,
            "title": "PASTEL DE TE VERDE SALUDABLE",
            "excerpt": "Un delicioso pastel de te verde.",
            "cover_photo": {
              "medium": "http://www.sweetcannela.com/wp-content/uploads/2014/03/GTC5-1024x1024.jpg",
              "big": "http://www.sweetcannela.com/wp-content/uploads/2014/03/GTC5-1024x1024.jpg",
              "original": "http://www.sweetcannela.com/wp-content/uploads/2014/03/GTC5-1024x1024.jpg",
              "small": "http://www.sweetcannela.com/wp-content/uploads/2014/03/GTC5-1024x1024.jpg"
            },
            "slug": "healthy-green-tea-cake"
          },
          {
            "id": 23409,
            "title": "PASTEL DE TE VERDE SALUDABLE",
            "excerpt": "Un delicioso pastel de te verde.",
            "cover_photo": {
              "medium": "http://www.sweetcannela.com/wp-content/uploads/2014/03/GTC5-1024x1024.jpg",
              "big": "http://www.sweetcannela.com/wp-content/uploads/2014/03/GTC5-1024x1024.jpg",
              "original": "http://www.sweetcannela.com/wp-content/uploads/2014/03/GTC5-1024x1024.jpg",
              "small": "http://www.sweetcannela.com/wp-content/uploads/2014/03/GTC5-1024x1024.jpg"
            },
            "slug": "healthy-green-tea-cake"
          },
          {
            "id": 23409,
            "title": "PASTEL DE TE VERDE SALUDABLE",
            "excerpt": "Un delicioso pastel de te verde.",
            "cover_photo": {
              "medium": "http://www.sweetcannela.com/wp-content/uploads/2014/03/GTC5-1024x1024.jpg",
              "big": "http://www.sweetcannela.com/wp-content/uploads/2014/03/GTC5-1024x1024.jpg",
              "original": "http://www.sweetcannela.com/wp-content/uploads/2014/03/GTC5-1024x1024.jpg",
              "small": "http://www.sweetcannela.com/wp-content/uploads/2014/03/GTC5-1024x1024.jpg"
            },
            "slug": "healthy-green-tea-cake"
          },
          {
            "id": 23409,
            "title": "PASTEL DE TE VERDE SALUDABLE",
            "excerpt": "Un delicioso pastel de te verde.",
            "cover_photo": {
              "medium": "http://www.sweetcannela.com/wp-content/uploads/2014/03/GTC5-1024x1024.jpg",
              "big": "http://www.sweetcannela.com/wp-content/uploads/2014/03/GTC5-1024x1024.jpg",
              "original": "http://www.sweetcannela.com/wp-content/uploads/2014/03/GTC5-1024x1024.jpg",
              "small": "http://www.sweetcannela.com/wp-content/uploads/2014/03/GTC5-1024x1024.jpg"
            },
            "slug": "healthy-green-tea-cake"
          },
          {
            "id": 23409,
            "title": "PASTEL DE TE VERDE SALUDABLE",
            "excerpt": "Un delicioso pastel de te verde.",
            "cover_photo": {
              "medium": "http://www.sweetcannela.com/wp-content/uploads/2014/03/GTC5-1024x1024.jpg",
              "big": "http://www.sweetcannela.com/wp-content/uploads/2014/03/GTC5-1024x1024.jpg",
              "original": "http://www.sweetcannela.com/wp-content/uploads/2014/03/GTC5-1024x1024.jpg",
              "small": "http://www.sweetcannela.com/wp-content/uploads/2014/03/GTC5-1024x1024.jpg"
            },
            "slug": "healthy-green-tea-cake"
          },
          {
            "id": 23409,
            "title": "PASTEL DE TE VERDE SALUDABLE",
            "excerpt": "Un delicioso pastel de te verde.",
            "cover_photo": {
              "medium": "http://www.sweetcannela.com/wp-content/uploads/2014/03/GTC5-1024x1024.jpg",
              "big": "http://www.sweetcannela.com/wp-content/uploads/2014/03/GTC5-1024x1024.jpg",
              "original": "http://www.sweetcannela.com/wp-content/uploads/2014/03/GTC5-1024x1024.jpg",
              "small": "http://www.sweetcannela.com/wp-content/uploads/2014/03/GTC5-1024x1024.jpg"
            },
            "slug": "healthy-green-tea-cake"
          },
          {
            "id": 23409,
            "title": "PASTEL DE TE VERDE SALUDABLE",
            "excerpt": "Un delicioso pastel de te verde.",
            "cover_photo": {
              "medium": "http://www.sweetcannela.com/wp-content/uploads/2014/03/GTC5-1024x1024.jpg",
              "big": "http://www.sweetcannela.com/wp-content/uploads/2014/03/GTC5-1024x1024.jpg",
              "original": "http://www.sweetcannela.com/wp-content/uploads/2014/03/GTC5-1024x1024.jpg",
              "small": "http://www.sweetcannela.com/wp-content/uploads/2014/03/GTC5-1024x1024.jpg"
            },
            "slug": "healthy-green-tea-cake"
          }
        ]
      }
    ]
  }
}
