{
  "vendor": [
    {
      "question": "¿Qué necesito para tener una tienda en Canasta Rosa?",
      "answer": "<p>Crear una tienda en línea con nosotros es totalmente gratis, sólo necesitas un par de estos sencillos requisitos:</p> <ul> <li>Tener una marca (nombre y logo).</li> <li>Productos únicos o realizados artesanalmente.</li> <li>Fotografías, precios y descripción de tus productos.</li> </ul>"
    },
    {
      "question": "¿Qué beneficios ofrece Canasta Rosa a las vendedoras?",
      "answer": "<p>Canasta Rosa facilita la compra y venta de productos artesanales por medio de la sección MARKET.<br/> Los beneficios que MARKET ofrece a nuestras vendedoras incluyen:</p> <ul> <li><strong>Tienda en línea</strong>. Abre de manera sencilla una tienda sin ningún costo y publica tus productos en tan solo 5 minutos.</li> <li><strong>Pagos Digitales Seguros</strong>. Ofrecemos diferentes métodos de pago para la comodidad y seguridad de tus clientes y tú recibirás el pago de tus ventas cada 15 días.</li> <li><strong>Logística</strong>. Recolectamos los productos en tu hogar u oficina y nos encargamos de entregarlo a los clientes.</li> <li><strong>Asistencia en ventas</strong>. Somos tu asesor personal que recibe y organiza tus ordenes, además de mantener una comunicación directa con tus clientes.</li> </ul>"
    },
    {
      "question": "¿Cómo hago mi tienda?",
      "answer": "<ul> <li>Crea un usuario en www.canastarosa.com</li> <li>Confirma tu usuario por medio del correo de activación que te enviaremos al crear tu cuenta.</li> <li>Haz login a la plataforma en www.canastarosa.com</li> <li>Abre tu tienda gratis.</li> <li>Personaliza y agrega toda la información requerida para activar y publicar tu tienda (dirección, método de pago, horarios de servicio, etc.).</li> <li>Publica tus productos. ¡Listo, a vender!</li> </ul>"
    },
    {
      "question": "¿Hay algún costo por subir mi tienda?",
      "answer": "<p>No tiene ningún costo subir tu tienda a la plataforma.</p>"
    },
    {
      "question": "¿Tengo que enviar el inventario de mis productos a las oficinas o bodega de Canasta Rosa?",
      "answer": "<p>No, tu cuentas con el inventario de tus productos que puedes personalizar dentro de la plataforma (cantidad, días de elaboración, horarios de recolección, etc).</p>"
    },
    {
      "question": "¿Cómo hacer que mi tienda tenga envios nacionales?",
      "answer": "<p>Si estás interesado en expandir tus ventas a toda la República Mexicana, envía un coreo electrónico a <a class='icon mail' href='mailto: pro@canastarosa.com'>pro@canastarosa.com</a>. Antes de activar tu tienda a envios nacionales Canasta Rosa analizará tus productos para verificar que cumplan con los requerimientos necesarios.</p>"
    },
    {
      "question": "¿Qué son los servicios Canasta Rosa?",
      "answer": "<p>Es un espacio para crear, lanzar y hacer crecer tu negocio. Aquí encuentrarás artículos, videos, herramientas, eventos, clases y actividades diseñados especialmente para facilitar tu <span>camino como emprendedor</span>.</p>"
    }
  ],

  "buyer": [
    {
      "question": "¿Qué beneficios ofrece Canasta Rosa a los compradores?",
      "answer": "<p>Canasta Rosa facilita la compra y venta de productos artesanales por medio de la sección <strong>MARKET</strong>.<br/> Los beneficios que MARKET te ofrece en tus compras incluyen:</p> <ul> <li>Navega y descubre en nuestro catálogo en línea <strong>cientos de productos únicos</strong>, de manera amigable y sencilla.</li> <li>Tu pago se encuentra asegurado por nuestras plataformas de cobro digital para que recibas tus productos en las condiciones y fecha acordadas.</li><li><strong>Personaliza y ajusta tus compras y pedidos a tus necesidades.</strong> El Mayordomo Rosa será tu asistente en todo momento para brindarte la mejor experiencia de compra y post-compra.</li> </ul>"
    },
    {
      "question": "¿Qué tipos de envío tiene Canasta Rosa?",
      "answer": "<ul class='shipping_methods-list'> <li><strong>Envío Express</strong>: <span>Recibe tus productos en la dirección, horario y fecha seleccionada.</li> <li><strong>Envío Standard (Nacional)</strong>: Disponible en toda la República Mexicana.<br/>Costo varia dependiendo del código postal.</li> </ul>",
      "banner": true
    },
    {
      "question": "¿Cómo me puedo comunicar con Canasta Rosa para aclarar dudas de mis pedidos/compras?",
      "Temporarily disable in February": "<p>Para dudas de tus pedidos/compras te puedes comunicar a la línea de servicio al cliente de Canasta Rosa, por los  siguientes medios:</p> <ul> <li><a class='icon whatsapp' target='_blank' rel='noopener noreferrer' href='https://api.whatsapp.com/send?phone=5215579393795'>Whatsapp 55-7939-3795</a></li><li><a className='icon phone' href='tel:+52-55-7583-8134'>Teléfono 55-7583-8134</a></li><li><a class='icon mail' href='mailto: pedidos@canastarosa.com'>pedidos@canastarosa.com</a></li><li>Chat en línea</li></ul>",
      "answer": "<p>Para dudas de tus pedidos/compras te puedes comunicar a la línea de servicio al cliente de Canasta Rosa, al correo<li><a class='icon mail' href='mailto: pedidos@canastarosa.com'>pedidos@canastarosa.com</a></li><li>Chat en línea</li></ul>",
      "banner": true
    },
    {
      "question": "¿Cómo se miden los tiempos de elaboración y entrega de mis productos?",
      "answer": "<p>Cada tienda tiene sus propias politicas y tiempos de elaboración para sus productos, por lo cual, <strong>es necesario revisar esta información en la descripción de cada producto</strong>.<br/> Los <strong>Envíos Express</strong> se realizan en dos horarios fijos <strong>mañana (10am-2pm) y por la tarde (4pm-8pm)</strong>.</p>",
      "banner": true
    },
    {
      "question": "¿Cuáles son sus políticas de cambios y devoluciones?",
      "answer": "<p>En caso de que el producto no haya llegado en las condiciones acordadas, se puede solicitar una devolución por la cantidad en un código de compra o cambio por otro producto (con valor del mismo precio o menor) dentro de la plataforma. También es posible cubrir la diferencia en el caso de productos con mayor precio.<br/> En caso de que el producto no sea de su agrado, la devolución dependerá de los términos y condiciones de la tienda/emprendedor que elaboró el producto.</p>"
    },
    {
      "question": "¿Qué métodos de pago acepta Canasta Rosa?",
      "answer": "<p>Canasta Rosa está constantemente buscando ofrecer más métodos de pago, más seguros y sencillos de usar.<br/> En este momento aceptamos pagos con: </p> <ul> <li>Tarjetas de Crédito (Visa, Mastercard y American Express)</li> <li>Paypal</li>  <li>Oxxo</li> <li>Transferencia Bancaria <div class='bankTransfer-info'> <h5>Canasta Rosa, SAPI de CV </h5> <p> <span>Banco:</span> Scotiabank </p><p><span>Cuenta:</span> 104517649 </p><p><span>CLABE:</span> 044180001045176492 </p><p><span>RFC</span>: CR0170829FL1 </p> <p class='note'>Una vez que hayas efectuado tu pago, recuerda enviarnos tu comprobante a <a href='mailto:pedidos@canastarosa.com'>  pedidos@canastarosa.com </a></p> <p class='note--small'>Las fechas de entrega pueden variar dependiendo de la fecha en que confirmemos tu pago.</p></div></li> </ul>"
    },
    {
      "question": "¿Qué es Inspire?",
      "answer": "<p>Inspire es nuestra base de contenido en donde encontrarás <span>contenido curado e innovador</span> de miles de los mejores sitios web y blogs. Ve tutoriales sobre como crear <span>regalos únicos</span>.</p>"
    }
  ]
}
