{
    "default": {
        "title": "Compra productos únicos elaborados artesanalmente | Canasta Rosa",
        "meta": [{
                "name": "description",
                "content": "Encuentra cientos de productos únicos y originales regalos elaborados artesanalmente por gente como tú."
            },
            {
                "name": "robots",
                "content": "all"
            },
            {
                "property": "og:url",
                "content": "https://canastarosa.com/"
            }, {
                "property": "og:type",
                "content": "article"
            }, {
                "property": "og:title",
                "content": "Compra productos únicos elaborados artesanalmente | Canasta Rosa"
            }, {
                "property": "og:description",
                "content": "Encuentra cientos de productos únicos y originales regalos elaborados artesanalmente por gente como tú."
            }, {
                "property": "og:image",
                "content": "https://canastarosa.com/fb_share2.jpg"
            }
        ],
        "tags": ["Canasta Rosa", "Regalos", "Emprendimiento", "Startup", "Artesanías", "Creatividad", "Ideas", "Marketplace", "Obsequios", "Pasteles", "Infantil", "Accesorios", "Moda", "Mujer"]
    },

    "AboutUsPage": {
        "title": "Acerca de Nosotros | Canasta Rosa",
        "meta": [{
                "name": "description",
                "content": "Canasta Rosa es la plataforma que crece a las mujeres emprendedoras por medio de sus tres vertientes, Market, Inspire & Tribe."
            },
            {
                "property": "og:url",
                "content": "https://canastarosa.com/about-us"
            }, {
                "property": "og:type",
                "content": "article"
            }, {
                "property": "og:title",
                "content": "Acerca de Nosotros | Canasta Rosa"
            }, {
                "property": "og:description",
                "content": "Canasta Rosa es la plataforma que crece a las mujeres emprendedoras por medio de sus tres vertientes, Market, Inspire & Tribe."
            }, {
                "property": "og:image",
                "content": "https://canastarosa.com/images/aboutUs/cover.png"
            }
        ]
    },

    "CheckoutPage": {
        "title": "Checkout | Canasta Rosa",
        "meta": [{
                "property": "og:title",
                "content": "Checkout | Canasta Rosa"
            }
        ]
    },

    "InspireHomePage": {
        "title": "Inspire | Canasta Rosa",
        "meta": [{
                "name": "description",
                "content": "Encuentra tendencias e inspiración en decoración y comida. Mira originales DIYs sobre como crear regalos únicos."
            },
            {
                "property": "og:url",
                "content": "https://canastarosa.com/inspire"
            }, {
                "property": "og:type",
                "content": "article"
            }, {
                "property": "og:title",
                "content": "Canasta Rosa :: Inspire"
            }, {
                "property": "og:description",
                "content": "Encuentra tendencias e inspiración en decoración y comida. Mira originales DIYs sobre como crear regalos únicos."
            }, {
                "property": "og:image",
                "content": "https://canastarosa.com/fb_share2.jpg"
            }
        ]
    },

    "StoreAppPage": {
        "title": "Mi Tienda | Canasta Rosa"
    },

    "StoreCreatePage": {
        "title": "Crea tu tienda | Canasta Rosa",
        "meta": [{
            "name": "description",
            "content": "Abre una tienda gratis en Canasta Rosa y forma parte de la comunidad que ayuda a mujeres emprendedoras."
        }]
    },

    "StoresListPage": {
        "title": "Nuestras tiendas exclusivas | Canasta Rosa"
    },

    "UserProfilePage": {
        "title": "Mi Cuenta :: Canasta Rosa"
    },

    "CRProPage": {
        "title": "Canasta Rosa Pro",
        "meta": [{
                "name": "description",
                "content": ""
            },
            {
                "property": "og:url",
                "content": "https://canastarosa.com/pro"
            }, {
                "property": "og:type",
                "content": "article"
            }, {
                "property": "og:title",
                "content": "Canasta Rosa Pro"
            }, {
                "property": "og:description",
                "content": ""
            }
        ]
    }
}
