<?xml version="1.0" encoding="utf-8"?>
<!-- Generator: Adobe Illustrator 22.1.0, SVG Export Plug-In . SVG Version: 6.00 Build 0)  -->
<svg version="1.1" id="Capa_1" xmlns="http://www.w3.org/2000/svg" xmlns:xlink="http://www.w3.org/1999/xlink" x="0px" y="0px"
	 viewBox="0 0 1439 393" style="enable-background:new 0 0 1439 393;" xml:space="preserve">
<style type="text/css">
	.st0{opacity:9.000000e-02;fill:#695A7A;}
	.st1{opacity:6.000000e-02;fill:#695A7A;}
	.st2{fill:none;stroke:#C6C4CE;stroke-miterlimit:10;}
	.st3{fill:#C6C4CE;}
	.st4{fill:#69627E;}
	.st5{fill:#2E3253;}
	.st6{fill:#FFFFFF;}
	.st7{opacity:0.15;fill:#69627E;}
	.st8{opacity:0.7;fill:none;stroke:#2E3253;stroke-miterlimit:10;}
	.st9{fill:#868096;}
	.st10{opacity:0.23;fill:#C6C4CE;}
	.st11{opacity:0.55;fill:none;stroke:#2E3253;stroke-miterlimit:10;}
	.st12{fill:#8E5A7A;}
	.st13{fill:#EF8087;}
	.st14{fill:#FAA244;}
	.st15{fill:#E0E3ED;}
	.st16{fill:#AB4764;}
	.st17{fill:#D3D1D9;}
	.st18{fill:none;stroke:#4E5275;stroke-miterlimit:10;}
	.st19{fill:#8F5B7B;}
	.st20{fill:#DE8E87;}
	.st21{fill:#F0C1BC;}
	.st22{fill:none;stroke:#2E3253;stroke-miterlimit:10;}
	.st23{fill:#EDF5FF;}
	.st24{fill:#FEFEFE;}
	.st25{fill:#1D9F9D;}
	.st26{fill:#0E7C74;}
	.st27{fill:#259E78;}
	.st28{fill:#3FC7A1;}
	.st29{fill:#D4D5E6;}
	.st30{fill:#40B1BD;}
	.st31{opacity:0.5;fill:#2E3253;}
	.st32{fill:#3C9B95;}
	.st33{fill:#2EC6B7;}
	.st34{fill:#6D2953;}
	.st35{fill:#4BBCB1;}
	.st36{fill:#182D49;}
	.st37{fill:#009BA8;}
	.st38{fill:#EE7E9A;}
	.st39{fill:#3DC8A1;}
	.st40{opacity:0.45;fill:url(#SVGID_1_);}
</style>
<title>Group 14</title>
<desc>Created with Sketch.</desc>
<path id="Path_141_" class="st0" d="M-0.4,290.4c44,38.8,139.8,75.8,209.6,62.9c104.5-19.3,215.3-28.4,282.9-28.4
	s192.4-28.5,245.8-28.5s31.7,26.2,110.8,28.5s140.5-10.4,228.5-10.4c87.8,0,148.4,12.8,189.2,12.8c27.2,0,45.5-0.8,54.7-2.3
	c0,0,93.2-9,117.3-33.2c0.1-0.1,0.5-290.2,0.5-290.2L25.8,0.2c0,0-11,13.2-26.2,86.6c-2,9.6,16.9,55,6.7,98.1
	C-17.7,286.8-0.4,290.4-0.4,290.4z"/>
<g>
	<path class="st1" d="M835.5,291.5c0,0-29.2-70.9,52.9-87.7s58.7-99.7,83.8-121.5s68.7-83.8,169.3-44.4
		c100.6,39.4,28.9,144.9,76.5,162.6s53.4,91.4,53.4,91.4S834.5,291.5,835.5,291.5z"/>
	<path id="Stroke-51_1_" class="st2" d="M1079.3,180.7h-7.1c-3,0-4.9-1.9-4.9-4.9v-12.2h16.9v12.3
		C1084.2,178.9,1082.3,180.7,1079.3,180.7z"/>
	<path id="Stroke-52_1_" class="st2" d="M1082.2,159.3c0.1-0.2,0.2-0.4,0.2-0.5c0-1.1-1.8-2.1-4.3-2.4c0.1-0.2,0.1-0.3,0.1-0.5
		c0-1-1.1-1.8-2.4-1.8s-2.4,0.8-2.4,1.8c0,0.2,0.1,0.4,0.1,0.5c-2.5,0.4-4.3,1.3-4.3,2.4c0,0.2,0.1,0.3,0.1,0.5
		c-1.8,1.1-2.8,2.6-2.8,4.3h18.4C1084.9,161.9,1083.8,160.4,1082.2,159.3z"/>
	<polygon id="Stroke-53_1_" class="st2" points="1068.8,175.2 1082.5,175.2 1082.5,168.3 1068.8,168.3 	"/>
	<g id="Path_97_" transform="translate(79.947195, 25.934010)">
		<path class="st2" d="M963.3,127.2h18.5v25.7c0,0.6-0.5,1.1-1.1,1.1h-16.2c-0.7,0-1.2-0.5-1.2-1.2V127.2L963.3,127.2z"/>
		<path class="st2" d="M982.3,126.5h-0.4c-2-1.8-5-3.1-8.3-3.3v-0.5c0.4-0.3,0.7-0.8,0.7-1.3c0-0.9-0.8-1.6-1.6-1.6
			c-0.9,0-1.6,0.8-1.6,1.6c0,0.5,0.3,1,0.7,1.3v0.5c-3.3,0.2-6.3,1.5-8.3,3.3h-0.4c-0.2,0-0.4,0.2-0.4,0.4c0,0.2,0.2,0.4,0.4,0.4
			h19.2c0.2,0,0.4-0.2,0.4-0.4C982.7,126.7,982.4,126.5,982.3,126.5z"/>
		<path class="st2" d="M971.1,135.6c-1.3,0-1.9-0.5-2.9-0.6c-1.7-0.2-2.3,1.8-1.6,2.4c-0.7,0.2-1.2,0.8-1.2,1.6s0.5,1.5,1.2,1.6
			c-0.7,0.6-0.1,2.5,1.6,2.4c1.1-0.1,1.7-0.5,2.9-0.6c0.8,0,1.2,0.5,1.5,1.1c0.3-0.7,0.6-1.1,1.5-1.1c1.3,0,1.9,0.5,2.9,0.6
			c1.7,0.2,2.3-1.8,1.6-2.4c0.7-0.2,1.2-0.8,1.2-1.6s-0.5-1.5-1.2-1.6c0.7-0.6,0.1-2.5-1.6-2.4c-1.1,0.1-1.7,0.5-2.9,0.6
			c-0.6,0-1-0.2-1.2-0.6c-0.1-0.2-0.2-0.3-0.3-0.5C972.3,135.1,972,135.6,971.1,135.6z"/>
	</g>
	<g transform="translate(1261.166997, 24.936548)">
		<polygon id="Path_96_" class="st3" points="-220,89 -186.5,89 -184.4,61.5 -186.8,55.3 -190.6,52.4 -195.3,51.2 -205.7,51.8 
			-211.7,51.8 -215.1,52.4 -219.1,54.7 -221,58.3 -222.1,60.7 		"/>
		<path id="Path_95_" class="st3" d="M-184.2,59.2c-0.2-1.2-1-3.8-2.9-5.5c-2-1.7-4-2.6-5.2-2.6l-11-0.2h-0.2h-0.2l-10.3,0.2
			c-1,0.2-3.1,0.9-5.2,2.6s-2.8,4.3-2.9,5.5c-0.2,1.2,0.1,2.4,0.9,2.1c0.9-0.2,0.9-1.5,0.9-1.5c0.2-2.3,1.6-4.2,3.7-5.7
			c2.1-1.7,5.2-1.6,5.2-1.6h7.9h0.5h8.5c0,0,3,0,5.2,1.6c2.1,1.7,3.5,3.6,3.7,5.7c0,0,0,1.2,0.9,1.5
			C-184.2,61.4-184,60.3-184.2,59.2z"/>
		<g transform="translate(6.995380, 0.000000)">
			<polygon id="Path_94_" class="st4" points="-220.6,89 -221,62.4 -218.3,62.4 -218.3,89 			"/>
			<polygon id="Path_93_" class="st4" points="-201.8,89 -202.2,62.4 -199.5,62.4 -199.5,89 			"/>
			<g>
				<path id="Path_92_" class="st4" d="M-198.8,59.8c-0.5-1.1-1-3.4-1-3.4v-8.4c-0.4-2.5-1.5-3.7-3.9-5.8c-2-1.8-5.4-2.7-6.3-2.7
					c0,0-0.1,0-0.2,0s-0.2,0-0.2,0c-1.1,0.1-4.5,0.5-6.4,2.1c-2.5,2.1-3.6,3.9-3.9,6.4v8.4c0,0-0.4,2.3-1,3.4
					c-0.5,1.1-0.3,3,0.8,3.2h1.3c0,0,2.2,0.3,2.4-1.5c0.1-1.7-0.8-3.2-1-5.2c-0.2-2,0-7.8,0-7.8s1.2-6.6,8-6.7c6.8,0.1,8,6.7,8,6.7
					s0.2,5.7,0,7.8c-0.2,2-1.1,3.5-1,5.2s2.4,1.5,2.4,1.5h1.3C-198.6,62.9-198.3,61-198.8,59.8z"/>
			</g>
		</g>
	</g>
	<g id="Group_5_" transform="translate(1323.000000, 49.000000)">
		<g id="Path_91_">
			<path class="st2" d="M-226.9,41.9c0.6,2.4,0.5,4.3,0,5.8h-10.3c-0.5-1.5-0.7-3.4-0.1-5.8c0.4-1.6,2.7-5.3,5.2-5.4
				C-229.6,36.6-227.2,40.2-226.9,41.9z"/>
			<path class="st4" d="M-227,49.3h-5.2h-5.2h-0.6c0,6.7,7.2,9.1,3.9,12.4c0,0.1-3.9,0.5-3.9,2.5c0,0.3,0.3,0.5,0.7,0.5h3.3h1.8h1.8
				h3.3c0.4,0,0.7-0.2,0.7-0.5c0-1.9-3.9-2.4-3.9-2.5c-3.3-3.3,3.9-5.9,3.9-12.4C-226.3,49.3-227,49.3-227,49.3z"/>
		</g>
		<g id="Path_90_" transform="translate(13.000000, 0.000000)">
			<path class="st3" d="M-226.6,41.9c0.6,2.4,0.5,4.3,0,5.8h-10.3c-0.5-1.5-0.7-3.4-0.1-5.8c0.4-1.6,2.7-5.3,5.2-5.4
				C-229.2,36.5-227,40.2-226.6,41.9z"/>
			<path class="st4" d="M-226.7,49.3h-5.2h-5.2h-0.6c0,6.7,7.2,9.1,3.9,12.4c0,0.1-3.9,0.5-3.9,2.5c0,0.3,0.3,0.5,0.7,0.5h3.3h1.8
				h1.8h3.3c0.4,0,0.7-0.2,0.7-0.5c0-1.9-3.9-2.4-3.9-2.5c-3.3-3.3,3.9-5.9,3.9-12.4C-226.1,49.3-226.7,49.3-226.7,49.3z"/>
		</g>
		<g id="Path_89_" transform="translate(27.000000, 0.000000)">
			<path class="st2" d="M-227.4,41.9c0.6,2.4,0.5,4.3,0,5.8h-10.3c-0.5-1.5-0.7-3.4-0.1-5.8c0.4-1.6,2.7-5.3,5.2-5.4
				C-230,36.5-227.8,40.2-227.4,41.9z"/>
			<path class="st4" d="M-227.4,49.3h-5.2h-5.2h-0.6c0,6.7,7.2,9.1,3.9,12.4c0,0.1-3.9,0.5-3.9,2.5c0,0.3,0.3,0.5,0.7,0.5h3.3h1.8
				h1.8h3.3c0.4,0,0.7-0.2,0.7-0.5c0-1.9-3.9-2.4-3.9-2.5c-3.3-3.3,3.9-5.9,3.9-12.4C-226.8,49.3-227.4,49.3-227.4,49.3z"/>
		</g>
	</g>
	<g>
		
			<rect x="1079" y="-25.6" transform="matrix(-1.836970e-16 1 -1 -1.836970e-16 1137.4875 -1031.384)" class="st4" width="10.9" height="157.3"/>
		
			<rect x="1079" y="41.5" transform="matrix(-1.836970e-16 1 -1 -1.836970e-16 1204.625 -964.2465)" class="st4" width="10.9" height="157.3"/>
		
			<rect x="1079" y="108.7" transform="matrix(-1.836970e-16 1 -1 -1.836970e-16 1271.7626 -897.109)" class="st4" width="10.9" height="157.3"/>
		
			<rect x="1079" y="175.8" transform="matrix(-1.836970e-16 1 -1 -1.836970e-16 1338.9 -829.9716)" class="st4" width="10.9" height="157.3"/>
		<g>
			<rect x="1021.2" y="37.6" class="st4" width="10.9" height="250.9"/>
			<rect x="1136.8" y="37.6" class="st4" width="10.9" height="250.9"/>
		</g>
		<g>
			<rect x="1021.2" y="259.9" class="st5" width="10.9" height="3.4"/>
			<rect x="1136.8" y="259.9" class="st5" width="10.9" height="3.4"/>
			<rect x="1021.2" y="58.5" class="st5" width="10.9" height="3.4"/>
			<rect x="1136.8" y="58.5" class="st5" width="10.9" height="3.4"/>
			<rect x="1021.2" y="125.6" class="st5" width="10.9" height="3.4"/>
			<rect x="1136.8" y="125.6" class="st5" width="10.9" height="3.4"/>
			<rect x="1021.2" y="192.8" class="st5" width="10.9" height="3.4"/>
			<rect x="1136.8" y="192.8" class="st5" width="10.9" height="3.4"/>
		</g>
	</g>
	<g>
		<path class="st6" d="M526.5,28.2c2.7-3.3,63.2-2.7,64.3,0s1.6,50.6,1.6,50.6s-61-1.1-65.4-1.1C522.7,77.6,526.5,28.2,526.5,28.2z"
			/>
		<path class="st6" d="M596,27.5c0,0-0.6,50.7,2.2,50.7c2.7,0,66.6-0.2,68.3-1.9c1.6-1.6,1.6-50.6-0.5-50.6
			C663.7,25.8,599.3,27.5,596,27.5z"/>
		<path class="st6" d="M597.9,84c0,0,3.1,57.3,3.1,58.9s61,1.1,63.8,1.1c2.7,0,1.1-59.9,1.1-61.6S597.9,84,597.9,84z"/>
		<path class="st6" d="M592.8,84l3.3,60c0,0-67.1-3.3-68.7-3.3c-1.6,0-0.5-57.7-0.5-57.7S590.1,82.9,592.8,84z"/>
	</g>
	<path class="st1" d="M142.1,38.9C119.9,29.9,98.6,8.8,83.2,0.1l-3.3-0.3L25.8,0c-3.7,7-14.6,31.3-26.1,86.4c0,1.7,0,3.4,0,5.2
		c1.9,15.3,15.6,55.2,6.6,93.4c-2.9,12.1-5.1,22.9-6.9,32.4c-0.1,38-0.2,67.3-0.2,72.9c0.2,0.1,0.4,0.2,0.4,0.2
		c0.3,0.3,0.7,0.6,1,0.9l122.2,2.8c0,0-35.3-40.9-51.1-76.6C56,181.7,89.6,164.9,126.9,140C164.3,115,193.6,59.9,142.1,38.9z"/>
	<g>
		<path class="st7" d="M1426.7,291.1c117.1,0,135.5-117.5,135.2-127.6c-1-26-36.3-49.6-37.2-75.7c-0.7-21.1,27.6-29,34.7-38.6
			c6.6-8.8,8.1-13.7,17.9-18.5l-14.7-20.4l-289.9-1.9l2.6,21l1.8,2l1.2,259.5L1426.7,291.1z"/>
		<path class="st8" d="M1563.8,163.5c-1-26-36.3-49.6-37.2-75.7c-0.7-21.1,27.6-29,34.7-38.6c6.6-8.8,8.1-13.7,17.9-18.5l-14.7-20.4
			l-289.9-1.9l2.6,21l1.8,2l1.2,259.5"/>
		<path class="st9" d="M1289.2,30.6c-1.5,15.5-0.1,49-0.1,49l30.9,0.4c0,0-0.1-34.2,0.4-50c-11-0.6-21.9-0.4-32.9,0.6 M1328.8,30.6
			c-1.5,15.5-0.1,49-0.1,49l30.9,0.4c0,0-0.1-34.2,0.4-50c-11-0.6-21.9-0.4-32.9,0.6 M1368.3,30.6c-1.5,15.5-0.1,49-0.1,49l30.9,0.4
			c0,0-0.1-34.2,0.4-50c-11-0.6-21.9-0.4-32.9,0.6 M1407.9,30.6c-1.5,15.5-0.1,49-0.1,49l30.9,0.4c0,0-0.1-34.2,0.4-50
			c-11-0.6-21.9-0.4-32.9,0.6 M1447.5,30.6c-1.5,15.5-0.1,49-0.1,49l30.9,0.4c0,0-0.1-34.2,0.4-50c-11-0.6-21.9-0.4-32.9,0.6
			 M1487.1,30.6c-1.5,15.5-0.1,49-0.1,49l30.9,0.4c0,0-0.1-34.2,0.4-50c-11-0.6-21.9-0.4-32.9,0.6"/>
		<path class="st10" d="M1360.1,29.6c-0.2,6.2-0.3,17.4-0.3,25.7c-9.6-2.6-19.2-5.4-29-6.8c-0.8-0.1-1.7-0.2-2.5-0.3
			c0.1-5.7,0.3-13.6,0.7-17.9l-1.9-0.1c2-0.2,3.9-0.4,5.9-0.4l25.6-0.3L1360.1,29.6z M1399.7,29.6c-0.2,8-0.3,22.5-0.4,32.5
			c-8.3-0.4-16.6-1.5-24.8-3.1c-2.2-0.4-4.4-1-6.6-1.5c-0.1-8.6,0-20.5,0.7-27.1l-1.9-0.1c5.6-0.5,11.2-0.8,16.9-1h4.1
			C1391.7,29.3,1395.7,29.5,1399.7,29.6z M1439.3,29.6c-0.2,7.9-0.3,22.1-0.4,32c-7.7,0.6-15.3,0.8-22.9,0.8c-2.8,0-5.6,0-8.4-0.1
			c-0.2-9.8-0.2-24.2,0.6-32.1l-1.9-0.1C1417.4,29.3,1428.4,29,1439.3,29.6z M1478.9,29.6c-0.2,6.1-0.3,16.9-0.3,25
			c-10.3,3.1-20.8,5.1-31.4,6.3c-0.2-9.5-0.1-23.1,0.6-30.6l-1.9-0.1C1457,29.3,1468,29,1478.9,29.6z M1518.3,29.6
			c-6.2,7.6-14.9,15.2-23.8,19.1c-2.6,1.2-5.2,2.2-7.8,3.1c0-7,0.2-16.3,0.7-21.5l-1.9-0.1C1496.5,29.3,1507.5,29,1518.3,29.6
			L1518.3,29.6z"/>
		<path class="st9" d="M1289.2,90.3c-1.5,15.5-0.1,46.6-0.1,46.6l30.9,0.4c0,0-0.1-31.7,0.4-47.7c-11-0.6-21.9-0.4-32.9,0.6
			 M1328.8,90.3c-1.5,15.5-0.1,46.6-0.1,46.6l30.9,0.4c0,0-0.1-31.7,0.4-47.7c-11-0.6-21.9-0.4-32.9,0.6 M1368.3,90.3
			c-1.5,15.5-0.1,46.6-0.1,46.6l30.9,0.4c0,0-0.1-31.7,0.4-47.7c-11-0.6-21.9-0.4-32.9,0.6 M1407.9,90.3
			c-1.5,15.5-0.1,46.6-0.1,46.6l30.9,0.4c0,0-0.1-31.7,0.4-47.7c-11-0.6-21.9-0.4-32.9,0.6 M1447.5,90.3
			c-1.5,15.5-0.1,46.6-0.1,46.6l30.9,0.4c0,0-0.1-31.7,0.4-47.7c-11-0.6-21.9-0.4-32.9,0.6 M1487.1,90.3
			c-1.5,15.5-0.1,46.6-0.1,46.6l30.9,0.4c0,0-0.1-31.7,0.4-47.7c-11-0.6-21.9-0.4-32.9,0.6"/>
		<path class="st9" d="M1289.2,147.6c-1.5,15.5-0.1,46.6-0.1,46.6l30.9,0.4c0,0-0.1-31.7,0.4-47.7c-11-0.6-21.9-0.4-32.9,0.6
			 M1328.8,147.6c-1.5,15.5-0.1,46.6-0.1,46.6l30.9,0.4c0,0-0.1-31.7,0.4-47.7c-11-0.6-21.9-0.4-32.9,0.6 M1368.3,147.6
			c-1.5,15.5-0.1,46.6-0.1,46.6l30.9,0.4c0,0-0.1-31.7,0.4-47.7c-11-0.6-21.9-0.4-32.9,0.6 M1407.9,147.6
			c-1.5,15.5-0.1,46.6-0.1,46.6l30.9,0.4c0,0-0.1-31.7,0.4-47.7c-11-0.6-21.9-0.4-32.9,0.6 M1447.5,147.6
			c-1.5,15.5-0.1,46.6-0.1,46.6l30.9,0.4c0,0-0.1-31.7,0.4-47.7c-11-0.6-21.9-0.4-32.9,0.6 M1487.1,147.6
			c-1.5,15.5-0.1,46.6-0.1,46.6l30.9,0.4c0,0-0.1-31.7,0.4-47.7c-11-0.6-21.9-0.4-32.9,0.6"/>
		<path class="st11" d="M1290.2,30.6c-1.5,15.5-0.1,49-0.1,49l30.9,0.4c0,0-0.1-34.2,0.4-50c-11-0.6-21.9-0.4-32.9,0.6 M1329.8,30.6
			c-1.5,15.5-0.1,49-0.1,49l30.9,0.4c0,0-0.1-34.2,0.4-50c-11-0.6-21.9-0.4-32.9,0.6 M1369.3,30.6c-1.5,15.5-0.1,49-0.1,49l30.9,0.4
			c0,0-0.1-34.2,0.4-50c-11-0.6-21.9-0.4-32.9,0.6 M1408.9,30.6c-1.5,15.5-0.1,49-0.1,49l30.9,0.4c0,0-0.1-34.2,0.4-50
			c-11-0.6-21.9-0.4-32.9,0.6 M1448.5,30.6c-1.5,15.5-0.1,49-0.1,49l30.9,0.4c0,0-0.1-34.2,0.4-50c-11-0.6-21.9-0.4-32.9,0.6
			 M1488.1,30.6c-1.5,15.5-0.1,49-0.1,49l30.9,0.4c0,0-0.1-34.2,0.4-50c-11-0.6-21.9-0.4-32.9,0.6"/>
		<path class="st11" d="M1290.2,90.3c-1.5,15.5-0.1,46.6-0.1,46.6l30.9,0.4c0,0-0.1-31.7,0.4-47.7c-11-0.6-21.9-0.4-32.9,0.6
			 M1329.8,90.3c-1.5,15.5-0.1,46.6-0.1,46.6l30.9,0.4c0,0-0.1-31.7,0.4-47.7c-11-0.6-21.9-0.4-32.9,0.6 M1369.3,90.3
			c-1.5,15.5-0.1,46.6-0.1,46.6l30.9,0.4c0,0-0.1-31.7,0.4-47.7c-11-0.6-21.9-0.4-32.9,0.6 M1408.9,90.3
			c-1.5,15.5-0.1,46.6-0.1,46.6l30.9,0.4c0,0-0.1-31.7,0.4-47.7c-11-0.6-21.9-0.4-32.9,0.6 M1448.5,90.3
			c-1.5,15.5-0.1,46.6-0.1,46.6l30.9,0.4c0,0-0.1-31.7,0.4-47.7c-11-0.6-21.9-0.4-32.9,0.6 M1488.1,90.3
			c-1.5,15.5-0.1,46.6-0.1,46.6l30.9,0.4c0,0-0.1-31.7,0.4-47.7c-11-0.6-21.9-0.4-32.9,0.6"/>
		<path class="st11" d="M1290.2,147.6c-1.5,15.5-0.1,46.6-0.1,46.6l30.9,0.4c0,0-0.1-31.7,0.4-47.7c-11-0.6-21.9-0.4-32.9,0.6
			 M1329.8,147.6c-1.5,15.5-0.1,46.6-0.1,46.6l30.9,0.4c0,0-0.1-31.7,0.4-47.7c-11-0.6-21.9-0.4-32.9,0.6 M1369.3,147.6
			c-1.5,15.5-0.1,46.6-0.1,46.6l30.9,0.4c0,0-0.1-31.7,0.4-47.7c-11-0.6-21.9-0.4-32.9,0.6 M1408.9,147.6
			c-1.5,15.5-0.1,46.6-0.1,46.6l30.9,0.4c0,0-0.1-31.7,0.4-47.7c-11-0.6-21.9-0.4-32.9,0.6 M1448.5,147.6
			c-1.5,15.5-0.1,46.6-0.1,46.6l30.9,0.4c0,0-0.1-31.7,0.4-47.7c-11-0.6-21.9-0.4-32.9,0.6 M1488.1,147.6
			c-1.5,15.5-0.1,46.6-0.1,46.6l30.9,0.4c0,0-0.1-31.7,0.4-47.7c-11-0.6-21.9-0.4-32.9,0.6"/>
		<path class="st10" d="M1360.1,89.6c-0.2,6-0.3,14.3-0.3,22.3c-7,1.2-14.2,2.1-21.3,2.5c-3.4,0.2-6.8,0.3-10.2,0.1
			c-0.1-8.6,0.1-17.7,0.7-24.3l-1.9-0.1c2.1-0.2,4.3-0.4,6.4-0.5l18.6-0.4C1355,89.4,1357.6,89.5,1360.1,89.6L1360.1,89.6z
			 M1399.7,89.6c-0.1,4.2-0.2,9.5-0.3,15c-3,0.4-6.1,1-9.1,1.5c-7.5,1.3-15,2.9-22.5,4.3c0-7.3,0.2-14.7,0.7-20.2l-1.9-0.1
			C1377.8,89.2,1388.8,89,1399.7,89.6L1399.7,89.6z M1439.1,89.8c-0.1,2.8-0.2,6.1-0.2,9.6c-10.5,1.4-21,2.7-31.6,4.2
			c0.1-4.8,0.3-9.5,0.6-13.1l-1.9-0.1C1417.2,89.5,1428.2,89.2,1439.1,89.8L1439.1,89.8z M1478.3,89.6c-0.1,3.1-0.2,6.9-0.2,10.9
			c-9.4-4.5-20.7-3.7-31.4-2.3c0.1-2.9,0.3-5.5,0.5-7.8l-1.9-0.1C1456.3,89.2,1467.3,89,1478.3,89.6z M1359.7,147.1
			c-0.1,3.3-0.2,7.3-0.2,11.6c-9-1.7-18-3.3-27-4.5c-1.4-0.2-2.9-0.4-4.2-0.4c0.1-2.2,0.3-4.3,0.4-6.2h-0.7L1359.7,147.1z
			 M1399.3,146.9c-0.2,5-0.2,11.5-0.3,18.1c-0.8-0.1-1.6-0.2-2.4-0.3c-9.7-1.1-19.3-2.8-29-4.5c0.1-4.6,0.3-9,0.6-12.6l-1.9-0.1
			c3.1-0.3,6.2-0.5,9.3-0.7l16.1-0.3C1394.4,146.7,1396.8,146.8,1399.3,146.9L1399.3,146.9z M1438.9,146.9c-0.1,4.8-0.2,11-0.3,17.4
			c-10.3,1.7-21,2-31.5,1.3c0-6.6,0.2-13.1,0.7-18l-1.9-0.1C1416.9,146.5,1427.9,146.3,1438.9,146.9L1438.9,146.9z M1477.7,146.9
			c-4.9,4.6-10.9,8.3-17.2,11.1c-4.5,2-9,3.5-13.7,4.7c0.1-5.5,0.3-10.8,0.7-15l-1.9-0.1C1456.3,146.5,1467,146.3,1477.7,146.9z"/>
		<path class="st3" d="M1305.4,281l11.8-0.1c2,0,3.9,0,5.9,0s3.9-0.1,5.9-0.1l5.9-0.2c2,0,3.9,0,5.9-0.1c2-0.1,3.9,0,5.9,0h5.9
			l-0.8,0.7l1.2-16.9c0.2-2.9,0.4-5.6,0.6-8.5l0.7-8.5l0.7-8.5c0.3-2.9,0.4-5.6,0.6-8.5l0.6-8.5l0.4-4.3l0.3-4.3l0.4,0.4
			c-2.1-0.3-4.3-0.4-6.3-0.4c-2.1-0.1-4.3-0.2-6.4-0.2c-2.1,0-4.3,0-6.4,0c-1.1,0-2.1,0-3.2,0l-3.2,0.1c-4.3,0.2-8.6,0.3-12.8,0.4
			c-4.3,0.2-8.6,0.3-12.8,0.4l0.6-0.6c-0.1,5.6,0,11.2-0.2,16.9l-0.1,4.2l-0.1,2.1v2.1l-0.1,8.4c0,5.5-0.4,11.3-0.4,16.9L1305.4,281
			z M1304.4,282l0.1-17v-4.3v-4.3v-4.3l0.1-4.3l0.3-17.1l0.1-4.3l0.1-4.3c0.1-2.9,0.2-5.7,0.2-8.6v-0.5h0.6
			c4.3-0.2,8.6-0.4,12.8-0.5l6.4-0.2c2.1-0.1,4.3-0.1,6.4,0c2.1,0.1,4.3,0,6.4,0l6.4-0.1c2.1,0,4.3,0,6.4,0.1c2.1,0,4.4,0.2,6.5,0.4
			l0.8,0.1l-0.1,0.7l-0.4,4.3l-0.3,4.3c-0.2,2.9-0.4,5.6-0.5,8.5c-0.2,2.9-0.4,5.6-0.6,8.5c-0.2,2.9-0.3,5.7-0.5,8.5
			c-0.3,2.9-0.5,5.6-0.8,8.5c-0.3,2.9-0.4,5.6-0.7,8.5l-0.7,8.5c-0.2,2.9-0.4,5.6-0.5,8.5v0.4h-0.4l-12,0.1c-2,0-4,0-6,0l-6-0.1
			c-2,0-4-0.1-6,0c-2.1,0-4,0.1-6.1,0L1304.4,282z"/>
		<path class="st3" d="M1335.6,221.5h-2.8c-0.9,0-1.9,0-2.8,0c-0.4,0-0.9,0-1.4,0c-0.4,0-0.9,0.1-1.4,0.1c-0.9,0.1-1.9,0.2-2.8,0.2
			c-1.9,0.1-3.7,0.1-5.6,0.1c-1.9,0-3.7,0.1-5.6,0.1l0.7-0.7c-0.1,2.1-0.2,4.3-0.3,6.3l-0.2,3.2c0,1.1,0,2.1-0.1,3.2
			c-0.1,1.1-0.1,2.1-0.1,3.2s0,2.1-0.1,3.2c0,2.1-0.2,4.3-0.2,6.3c0,1.1,0.1,2.1,0.1,3.2v3.2c0,2.1,0,4.3,0,6.3c0,1.1,0,2.1-0.1,3.2
			s-0.1,2.1-0.2,3.2v3.2c0,1.1,0,2.1-0.1,3.2l-0.6-0.6c0.8,0.1,1.7,0.2,2.5,0.2c0.8,0,1.7,0.1,2.5,0.1l5,0.1
			c0.4,0.1,0.6,0.4,0.5,0.8c-0.1,0.3-0.3,0.5-0.5,0.5l0,0l-5-0.2l-2.5-0.1c-0.8,0-1.7,0-2.5,0h-0.8v-0.9c0-2.1,0.1-4.3,0.2-6.3
			c0.1-2.1,0.1-4.3,0.3-6.3c0.1-1.1,0.1-2.1,0.1-3.2c0-1.1,0-2.1,0-3.2c0-1.1,0-2.1,0-3.2c-0.1-1.1,0.3-2.1,0.3-3.2
			c0-2.1-0.2-4.3-0.2-6.3c0.3-2.1,0.1-4.3,0.2-6.3c0-1.1,0.1-2.1,0.1-3.2v-0.8v-0.8c0-0.5,0-1.1,0-1.6c0-1.1,0.2-2.1,0.3-3.2
			c0.1-0.5,0-1.1,0-1.6c0-0.5,0-1.1,0.1-1.6v-0.6h0.5c1,0,1.9,0.1,2.9,0.1c0.4,0,1,0,1.4,0c0.4,0,0.9,0,1.4-0.1
			c1.9-0.1,3.7-0.3,5.6-0.4c1.9-0.1,3.7,0.1,5.6-0.1c0.9-0.1,1.9-0.1,2.8-0.1s1.9-0.1,2.8-0.1c0.4-0.1,0.7,0.2,0.8,0.5
			c0.1,0.4-0.2,0.7-0.5,0.8C1335.8,221.5,1335.7,221.5,1335.6,221.5L1335.6,221.5z M1335,272.4c0.3,0,0.4,0,0.7,0s0.4,0,0.7,0.1
			c0.4,0.2,1-0.1,1.4-0.1c0.4,0,1,0,1.4,0s1,0.1,1.4,0.1l0.7,0.1c0.3,0,0.4,0.1,0.7,0.1c0.4,0.1,1,0.1,1.4,0.2c0.4,0.1,1,0,1.4,0.1
			c0.4,0.1,1,0.1,1.4,0.1l-0.4,0.4c0.3-4.4,0.5-8.7,0.9-13l0.4-6.5c0.2-2.1,0.3-4.4,0.4-6.5s0.2-4.4,0.4-6.5l0.4-6.5l0.8-13l0.5,0.6
			c-0.5-0.1-1,0-1.5-0.1c-0.5-0.1-1-0.2-1.5-0.2c-0.5,0.1-1-0.3-1.5-0.2c-0.5,0-1.1,0.1-1.6,0.1c-0.4,0.1-0.7-0.2-0.8-0.5
			c-0.1-0.4,0.2-0.7,0.5-0.8c0.1,0,0.2,0,0.3,0h1.7c0.3,0,0.5,0,0.8-0.1s0.5-0.1,0.8,0l0.8,0.2c0.3,0.1,0.5,0.1,0.8,0.1
			c0.5,0,1.1,0.3,1.6,0.3h0.5v0.6c-0.3,4.4-0.4,8.7-0.7,13c-0.1,2.1-0.3,4.4-0.4,6.5c-0.1,1.1-0.1,2.1-0.2,3.3
			c-0.1,1.1-0.2,2.1-0.3,3.2c-0.3,2.1-0.4,4.4-0.4,6.5s-0.2,4.4-0.4,6.5c-0.1,2.1-0.2,4.4-0.4,6.5c-0.1,2.1-0.3,4.4-0.4,6.5l-0.1,1
			l-0.7-0.3c-0.4-0.2-1-0.1-1.4-0.1c-0.3,0-0.4,0-0.7-0.1c-0.3-0.1-0.4-0.1-0.7,0s-0.4,0.1-0.7,0s-0.4-0.2-0.7-0.2s-0.4,0-0.7-0.1
			s-0.4-0.1-0.7-0.2c-0.4-0.1-1-0.1-1.4,0c-0.4,0-1,0.1-1.4,0.1c-0.4,0-0.9-0.3-1.4-0.1c-0.3,0-0.4,0-0.7,0s-0.4,0-0.7,0
			c-0.4-0.1-0.6-0.4-0.5-0.8C1334.5,272.7,1334.6,272.4,1335,272.4L1335,272.4z"/>
		<path class="st3" d="M1303.5,216.4h2.9v11.9h-2.9V216.4z M1303.5,258.4h2.9v11.9h-2.9V258.4z"/>
		<path class="st3" d="M1302.5,266.6c0.1,0,0.3,0,0.4,0.1c0.1,0.2,0.3-0.1,0.4-0.1c0.3,0,0.4,0.1,0.7,0.2h0.2c0.1,0,0.1,0.1,0.2,0.1
			s0.2,0.1,0.4,0.2c0.1,0,0.1,0,0.2,0c0.1,0,0.1,0,0.2,0.1c0.1,0,0.1,0.1,0.2,0.1s0.1,0,0.2,0c0.1,0,0.3,0.1,0.4,0.1
			c0.1,0.1,0.3-0.2,0.4-0.1c0.1,0,0.3,0,0.4,0c0.1,0,0.3,0,0.4,0s0.2,0.2,0.4,0.1c0.1,0,0.3,0,0.4,0s0.1,0.1,0.2,0.1
			c0.1,0,0.1,0,0.2,0s0.3,0,0.4-0.1l-0.2,1.1c-0.1,0-0.3,0-0.4,0c-0.1,0-0.1,0-0.2,0s-0.1,0.1-0.2,0.1c-0.1,0-0.3,0-0.4-0.1
			c-0.1,0-0.3-0.1-0.4-0.1c-0.1,0-0.1-0.1-0.2-0.1c-0.1,0-0.1,0-0.2,0s-0.3,0.1-0.4,0.1s-0.1,0-0.2-0.1c0,0,0-0.1-0.1-0.1h-0.1
			c-0.1,0-0.3,0.2-0.4,0.2c-0.1,0-0.1-0.1-0.2-0.1s-0.1,0-0.2,0c-0.1,0-0.1,0-0.2,0s-0.1-0.1-0.2,0c-0.1,0-0.1,0.1-0.2,0.1
			c-0.1,0-0.1-0.1-0.2-0.2c0,0-0.1,0-0.1-0.1h-0.1c-0.1,0-0.1-0.1-0.2-0.2s-0.3-0.1-0.4-0.1h-0.2c-0.1,0-0.1,0-0.2,0
			c-0.1,0-0.2-0.2-0.4-0.1c-0.1,0-0.3,0-0.4,0L1302.5,266.6z M1302.5,261.7c0.1,0,0.3,0,0.4,0.1c0.1,0.2,0.3-0.1,0.4-0.1
			c0.3,0,0.4,0.1,0.7,0.2h0.2c0.1,0,0.1,0.1,0.2,0.1s0.2,0.1,0.4,0.2c0.1,0,0.1,0,0.2,0c0.1,0,0.1,0,0.2,0.1c0.1,0,0.1,0.1,0.2,0.1
			s0.1,0,0.2,0c0.1,0,0.3,0.1,0.4,0.1c0.1,0.1,0.3-0.2,0.4-0.1c0.1,0,0.3,0,0.4,0c0.1,0,0.3,0,0.4,0s0.2,0.2,0.4,0.1
			c0.1,0,0.3,0,0.4,0s0.1,0.1,0.2,0.1c0.1,0,0.1,0,0.2,0s0.3,0,0.4,0l-0.2,1.1c-0.1,0-0.3,0-0.4,0c-0.1,0-0.1,0-0.2,0
			s-0.1,0.1-0.2,0.1c-0.1,0-0.3,0-0.4-0.1c-0.1,0-0.3-0.1-0.4-0.1c-0.1,0-0.1-0.1-0.2-0.1c-0.1,0-0.1,0-0.2,0s-0.3,0.1-0.4,0.1
			s-0.1,0-0.2-0.1c0,0,0-0.1-0.1-0.1h-0.1c-0.1,0-0.3,0.2-0.4,0.2c-0.1,0-0.1-0.1-0.2-0.1s-0.1,0-0.2,0c-0.1,0-0.1,0-0.2,0
			s-0.1-0.1-0.2,0c-0.1,0.1-0.1,0.1-0.2,0.1c-0.1,0-0.1-0.1-0.2-0.2c0,0-0.1,0-0.1-0.1h-0.1c-0.1,0-0.1-0.1-0.2-0.2
			s-0.3-0.1-0.4-0.1h-0.2c-0.1,0-0.1,0-0.2,0c-0.1,0-0.2-0.2-0.4-0.1c-0.1,0-0.3,0-0.4,0L1302.5,261.7z M1302.3,224.1
			c0.1,0,0.3,0,0.4,0.1c0.1,0.2,0.3-0.1,0.4-0.1c0.3-0.1,0.4,0.1,0.7,0.1h0.2c0.1,0,0.1,0.1,0.2,0.1s0.3,0.1,0.4,0.2
			c0.1,0,0.1,0,0.2,0s0.1,0,0.2,0c0.1,0,0.1,0.1,0.2,0.1s0.1,0,0.2,0c0.1,0,0.3,0,0.4,0.1c0.1,0.1,0.3-0.2,0.4-0.1
			c0.1,0,0.3,0,0.4,0s0.3-0.1,0.4,0c0.1,0,0.3,0.1,0.4,0.1s0.3,0,0.4,0s0.1,0.1,0.2,0.1c0.1,0,0.1,0,0.2,0c0.1,0,0.3,0,0.4-0.1
			l-0.1,1.1h-0.4c-0.1,0-0.1,0-0.2,0c-0.1,0-0.1,0.1-0.2,0.1s-0.3,0-0.4-0.1c-0.1,0-0.3-0.1-0.4-0.1c-0.1,0-0.1-0.1-0.2-0.1
			s-0.1,0-0.2,0c-0.1,0-0.3,0.1-0.4,0.1c-0.1,0-0.1,0-0.2-0.1l-0.1-0.1h-0.1c-0.1,0.1-0.3,0.2-0.4,0.2s-0.1-0.1-0.2-0.1
			c-0.1,0-0.1,0-0.2,0s-0.1,0-0.2,0c-0.1,0-0.1-0.1-0.2,0c-0.1,0.1-0.1,0.1-0.2,0.1s-0.1-0.1-0.2-0.2h-0.1h-0.1
			c-0.1,0-0.1-0.1-0.2-0.1c-0.1-0.1-0.3-0.1-0.4,0l-0.2,0.1c-0.1,0-0.1,0-0.2,0s-0.3-0.2-0.4-0.1c-0.1,0-0.3,0.1-0.4,0.1
			L1302.3,224.1z M1302.3,219.3c0.1,0,0.3,0,0.4,0.1c0.1,0.2,0.3-0.1,0.4-0.1c0.3-0.1,0.4,0.1,0.7,0.1h0.2c0.1,0,0.1,0.1,0.2,0.1
			s0.3,0.1,0.4,0.2c0.1,0,0.1,0,0.2,0s0.1,0,0.2,0c0.1,0,0.1,0.1,0.2,0.1s0.1,0,0.2,0c0.1,0,0.3,0,0.4,0.1c0.1,0.1,0.3-0.2,0.4-0.1
			c0.1,0,0.3,0,0.4,0s0.3-0.1,0.4,0s0.3,0.1,0.4,0.1s0.3,0,0.4,0s0.1,0.1,0.2,0.1c0.1,0,0.1,0,0.2,0c0.1,0,0.3,0,0.4-0.1l-0.1,1.1
			h-0.4c-0.1,0-0.1,0-0.2,0c-0.1,0-0.1,0.1-0.2,0.1s-0.3,0-0.4-0.1c-0.1,0-0.3-0.1-0.4-0.1c-0.1,0-0.1-0.1-0.2-0.1s-0.1,0-0.2,0
			c-0.1,0-0.3,0.1-0.4,0.1c-0.1,0-0.1,0-0.2-0.1l-0.1-0.1h-0.1c-0.1,0.1-0.3,0.2-0.4,0.2s-0.1-0.1-0.2-0.1c-0.1,0-0.1,0-0.2,0
			s-0.1,0-0.2,0c-0.1,0-0.1-0.1-0.2,0c-0.1,0.1-0.1,0.1-0.2,0.1s-0.1-0.1-0.2-0.2h-0.1h-0.1c-0.1,0-0.1-0.1-0.2-0.1
			c-0.1-0.1-0.3-0.1-0.4,0l-0.2,0.1c-0.1,0-0.1,0-0.2,0s-0.3-0.2-0.4-0.1c-0.1,0-0.3,0.1-0.4,0.1L1302.3,219.3z M1434.2,265.6v-3.2
			c0-1.1,0.1-2.1,0.1-3.2l-0.1-1.6l-0.1-0.8c0-0.3,0-0.5,0-0.8c0-1.1,0-2.1,0-3.2c0.1-2.1,0.2-4.4,0.2-6.5v-1.6l0.1-1.6l0.2-3.2
			c0.1-1.1,0.2-2.1,0.2-3.2V235l0.1-1.6l0.2-3.2c0-1.1,0-2.1,0.1-3.2l0.2-3.2c0.1-1.1,0-2.1,0-3.3c0.1-2.1,0.2-4.4,0.3-6.5l0.5,0.6
			c-2.1-0.3-4.2-0.4-6.3-0.4c-2.1-0.1-4.3-0.1-6.4-0.2c-4.3,0-8.6,0-12.8,0.1l-12.8,0.3c-4.3,0.1-8.6,0.2-12.8,0.4l0.6-0.6
			c-0.1,5.6-0.2,11.3-0.3,16.9l-0.3,16.9l-0.1,8.5l-0.2,8.5c-0.1,5.6-0.3,11.3-0.3,16.9l-0.5-0.5l44.6,0.2v1.3l-44.6-0.3h-0.7v-0.7
			c0.1-5.6,0.1-11.3,0.2-16.9l0.1-8.5c0-2.9,0.1-5.6,0.2-8.5l0.6-33.9v-0.7h0.7c4.3-0.2,8.6-0.3,12.8-0.4s8.6-0.2,12.8-0.2
			c4.3,0,8.6,0,12.8,0.1c2.1,0,4.3,0.1,6.4,0.2c2.1,0.1,4.3,0.2,6.4,0.4l0.5,0.1v0.6l-0.3,6.5c-0.4,2.1-0.2,4.4-0.2,6.5v0.8
			c0,0.3,0,0.5,0,0.8l-0.2,1.6c-0.1,1.1,0,2.1-0.1,3.2l-0.1,1.6c0,0.5-0.1,1.1-0.1,1.6c-0.1,1.1,0.1,2.1,0,3.2l-0.1,1.6l-0.2,1.6
			v1.6c0,0.5-0.1,1.1-0.1,1.6c-0.2,2.1-0.2,4.4-0.1,6.5c0,1.1,0.1,2.1,0.1,3.2c0,1.1-0.1,2.1-0.1,3.2s0.1,2.1,0.1,3.2v3.2
			L1434.2,265.6z"/>
		<path class="st3" d="M1424,221.5h-4c-1.3,0-2.7,0-4,0c-0.7,0-1.3,0-2,0s-1.3,0.1-2,0.1c-1.3,0.1-2.7,0.2-4,0.2
			c-2.7,0.1-5.4,0.1-8,0.1c-2.7,0-5.4,0.1-8,0.1l0.7-0.7l-0.3,6.3c-0.1,1.1-0.2,2.1-0.2,3.2v1.6c0,0.5,0,1.1,0,1.6
			c0,1.1-0.1,2.1-0.1,3.2v0.8v2.4c0,1.1-0.1,2.1-0.1,3.2l-0.1,3.2c0,0.5,0,1.1,0.1,1.6c0,0.5,0,1.1,0,1.6v3.2c0,2.1,0,4.3,0,6.3v1.6
			l-0.1,1.6c0,1.1-0.1,2.1-0.1,3.2v3.2c0,1.1,0,2.1-0.1,3.2l-0.6-0.6c0.8,0.1,1.7,0.2,2.5,0.2c0.8,0,1.7,0.1,2.5,0.1l5,0.1l-0.1,1.3
			l-5-0.2l-2.5-0.1c-0.8,0-1.7,0-2.5,0h-0.8v-0.9c0-1.1,0-2.1,0.1-3.2c0.1-1.1,0.1-2.1,0.1-3.2c0-1.1,0.1-2.1,0.1-3.2l0.1-1.6
			l0.1-1.6c0.1-1.1,0.1-2.1,0.1-3.2c0-1.1,0-2.1,0-3.2c-0.1-2.1,0-4.3,0.2-6.3c0-2.1-0.2-4.3-0.2-6.3c0-0.5,0.1-1.1,0.1-1.6V238
			v-0.8c0-1.1,0-2.1,0-3.2c0-0.5,0-1.1,0-1.6c0-0.5,0.1-1.1,0.1-1.6c0.1-1.1-0.1-2.1-0.1-3.2c0-1.1,0.1-2.1,0.2-3.2
			c0-0.5,0.1-1.1,0.1-1.6c0-0.5,0-1.1,0-1.6l0.1-0.6h0.5l4,0.1c1.3,0,2.7,0,4-0.1l8-0.4c2.7-0.1,5.4,0.1,8-0.1
			c1.3-0.1,2.7-0.1,4-0.1l4-0.1L1424,221.5z"/>
		<path class="st3" d="M1427.5,229.3c0-0.2,0-0.4,0-0.5c0-0.1,0-0.2,0-0.3c0.1-0.1,0.1-0.2,0-0.3c-0.1-0.2-0.2-0.4-0.2-0.5
			s0-0.4,0-0.5c0-0.4,0.1-0.6,0.2-1c0-0.2,0-0.4,0.1-0.5c0-0.2,0.1-0.4,0.1-0.5c0.1-0.2,0.1-0.4,0.2-0.5v-0.3c0,0,0-0.2,0-0.3
			c0-0.2,0.1-0.4,0.1-0.5c0-0.1,0-0.2,0-0.3s0-0.2,0-0.3c0-0.2,0.1-0.4,0.1-0.5c0-0.1,0-0.2,0-0.3c0-0.1-0.1-0.2-0.1-0.3
			c0-0.4-0.1-0.6-0.1-1l0.5,0.6c-0.5-0.1-1,0-1.5-0.1c-0.5-0.1-1-0.2-1.5-0.1c-0.5,0.1-1-0.3-1.5-0.2c-0.5,0.1-1.1,0-1.6,0.1
			c-0.4,0-0.6-0.4-0.6-0.7c0-0.3,0.3-0.5,0.5-0.6h1.7c0.3,0,0.5,0,0.8-0.1c0.3-0.1,0.5-0.1,0.8,0l0.8,0.2c0.3,0.1,0.5,0.1,0.8,0.1
			c0.5,0,1.1,0.4,1.6,0.3h0.4v0.6c0.1,0.4,0.1,0.6,0.1,1c-0.4,0.3-0.1,0.6,0,1c0,0.1,0,0.2,0,0.3s-0.1,0.2-0.1,0.3
			c0,0.2,0,0.4,0,0.5c0,0.1,0,0.2,0,0.3s-0.1,0.2-0.1,0.3c-0.1,0.2,0.2,0.4,0.1,0.5c-0.1,0.2-0.2,0.4-0.3,0.4c0,0.1,0,0.2,0,0.3
			s-0.1,0.2-0.1,0.3c-0.2,0.3-0.2,0.6-0.1,1c0,0.2,0.1,0.4,0.1,0.5c0,0.2-0.1,0.4-0.1,0.5c0.1,0.4,0.1,0.6,0.2,1
			c-0.1,0.4-0.4,0.6-0.8,0.5C1427.7,229.8,1427.5,229.6,1427.5,229.3L1427.5,229.3z M1398.8,272.1c0.6,0,1.2,0,1.9,0.1
			c0.6,0,1.2,0.1,1.9,0.1c1.2,0.2,2.5,0,3.7,0c1.2,0,2.5,0.1,3.7,0.2c1.2,0.1,2.5,0.2,3.7,0.2l1.9,0.1c0.6,0,1.2,0.1,1.9,0.1
			c1.2,0.1,2.5,0.2,3.7,0.3c1.2,0.1,2.5,0.1,3.7,0.2c1.2,0.1,2.5,0.2,3.7,0.2l-0.4,0.4l-0.1-1.1v-1.1v-2.2c0-0.7,0-1.5-0.1-2.2
			c0-0.4-0.1-0.7-0.1-1.1s-0.1-0.7-0.1-1.1c-0.2-2.9-0.3-5.9-0.4-8.9c0-1.5,0.1-2.9,0-4.5l-0.1-2.2c0-0.7-0.1-1.5,0-2.2
			c0-0.7,0.1-1.5,0.1-2.2s0-1.5,0-2.2l-0.1-4.5c-0.1-0.4,0.2-0.7,0.5-0.8c0.4-0.1,0.7,0.2,0.8,0.5c0,0.1,0,0.2,0,0.3l0,0v4.5
			c0,0.7,0,1.5,0,2.2s0.1,1.5,0.2,2.2c0,1.5,0,2.9,0,4.5c0,1.5,0,2.9,0,4.5c0,0.7-0.1,1.5-0.1,2.2s0,1.5,0.1,2.2l0.1,2.2l0.1,1.1
			v1.1c0,0.4,0,0.7,0,1.1c0,0.4-0.1,0.7-0.1,1.1c0,0.4,0,0.7,0,1.1c0,0.4,0,0.7,0.1,1.1c0.1,0.7,0.2,1.5,0.2,2.2l0.1,1.1v1.1v1
			l-0.8-0.1c-1.2-0.2-2.5-0.1-3.7-0.2c-0.6,0-1.2-0.1-1.9-0.1c-0.6-0.1-1.2-0.1-1.9,0s-1.2,0-1.9,0c-0.6-0.1-1.2-0.2-1.9-0.3
			s-1.2,0-1.9-0.1s-1.2-0.2-1.9-0.3c-1.2-0.1-2.5-0.2-3.7-0.2c-1.2,0-2.5,0-3.7,0s-2.5-0.3-3.7-0.2h-1.9c0,0-1.2,0-1.9,0
			c-0.4-0.1-0.6-0.4-0.5-0.8C1398.3,272.3,1398.6,272.2,1398.8,272.1L1398.8,272.1z"/>
		<path class="st3" d="M1382.4,216.4h2.9v11.9h-2.9V216.4z M1382.4,258.4h2.9v11.9h-2.9V258.4z"/>
		<path class="st3" d="M1381.5,266.6c0.1,0,0.3,0,0.4,0.1c0.1,0.2,0.3-0.1,0.4-0.1c0.3,0,0.4,0.1,0.7,0.2h0.2c0.1,0,0.1,0.1,0.2,0.1
			s0.2,0.1,0.4,0.2c0.1,0,0.1,0,0.2,0c0.1,0,0.1,0,0.2,0.1c0.1,0,0.1,0.1,0.2,0.1c0.1,0,0.1,0,0.2,0c0.1,0,0.3,0.1,0.4,0.1
			c0.1,0.1,0.3-0.2,0.4-0.1c0.1,0,0.3,0,0.4,0c0.1,0,0.3,0,0.4,0c0.1,0,0.2,0.2,0.4,0.1c0.1,0,0.3,0,0.4,0s0.1,0.1,0.2,0.1
			c0.1,0,0.1,0,0.2,0s0.3,0,0.4-0.1l-0.2,1.1c-0.1,0-0.3,0-0.4,0c-0.1,0-0.1,0-0.2,0s-0.1,0.1-0.2,0.1c-0.1,0-0.3,0-0.4-0.1
			c-0.1,0-0.3-0.1-0.4-0.1s-0.1-0.1-0.2-0.1c-0.1,0-0.1,0-0.2,0s-0.3,0.1-0.4,0.1s-0.1,0-0.2-0.1c0,0,0-0.1-0.1-0.1h-0.1
			c-0.1,0-0.3,0.2-0.4,0.2c-0.1,0-0.1-0.1-0.2-0.1s-0.1,0-0.2,0c-0.1,0-0.1,0-0.2,0c-0.1,0-0.1-0.1-0.2,0s-0.1,0.1-0.2,0.1
			c-0.1,0-0.1-0.1-0.2-0.2c0,0-0.1,0-0.1-0.1h-0.1c-0.1,0-0.1-0.1-0.2-0.2s-0.3-0.1-0.4-0.1h-0.2c-0.1,0-0.1,0-0.2,0
			c-0.1,0-0.2-0.2-0.4-0.1c-0.1,0-0.3,0-0.4,0L1381.5,266.6z M1381.5,261.7c0.1,0,0.3,0,0.4,0.1c0.1,0.2,0.3-0.1,0.4-0.1
			c0.3,0,0.4,0.1,0.7,0.2h0.2c0.1,0,0.1,0.1,0.2,0.1s0.2,0.1,0.4,0.2c0.1,0,0.1,0,0.2,0c0.1,0,0.1,0,0.2,0.1c0.1,0,0.1,0.1,0.2,0.1
			c0.1,0,0.1,0,0.2,0c0.1,0,0.3,0.1,0.4,0.1c0.1,0.1,0.3-0.2,0.4-0.1c0.1,0,0.3,0,0.4,0c0.1,0,0.3,0,0.4,0c0.1,0,0.2,0.2,0.4,0.1
			c0.1,0,0.3,0,0.4,0s0.1,0.1,0.2,0.1c0.1,0,0.1,0,0.2,0s0.3,0,0.4,0l-0.2,1.1c-0.1,0-0.3,0-0.4,0c-0.1,0-0.1,0-0.2,0
			s-0.1,0.1-0.2,0.1c-0.1,0-0.3,0-0.4-0.1c-0.1,0-0.3-0.1-0.4-0.1s-0.1-0.1-0.2-0.1c-0.1,0-0.1,0-0.2,0s-0.3,0.1-0.4,0.1
			s-0.1,0-0.2-0.1c0,0,0-0.1-0.1-0.1h-0.1c-0.1,0-0.3,0.2-0.4,0.2c-0.1,0-0.1-0.1-0.2-0.1s-0.1,0-0.2,0c-0.1,0-0.1,0-0.2,0
			c-0.1,0-0.1-0.1-0.2,0c-0.1,0.1-0.1,0.1-0.2,0.1c-0.1,0-0.1-0.1-0.2-0.2c0,0-0.1,0-0.1-0.1h-0.1c-0.1,0-0.1-0.1-0.2-0.2
			s-0.3-0.1-0.4-0.1h-0.2c-0.1,0-0.1,0-0.2,0c-0.1,0-0.2-0.2-0.4-0.1c-0.1,0-0.3,0-0.4,0L1381.5,261.7z M1381.1,224.1
			c0.1,0,0.3,0,0.4,0.1c0.1,0.2,0.3-0.1,0.4-0.1c0.3-0.1,0.4,0.1,0.7,0.1h0.2c0.1,0,0.1,0.1,0.2,0.1c0.1,0,0.3,0.1,0.4,0.2
			c0.1,0,0.1,0,0.2,0c0.1,0,0.1,0,0.2,0s0.1,0.1,0.2,0.1c0.1,0,0.1,0,0.2,0s0.3,0,0.4,0.1c0.1,0.1,0.3-0.2,0.4-0.1
			c0.1,0,0.3,0,0.4,0c0.1,0,0.3-0.1,0.4,0c0.1,0,0.3,0.1,0.4,0.1c0.1,0,0.3,0,0.4,0c0.1,0,0.1,0.1,0.2,0.1c0.1,0,0.1,0,0.2,0
			s0.3,0,0.4-0.1l-0.1,1.1h-0.4c-0.1,0-0.1,0-0.2,0s-0.1,0.1-0.2,0.1c-0.1,0-0.3,0-0.4-0.1c-0.1,0-0.3-0.1-0.4-0.1s-0.1-0.1-0.2-0.1
			c-0.1,0-0.1,0-0.2,0s-0.3,0.1-0.4,0.1s-0.1,0-0.2-0.1l-0.1-0.1h-0.1c-0.1,0.1-0.3,0.2-0.4,0.2c-0.1,0-0.1-0.1-0.2-0.1
			s-0.1,0-0.2,0c-0.1,0-0.1,0-0.2,0s-0.1-0.1-0.2,0c-0.1,0.1-0.1,0.1-0.2,0.1c-0.1,0-0.1-0.1-0.2-0.2h-0.1h-0.1
			c-0.1,0-0.1-0.1-0.2-0.1c-0.1-0.1-0.3-0.1-0.4,0l-0.2,0.1c-0.1,0-0.1,0-0.2,0c-0.1,0-0.3-0.2-0.4-0.1c-0.1,0-0.3,0.1-0.4,0.1
			L1381.1,224.1z M1381.1,219.3c0.1,0,0.3,0,0.4,0.1c0.1,0.2,0.3-0.1,0.4-0.1c0.3-0.1,0.4,0.1,0.7,0.1h0.2c0.1,0,0.1,0.1,0.2,0.1
			c0.1,0,0.3,0.1,0.4,0.2c0.1,0,0.1,0,0.2,0c0.1,0,0.1,0,0.2,0s0.1,0.1,0.2,0.1c0.1,0,0.1,0,0.2,0s0.3,0,0.4,0.1
			c0.1,0.1,0.3-0.2,0.4-0.1c0.1,0,0.3,0,0.4,0c0.1,0,0.3-0.1,0.4,0c0.1,0.1,0.3,0.1,0.4,0.1c0.1,0,0.3,0,0.4,0
			c0.1,0,0.1,0.1,0.2,0.1c0.1,0,0.1,0,0.2,0s0.3,0,0.4-0.1l-0.1,1.1h-0.4c-0.1,0-0.1,0-0.2,0s-0.1,0.1-0.2,0.1c-0.1,0-0.3,0-0.4-0.1
			c-0.1,0-0.3-0.1-0.4-0.1s-0.1-0.1-0.2-0.1c-0.1,0-0.1,0-0.2,0s-0.3,0.1-0.4,0.1s-0.1,0-0.2-0.1l-0.1-0.1h-0.1
			c-0.1,0.1-0.3,0.2-0.4,0.2c-0.1,0-0.1-0.1-0.2-0.1s-0.1,0-0.2,0c-0.1,0-0.1,0-0.2,0s-0.1-0.1-0.2,0c-0.1,0.1-0.1,0.1-0.2,0.1
			c-0.1,0-0.1-0.1-0.2-0.2h-0.1h-0.1c-0.1,0-0.1-0.1-0.2-0.1c-0.1-0.1-0.3-0.1-0.4,0l-0.2,0.1c-0.1,0-0.1,0-0.2,0
			c-0.1,0-0.3-0.2-0.4-0.1c-0.1,0-0.3,0.1-0.4,0.1L1381.1,219.3z"/>
		<path class="st12" d="M1396.3,122.9c-7,0-16.1,0.1-23.2,0.1c0,0-0.7,9.4,0,13.7c8,0.1,15.7,0.1,23.7,0.2
			C1397,132.3,1396.8,127.5,1396.3,122.9z"/>
		<path class="st13" d="M1434.9,39.3c-0.2,0.1-0.4,0.1-0.4,0.2c-0.1,0-0.2,0-0.2,0h-0.3l-1.4,0.1c-1,0-2,0.1-2.9,0.3
			c-1,0.3-1.9,0.4-2.9,0.4c-1,0.1-2,0.3-2.9,0.4c-1.9,0.4-3.8,0.9-5.8,1.2c-1,0.1-2,0.1-2.9,0.2c-0.5,0.1-1,0.1-1.5,0.2
			c-0.5,0.1-1,0.1-1.5,0.2c0,0,0.6,2.2,0.5,3.7s-0.2,3-0.1,4.5l0.1,1.2c0,0.4,0,0.8,0,1.2c-0.1,0.8-0.3,1.5-0.2,2.3
			c0.1,0.4,0.1,0.8,0.1,1.2v1.2l-0.2,2.2l-0.1,2.3v3.4c0,0.4,0,0.8,0,1.2c0,0.8-0.2,1.5-0.2,2.3c0,0.8,0,1.5,0.2,2.3
			c0,0.4,0,0.8,0,1.2c0,0.4,0,0.8,0,1.2l-0.1,1.2V76l0.1,1.2l0.1,1.2l-0.3-0.3c1,0,2,0,2.9,0l2.9,0.1c2,0,3.9,0.3,5.9,0.1
			s3.9-0.2,6-0.2h2.9c1,0,2,0.2,2.9,0.2l-0.5,0.5c0-0.8,0-1.7,0-2.5l-0.1-2.5c0-0.4,0-0.8,0-1.2c0-0.4,0-0.8,0-1.2s0.1-0.8,0.1-1.2
			s0-0.8,0-1.2c0-0.8-0.1-1.7-0.1-2.5c0-0.8,0-1.7,0.1-2.5c0.1-0.4,0.1-0.8,0.1-1.2s0-0.8,0-1.2c-0.1-0.8-0.1-1.7,0-2.5
			c0-0.4,0.1-0.8,0-1.2c0-0.4-0.1-0.8-0.1-1.2c-0.1-0.8-0.1-1.7,0-2.5c0.1-1.7,0.1-3.3-0.1-5c-0.1-0.8-0.1-1.7,0-2.5
			c0-0.8,0-1.7-0.1-2.5s-0.2-1.6-0.3-2.5V41v-0.7C1434.8,40,1434.9,39.7,1434.9,39.3L1434.9,39.3z"/>
		<path class="st6" d="M1427.9,65.2c-0.3,0-0.5,0-0.8,0c-0.3,0-0.5,0-0.8-0.1c-0.3-0.1-0.5-0.1-0.8,0c-0.3,0.1-0.5,0.1-0.8,0.2
			c-0.3,0-0.5,0.1-0.8,0c-0.3-0.1-0.5-0.1-0.8-0.1c-0.3,0.1-0.5,0.2-0.8,0.3c-0.2,0-0.3-0.2-0.4-0.2c-0.2,0-0.3,0-0.4,0.1
			c-0.1,0.1-0.3,0.1-0.4,0.1c-0.2,0-0.3,0-0.4,0c-0.5-0.1-1.1,0-1.6,0c-0.1,0-0.2,0-0.2,0c-0.1,0-0.2-0.1-0.2-0.1
			c-0.2,0-0.3,0.1-0.4,0.1c-0.2,0-0.3,0-0.4-0.1c-0.2,0-0.3,0-0.4,0c-0.5,0-1.1,0-1.6,0c-0.3,0-0.5,0-0.8,0.1
			c-0.1,0-0.3,0.1-0.4,0.1h-0.4c-0.3,0-0.5,0-0.8-0.1h-0.4c-0.2,0-0.3,0.1-0.4,0.1c-0.2,0-0.3,0-0.4,0c-0.2,0-0.3,0-0.4,0
			c-0.3,0.1-0.5,0.1-0.8,0.1v-0.9c0.3,0,0.5,0,0.8,0c0.2,0,0.3,0,0.4,0c0.1,0,0.2,0,0.2-0.1c0.1,0,0.2,0,0.2,0
			c0.2,0,0.3,0.1,0.4,0.1c0.2,0,0.3,0,0.4,0c0.3,0,0.5-0.1,0.8-0.2c0.2,0,0.3,0,0.4,0s0.3,0,0.4,0.1c0.2,0,0.3,0,0.4,0
			c0.2,0,0.3-0.1,0.4-0.1c0.3,0,0.5,0,0.8,0.1c0.3,0,0.5,0,0.8,0c0.2,0,0.3,0,0.4,0c0.1,0,0.3-0.1,0.4-0.1c0.2,0,0.3,0.1,0.4,0.1
			c0.1,0,0.2,0,0.2-0.1c0.1,0,0.2,0,0.2,0c0.5,0,1.1,0,1.6,0h0.4c0.2,0,0.3,0,0.4,0.1c0.1,0,0.3,0.1,0.4,0.1c0.2,0,0.3-0.1,0.4-0.1
			c0.3,0,0.5,0.1,0.8,0.1s0.5,0,0.8-0.1c0.5,0,1.1,0,1.6,0c0.3,0,0.5,0,0.8-0.1c0.3-0.1,0.5-0.1,0.8-0.2c0.3,0,0.5-0.1,0.8-0.1
			c0.2,0,0.3,0,0.4,0l0.4,0.1c0.5,0,1.1-0.2,1.6-0.2c0.3,0.1,0.5,0,0.8,0c0.2,0,0.3,0,0.4,0c0.2,0,0.3,0.1,0.4,0.1
			c0.3,0,0.5-0.1,0.8,0c0.1,0.1,0.3,0.1,0.4,0c0.1,0,0.2-0.1,0.2-0.1c0.1,0,0.2,0,0.2,0c0.3,0.1,0.5,0.1,0.8,0.1
			c0.2,0,0.3,0,0.4-0.1c0.2,0,0.3,0,0.4,0c0.3,0.1,0.5,0,0.8-0.1c0.3-0.1,0.5-0.1,0.8-0.1v0.8c-0.2,0-0.3,0-0.4,0
			c-0.2,0-0.3,0-0.4,0c-0.3-0.1-0.5-0.1-0.8,0c-0.1,0.1-0.3,0.1-0.4,0.1c-0.2,0-0.3,0-0.4,0c-0.3,0-0.5,0.1-0.8,0.2
			c-0.1,0-0.2,0-0.2,0c-0.1,0-0.2,0-0.2-0.1c-0.1-0.1-0.3-0.1-0.4,0c-0.3,0.2-0.5-0.1-0.8,0c-0.2,0-0.3,0.1-0.4,0.1
			c-0.2,0-0.3,0-0.4,0c-0.3-0.1-0.5-0.1-0.8,0c-0.5,0.1-1.1-0.2-1.6,0"/>
		<path class="st6" d="M1423.5,66.1l-0.1-0.6c0-0.2,0-0.4,0-0.6c0-0.4,0-0.8,0-1.2c0-0.4,0-0.8,0.1-1.2c0.1-0.4,0.1-0.8,0-1.2
			c-0.1-0.4-0.1-0.8-0.1-1.2s-0.1-0.8,0-1.2s0.1-0.8,0.1-1.2c-0.1-0.4-0.2-0.8-0.3-1.2c0-0.2,0.1-0.4,0.2-0.6c0-0.2,0-0.4-0.1-0.6
			c-0.1-0.2-0.1-0.4-0.1-0.6s0-0.4,0-0.6c0.1-0.8,0-1.7,0-2.5c0-0.1,0-0.2,0-0.4c0-0.1,0.1-0.2,0.1-0.4c0-0.2-0.1-0.4-0.1-0.6
			c0-0.2,0-0.4,0.1-0.6c0-0.2,0-0.4,0-0.6c0-0.8,0-1.7,0-2.5c0-0.4,0-0.8,0-1.2c0-0.2-0.1-0.4-0.1-0.6v-0.6c0-0.4,0-0.8,0.1-1.2
			v-0.6c0,0-0.1-0.4-0.1-0.6c0-0.2,0-0.4,0-0.6c0-0.2,0-0.4,0-0.6c-0.1-0.4-0.1-0.8-0.1-1.2h0.9c0,0.4,0,0.8,0,1.2
			c0,0.2,0,0.4,0,0.6c0.1,0.2,0.1,0.4,0,0.6c0,0.2-0.1,0.4-0.1,0.6s0,0.4,0,0.6l0.2,1.2c0,0.2,0,0.4,0,0.6c0,0.2,0,0.4-0.1,0.6
			c0,0.2,0,0.4,0,0.6c0,0.2,0.1,0.4,0.1,0.6c0,0.4,0,0.8-0.1,1.2c0,0.4-0.1,0.8,0,1.2c0,0.2,0,0.4,0,0.6c0,0.2,0.1,0.4,0.1,0.6
			s-0.1,0.4-0.1,0.6c0,0.1,0,0.2,0.1,0.3c0,0.1,0,0.2,0,0.3v1.2c0,0,0,0.8,0,1.2v0.6c0,0.2,0,0.4-0.1,0.6c0,0.2-0.1,0.4-0.1,0.6
			c0,0.2,0.1,0.4,0.1,0.6c0,0.4-0.1,0.8-0.1,1.2s0,0.8,0.1,1.2c0,0.8,0,1.7,0,2.5c0,0.4,0,0.8,0.1,1.2c0.1,0.4,0.1,0.8,0.2,1.2
			c0,0.4,0.1,0.8,0.1,1.2c0,0.2,0,0.4,0,0.6l-0.1,0.6c0,0.8,0.2,1.7,0.2,2.5c-0.1,0.4,0,0.8,0,1.2c0,0.2,0,0.4,0,0.6
			s-0.1,0.4-0.1,0.6c-0.1,0.4,0.1,0.8,0,1.2c-0.1,0.2-0.1,0.4,0,0.6c0,0.1,0.1,0.2,0.1,0.3c0,0.1,0,0.2,0,0.4
			c-0.1,0.4-0.1,0.8-0.1,1.2c0,0.2,0,0.4,0.1,0.6c0,0.2,0,0.4,0,0.6c-0.1,0.4,0,0.8,0.1,1.2c0,0.2,0,0.4,0.1,0.6s0,0.4,0,0.6h-0.8
			v-1.2c0.1-0.4,0.1-0.8,0-1.2c-0.1-0.2-0.1-0.4-0.1-0.6s0.1-0.4,0-0.6c0-0.4-0.1-0.8-0.2-1.2c0-0.1,0-0.2,0-0.3s0-0.2,0.1-0.4
			c0.1-0.2,0.1-0.4,0-0.6c-0.2-0.4,0.1-0.8,0-1.2c0-0.2-0.1-0.4-0.1-0.6c0-0.2,0-0.4,0-0.6"/>
		<path class="st3" d="M1431.3,91.2c-6.1-1.4-26.1,42.3-19,44.6C1422,138.9,1438.4,92.9,1431.3,91.2z"/>
		<path class="st3" d="M1337.4,78.7c1.7-3.1,3.3-6.3,5.3-9.3l0.7-1.2c0.1-0.2,0.3-0.4,0.4-0.5s0.3-0.4,0.4-0.5
			c0.4-0.7,0.9-1.5,1.3-2.3c0.4-0.8,1-1.5,1.4-2.2c0.4-0.7,1-1.4,1.4-2.2c0.9-1.5,1.7-3.1,2.6-4.7c0.9-1.6,1.6-3.2,2.5-4.7
			c0.4-0.8,0.8-1.6,1.3-2.3c0.4-0.7,1-1.5,1.4-2.2c0.3-0.4,0.4-0.8,0.6-1.2l0.6-1.2l0.6-1.2l0.6-1.2c0.2-0.4,0.7-0.5,1.1-0.4
			c0.4,0.2,0.5,0.7,0.4,1.1l0,0v0.1l-2.6,4.7c-0.2,0.4-0.4,0.8-0.7,1.2c-0.3,0.4-0.5,0.7-0.7,1.1c-0.5,0.7-0.9,1.5-1.3,2.3
			c-0.9,1.5-1.8,3-2.7,4.6c-0.9,1.5-1.8,3.1-2.6,4.6c-0.4,0.8-0.8,1.6-1.2,2.4s-0.9,1.6-1.3,2.3c-0.3,0.4-0.5,0.7-0.8,1.1l-0.4,0.5
			l-0.4,0.5c-0.2,0.2-0.3,0.4-0.4,0.5s-0.2,0.4-0.3,0.6c-0.3,0.4-0.4,0.7-0.7,1.2l-0.8,1.1c-0.3,0.4-0.4,0.7-0.7,1.2
			c-0.2,0.4-0.4,0.8-0.5,1.2c-0.2,0.4-0.4,0.8-0.6,1.2c-0.9,1.6-1.7,3.1-2.6,4.6c-0.3,0.4-0.7,0.5-1.2,0.3
			C1337.4,79.5,1337.2,79,1337.4,78.7L1337.4,78.7z"/>
		<path class="st3" d="M1342.1,78.1c1.2-2.3,2.5-4.7,4-7l0.5-0.8c0.1-0.1,0.2-0.3,0.4-0.4c0.1-0.1,0.2-0.3,0.3-0.4
			c0.4-0.5,0.7-1.2,1.1-1.7c0.4-0.5,0.7-1.1,1.2-1.6c0.4-0.5,0.8-1.1,1.2-1.6c0.6-1.2,1.3-2.3,2-3.5c0.6-1.2,1.2-2.4,1.9-3.6
			c0.4-0.6,0.6-1.2,1-1.7c0.4-0.5,0.8-1.1,1.2-1.6c0.2-0.3,0.4-0.5,0.5-0.9l0.4-0.9l0.4-0.9l0.4-0.9c0.2-0.4,0.7-0.5,1.1-0.4
			c0.4,0.2,0.5,0.7,0.4,1.1l0,0v0.1l-2,3.5c-0.2,0.3-0.4,0.5-0.5,0.9c-0.2,0.3-0.4,0.5-0.6,0.8c-0.4,0.5-0.7,1.2-1.1,1.7
			c-0.7,1.2-1.3,2.3-2.1,3.5c-0.6,1.2-1.3,2.3-2,3.5c-0.4,0.6-0.6,1.2-0.9,1.8s-0.6,1.2-1,1.7c-0.2,0.3-0.4,0.5-0.6,0.8l-0.4,0.4
			l-0.3,0.4c-0.1,0.1-0.2,0.3-0.3,0.4c-0.1,0.2-0.1,0.4-0.2,0.4c-0.2,0.3-0.4,0.5-0.6,0.8l-0.6,0.8c-0.2,0.3-0.4,0.5-0.5,0.8
			c-0.2,0.3-0.3,0.6-0.4,0.9c-0.1,0.3-0.3,0.6-0.4,0.9c-0.6,1.2-1.2,2.3-2,3.5c-0.3,0.4-0.7,0.5-1.2,0.3
			C1342,79,1341.9,78.6,1342.1,78.1L1342.1,78.1z"/>
		<path class="st6" d="M1433.4,90.4c-0.3,0.4-0.4,1-0.7,1.4c-0.1,0.3-0.3,0.4-0.4,0.7c-0.1,0.3-0.2,0.5-0.4,0.7
			c-0.1,0.3-0.3,0.4-0.4,0.7c-0.1,0.3-0.2,0.5-0.4,0.7l-0.5,1.5c-0.1,0.3-0.2,0.5-0.4,0.7c-0.2,0.2-0.3,0.4-0.4,0.7
			c-0.1,0.3-0.3,0.4-0.4,0.7c-0.1,0.3-0.2,0.5-0.3,0.8c-0.2,0.5-0.4,1-0.7,1.4c-0.3,0.4-0.5,1-0.7,1.4c-0.1,0.3-0.3,0.4-0.4,0.7
			c-0.1,0.3-0.2,0.5-0.3,0.7c-0.1,0.3-0.4,0.4-0.4,0.7c-0.1,0.1-0.1,0.3-0.2,0.4c0,0.1-0.1,0.3-0.2,0.4c-0.3,0.4-0.4,1-0.7,1.4
			c-0.3,0.4-0.4,1-0.7,1.4c-0.2,0.5-0.4,1-0.7,1.4c-0.2,0.2-0.3,0.4-0.4,0.7s-0.2,0.5-0.3,0.8c-0.3,0.4-0.5,0.9-0.8,1.4
			c-0.3,0.4-0.4,1-0.6,1.4c-0.2,0.5-0.4,1-0.7,1.4c-0.3,0.4-0.4,1-0.7,1.4c-0.3,0.4-0.4,1-0.6,1.5c-0.2,0.5-0.4,1-0.6,1.5
			c-0.2,0.4-0.4,1-0.6,1.5c-0.1,0.3-0.2,0.4-0.4,0.7l-0.4,0.7c-0.5,1-0.7,2.1-1.2,2.9c-0.3,0.4-0.5,1-0.7,1.4
			c-0.1,0.3-0.2,0.5-0.4,0.7c-0.1,0.3-0.3,0.4-0.4,0.7c-0.3,0.4-0.4,1-0.7,1.4c-0.2,0.3-0.3,0.4-0.4,0.7c-0.1,0.3-0.2,0.5-0.3,0.7
			c-0.3,0.4-0.5,0.9-0.8,1.4c-0.1,0.3-0.2,0.5-0.3,0.7c-0.1,0.3-0.2,0.4-0.4,0.7c-0.2,0.3-0.3,0.4-0.4,0.7c-0.1,0.3-0.2,0.5-0.3,0.8
			s-0.2,0.5-0.3,0.7c-0.1,0.3-0.2,0.5-0.4,0.7l-0.7-0.4c0.1-0.3,0.3-0.4,0.4-0.7c0.1-0.3,0.3-0.4,0.4-0.7c0.2-0.3,0.3-0.4,0.4-0.7
			c0.1-0.3,0.2-0.5,0.3-0.7c0.1-0.3,0.2-0.5,0.3-0.7c0.1-0.3,0.3-0.4,0.4-0.7c0.2-0.5,0.4-1,0.5-1.5c0.1-0.1,0.1-0.3,0.2-0.4
			c0.1-0.1,0.2-0.3,0.3-0.4c0.2-0.2,0.3-0.4,0.4-0.7c0.1-0.5,0.5-0.9,0.7-1.4c0.1-0.3,0.2-0.5,0.3-0.8c0.1-0.3,0.2-0.5,0.4-0.7
			c0.3-0.4,0.5-1,0.7-1.4c0.4-1,1.1-1.9,1.4-2.9l0.3-0.8l0.2-0.4l0.2-0.4c0.3-0.4,0.4-1,0.7-1.4c0.3-0.4,0.5-1,0.8-1.4
			c0.4-0.4,0.5-0.9,0.7-1.4c0.4-1,0.8-2.1,1.2-2.9c0.1-0.3,0.3-0.4,0.4-0.7c0.1-0.3,0.3-0.4,0.4-0.7c0.1-0.5,0.3-1.1,0.5-1.5
			c0.1-0.3,0.4-0.4,0.5-0.6c0.1-0.3,0.2-0.5,0.3-0.8s0.1-0.5,0.3-0.8c0.1-0.3,0.3-0.4,0.4-0.7c0.3-0.4,0.5-1,0.7-1.4
			c0.3-0.4,0.4-1,0.7-1.4c0.1-0.1,0.1-0.3,0.2-0.4c0.1-0.1,0.2-0.2,0.3-0.4c0.1-0.3,0.2-0.5,0.3-0.8c0.1-0.3,0.3-0.4,0.4-0.7
			c0.2-0.3,0.3-0.4,0.4-0.7c0.5-1,0.9-2,1.3-2.9c0.3-0.4,0.4-1,0.7-1.4c0.1-0.3,0.2-0.5,0.3-0.8s0.3-0.4,0.4-0.7l0.7-1.4
			c0.1-0.3,0.3-0.4,0.4-0.7c0.1-0.3,0.2-0.5,0.3-0.8c0.1-0.3,0.2-0.5,0.4-0.7c0.1-0.3,0.3-0.4,0.4-0.7c0.2-0.5,0.4-1,0.6-1.5
			L1433.4,90.4z"/>
		<path class="st6" d="M1336,194.8l1.9-17.9c6.2,0.8,12.5,1.3,18.7,1.5c-0.7,5.4-1.1,11-1.2,16.5"/>
		<path class="st14" d="M1332.3,176.8c0.5-5,1-14.3,1.5-19.2c5.2,0.7,10.3,1.1,15.5,1.2c-0.5,4.5-0.9,13.5-1,18L1332.3,176.8z"/>
		<path class="st3" d="M1331.8,177.2c-0.1-0.3-0.1-0.6-0.1-0.9v-0.4v-0.4l0.1-1.2c0.1-0.8,0.1-1.6,0.3-2.4c0.3-1.6,0-3.2,0.2-4.8
			c0.1-1.6,0.3-3.2,0.4-4.8c0.1-1.6,0.4-3.2,0.5-4.8l0.1-0.7l0.7,0.1c1.2,0.2,2.6,0.4,3.8,0.5l3.8,0.5c1.2,0.2,2.6,0.2,3.8,0.3
			s2.6,0.2,3.8,0.3h0.4v0.4l-0.4,4.5c-0.1,0.7-0.1,1.5-0.2,2.2c0,0.2,0,0.4,0,0.5v0.5c0,0.4,0,0.7,0,1.2l-0.1,4.5
			c0,1.5-0.1,3-0.1,4.5v0.6h-0.7c-0.7,0-1.3,0-2.1,0s-1.3-0.1-2.1-0.1h-4.1c-0.7,0-1.3-0.1-2.1-0.1c-0.4,0-0.7,0-1,0
			c-0.4,0-0.7,0-1,0L1331.8,177.2z"/>
		<path class="st15" d="M1368.8,150.4c0.8,3.7,1.8,7.2,2.3,10.9l0.2,1.3c0,0.3,0,0.4,0,0.7c0,0.3,0.1,0.4,0.1,0.7
			c0.2,0.9,0.4,1.8,0.5,2.8c0.2,0.9,0.3,1.9,0.4,2.8c0.1,0.9,0.3,1.9,0.4,2.8c0.4,1.8,0.8,3.7,1.2,5.4c0.4,1.8,0.9,3.6,1.3,5.4
			c0.2,0.9,0.4,1.8,0.6,2.7c0.2,0.9,0.3,1.9,0.4,2.8c0.1,0.4,0.2,0.9,0.3,1.3l0.3,1.3l0.3,1.3l0.4,1.3c0.1,0.4-0.2,0.9-0.6,1
			c-0.4,0.1-0.9-0.2-1-0.6v-0.1l-1.2-5.4c-0.1-0.4-0.2-0.9-0.3-1.3c-0.1-0.4-0.1-0.9-0.2-1.4c-0.1-0.9-0.4-1.9-0.5-2.8
			c-0.4-1.8-0.7-3.7-1.2-5.4l-1.2-5.4c-0.2-0.9-0.4-1.8-0.7-2.7c-0.3-0.9-0.4-1.8-0.5-2.8c-0.1-0.4-0.1-0.9-0.2-1.4l-0.1-0.7
			l-0.1-0.7c0-0.3-0.1-0.4-0.1-0.7c-0.1-0.2-0.2-0.4-0.2-0.7c-0.1-0.4-0.2-0.9-0.2-1.4l-0.2-1.4c-0.1-0.4-0.2-0.9-0.3-1.3
			s-0.3-0.9-0.4-1.3c-0.2-0.4-0.3-0.9-0.4-1.3c-0.4-1.8-0.8-3.7-1.2-5.4c-0.1-0.4,0.2-0.9,0.6-1
			C1368.2,149.3,1368.7,149.9,1368.8,150.4L1368.8,150.4z"/>
		<path class="st6" d="M1332.6,170.1c0.2,0,0.4,0,0.5,0.1c0.1,0,0.2,0,0.3,0h0.1h0.1c0.1,0,0.2,0.1,0.3,0.1c0.1,0,0.2,0,0.3,0
			l0.5-0.1c0.1,0,0.2,0,0.3,0s0.2,0,0.3,0.1c0.1,0,0.2,0,0.3,0c0.1,0,0.2-0.1,0.3-0.1c0.2,0,0.4,0,0.5,0.1c0.2,0,0.4,0.1,0.5,0.1
			c0.1,0,0.2,0,0.3,0c0.1,0,0.2-0.1,0.3-0.1c0.1,0,0.2,0.1,0.3,0.1c0.1,0,0.1,0,0.1,0h0.1c0.4,0,0.6,0.1,1,0.1c0.2,0,0.4,0,0.5,0.1
			c0.1,0.1,0.2,0.1,0.3,0.1c0.1,0,0.2-0.1,0.3-0.1c0.2,0,0.4,0.1,0.5,0.1s0.4,0,0.5,0c0.4,0,0.6,0,1,0c0.2,0,0.4,0,0.5-0.1
			c0.2-0.1,0.4-0.1,0.5-0.1c0.2,0,0.4-0.1,0.5-0.1c0.1,0,0.2,0,0.3,0l0.3,0.1c0.4,0.1,0.6-0.2,1-0.1c0.2,0.1,0.4,0.1,0.5,0
			c0.1,0,0.2,0,0.3,0c0.1,0,0.2,0.1,0.3,0.1c0.2,0.1,0.4-0.1,0.5,0c0.1,0.1,0.2,0.1,0.3,0c0.1-0.1,0.2-0.1,0.3-0.1
			c0.2,0.1,0.4,0.1,0.5,0.1c0.1,0,0.2,0,0.3-0.1c0.1,0,0.2,0,0.3,0c0.1,0,0.2,0,0.3,0c0.1,0,0.2-0.1,0.3-0.1c0.2,0,0.4-0.1,0.5-0.1
			v0.8c-0.2,0-0.4,0-0.5,0c-0.1,0-0.2-0.1-0.3-0.1c-0.1,0-0.2,0-0.3,0.1c-0.1,0-0.2,0.1-0.3,0c-0.1,0-0.2-0.1-0.3-0.1
			c-0.2,0-0.4,0.1-0.5,0.2h-0.1c-0.1,0-0.1-0.1-0.1-0.1c-0.1-0.1-0.2-0.1-0.3,0c-0.2,0.1-0.4-0.1-0.5-0.1c-0.1,0-0.2,0.1-0.3,0.1
			c-0.1,0-0.2,0-0.3,0c-0.2-0.1-0.4-0.1-0.5,0c-0.4,0.1-0.6-0.2-1-0.1l-0.3,0.1c-0.1,0-0.2,0-0.3,0c-0.2,0-0.4,0-0.5,0
			c-0.2,0-0.4-0.1-0.5-0.1c-0.2-0.1-0.4-0.1-0.5,0c-0.2,0.1-0.4,0.1-0.5,0.1c-0.2,0-0.4,0-0.5,0c-0.2-0.1-0.4-0.1-0.5-0.1
			c-0.2,0.1-0.4,0.2-0.5,0.2c-0.1,0-0.2-0.2-0.3-0.2c-0.1,0-0.2,0-0.3,0.1s-0.2,0.1-0.3,0.1c-0.1,0-0.2,0-0.3,0
			c-0.4-0.1-0.6,0-1-0.1c-0.1,0-0.1,0-0.1-0.1l-0.1-0.1c0,0-0.2,0.1-0.3,0.1s-0.2,0-0.3-0.1c-0.1,0-0.2-0.1-0.3-0.1
			c-0.4,0-0.6,0-1,0c-0.2,0-0.4,0-0.5,0c-0.1,0-0.2,0.1-0.3,0.1s-0.2,0-0.3,0c-0.2,0-0.4-0.1-0.5-0.1c-0.1,0-0.2,0-0.3,0
			c-0.1,0-0.2,0.1-0.3,0.1s-0.2,0-0.3,0c-0.1,0-0.2,0-0.3,0c-0.2,0-0.4,0.1-0.5,0.1V170.1z"/>
		<path class="st6" d="M1341.3,157.5c0,0.2,0,0.4,0,0.6c0,0.1,0,0.3,0,0.4c0,0.1,0,0.1,0.1,0.2c0,0.1,0,0.1,0,0.2
			c0,0.1-0.1,0.3-0.1,0.4c0,0.1,0,0.3,0,0.4l0.2,0.6c0,0.1,0,0.3,0,0.4c0,0.1,0,0.3-0.1,0.4c0,0.1,0,0.3,0,0.4
			c0,0.1,0.1,0.2,0.1,0.4c0,0.2,0,0.4-0.1,0.6c0,0.2-0.1,0.4-0.1,0.6c0,0.1,0,0.3,0,0.4c0,0.1,0.1,0.3,0.1,0.4
			c0,0.1-0.1,0.2-0.1,0.4c0,0.1,0,0.1,0,0.2s0,0.1,0,0.2c0,0.4-0.1,0.9,0,1.3v0.4c0,0.1,0,0.3-0.1,0.4c-0.1,0.1-0.1,0.2-0.1,0.4
			c0,0.1,0.1,0.2,0.1,0.4c0,0.2-0.1,0.4-0.1,0.6s0,0.4,0.1,0.6c0,0.4,0,0.9,0,1.3c0,0.2,0,0.4,0.1,0.6c0.1,0.2,0.1,0.4,0.1,0.6
			c0,0.2,0.1,0.4,0.1,0.6c0,0.1,0,0.3,0,0.4l-0.1,0.4c-0.1,0.4,0.2,0.9,0.2,1.2c-0.1,0.2-0.1,0.4,0,0.6c0,0.1,0,0.3,0,0.4
			s-0.1,0.2-0.1,0.4c-0.1,0.2,0.1,0.4,0,0.6c-0.1,0.1-0.1,0.3,0,0.4c0.1,0.1,0.1,0.3,0.1,0.4c-0.1,0.2-0.1,0.4-0.1,0.6
			c0,0.1,0,0.3,0.1,0.4c0,0.1,0,0.3,0,0.4c-0.1,0.2,0,0.4,0.1,0.6c0.1,0.2,0.1,0.4,0.1,0.6h-0.8c0-0.2,0-0.4,0-0.6
			c0-0.1,0-0.3,0.1-0.4c0-0.1,0-0.3-0.1-0.4c-0.1-0.1-0.1-0.3-0.1-0.4c0-0.1,0-0.3,0.1-0.4c0-0.2-0.1-0.4-0.2-0.6c0-0.1,0-0.1,0-0.2
			c0-0.1,0.1-0.1,0.1-0.2c0.1-0.1,0.1-0.3,0-0.4c-0.1-0.2,0.1-0.4,0-0.6c0-0.1-0.1-0.2-0.1-0.4c0-0.1,0-0.3,0-0.4
			c0.1-0.2,0.1-0.4,0-0.6c-0.1-0.4,0.2-0.9,0.1-1.3l-0.1-0.4c0-0.1,0-0.3,0-0.4c0-0.2,0-0.4,0-0.6s0-0.4,0.1-0.6
			c0.1-0.2,0.1-0.4,0-0.6s-0.1-0.4-0.1-0.6c0-0.2-0.1-0.4,0-0.6c0.1-0.2,0.1-0.4,0.1-0.6c-0.1-0.2-0.3-0.4-0.2-0.6
			c0-0.1,0.2-0.2,0.2-0.4c0-0.1,0-0.3-0.1-0.4c-0.1-0.1-0.1-0.2-0.1-0.4c0-0.1,0-0.2,0-0.4c0.1-0.4,0-0.9,0.1-1.3c0-0.1,0-0.1,0-0.2
			s0.1-0.1,0.1-0.2c0-0.1-0.1-0.2-0.1-0.4c0-0.1,0-0.3,0.1-0.4c0-0.1,0-0.3,0.1-0.4c0-0.4,0-0.9,0-1.3c0-0.2,0-0.4,0-0.6
			c0-0.1-0.1-0.3-0.1-0.4v-0.4c0-0.2,0.1-0.4,0.1-0.6v-0.4c0-0.1-0.1-0.2-0.1-0.4c0-0.1,0-0.3,0-0.4c0-0.1,0-0.3,0-0.4
			c0-0.2-0.1-0.4-0.1-0.6L1341.3,157.5z"/>
	</g>
	<g id="Path_132_" transform="translate(338.776238, 0.000000)">
		<polygon class="st1" points="142.8,29.5 176.7,51.7 168.8,291 118.8,291 		"/>
		<g>
			<polygon class="st16" points="71.1,290.7 -57,290.7 -64.2,10.8 78.2,12.5 			"/>
			<polygon class="st4" points="71.1,290.7 -57,290.7 -64.2,10.8 78.2,12.5 			"/>
			<polygon class="st3" points="-54,19.7 66.2,20.5 62.6,290.7 -50.4,290.7 			"/>
			<path class="st17" d="M62.6,290.7l0.5-41c-20.7-21.3-56.6-48.3-82.4-92.5C-48.6,106.9,20,61.1-30.5,19.9L-54,19.7l3.7,271H62.6z"
				/>
			<g transform="translate(141.906271, 9.974619)">
				<polygon class="st5" points="-80.2,280.7 -75.7,10.5 2.1,12 -6.4,280.7 				"/>
				<polygon class="st18" points="-65.3,154.2 -19.1,156.9 -21.6,266.5 -71.1,266.5 				"/>
				<g transform="translate(67.955116, 164.581218)">
					<path class="st19" d="M-74.4-0.9c-0.1,2.9-2.4,6.2-5.4,6.2S-85.1,3.9-85,1s2.6-6,5.5-6C-76.6-5-74.3-3.6-74.4-0.9z"/>
					<path class="st20" d="M-76.6-3.4c-0.1,2.9-2.4,6.2-5.4,6.2c-2.9,0-5.4-1.4-5.3-4.3s2.6-6,5.5-6C-78.7-7.5-76.5-6.2-76.6-3.4z"
						/>
					<path class="st21" d="M-79.8-5.3c0,1.1-0.9,2.3-2.1,2.3c-1.2,0-2.1-0.5-2-1.6c0-1.1,1-2.3,2.1-2.3C-80.6-6.9-79.8-6.4-79.8-5.3
						z"/>
				</g>
			</g>
		</g>
		<polygon class="st18" points="76.8,40.6 130.1,40.6 124.1,153 74.6,153 		"/>
	</g>
	<path class="st6" d="M1009.9,289.2c0,0-323.1,1.9-379.1,1.6c-56.1-0.3-344.7,0.3-416.1,0.4c-63.3,0.2-196.5-2.4-216.3-3.2l0.5,3.5
		c44.7,1.4,140.7,3.2,210.7,2.2c104.7-1.4,214.7-0.2,282.6-0.2s192.5-2.1,245.9-2.1c53.4,0,31.7,1.9,110.9,2.1
		c79.2,0.2,140.6-0.7,228.5-0.7s148.5,0.9,189.3,0.9c22.1,0,148.6-4.4,173.8-4.6c1.3-1.2-1.8,0.2-0.5-1.1L1009.9,289.2z"/>
	<g transform="translate(0.000000, 0.997462)">
		<path id="Stroke-28_2_" class="st2" d="M-14.9,69.6l15.2-7.1"/>
		<path id="Stroke-30_2_" class="st2" d="M-9.1,77l38.6-18"/>
		<path id="Stroke-32_2_" class="st2" d="M18,74.8l10-4.3"/>
		<path id="Stroke-36_2_" class="st2" d="M45.7,53.3h15.2"/>
		<path id="Stroke-37_1_" class="st2" d="M45.7,56.7h15.2"/>
		<path id="Stroke-38_2_" class="st2" d="M45.7,60.2h15.2"/>
		<path id="Stroke-39_1_" class="st2" d="M45.7,63.4h15.2"/>
		<path class="st4" d="M203.1,97.9H-42.8c-2.4,0-4.4,2-4.4,4.4s2,4.4,4.4,4.4h27.3v9.3c0,1.8,1.5,3.3,3.3,3.3s3.2-1.5,3.3-3.2v-9.4
			h212c2.4,0,4.4-2,4.4-4.4S205.5,97.9,203.1,97.9z"/>
		<path class="st22" d="M203.1,96.7H-42.8c-2.4,0-4.4,2-4.4,4.4s2,4.4,4.4,4.4h27.3v9.3c0,1.8,1.5,3.3,3.3,3.3s3.2-1.5,3.3-3.2v-9.4
			h212c2.4,0,4.4-2,4.4-4.4S205.5,96.7,203.1,96.7z"/>
		<path id="Stroke-26_3_" class="st2" d="M32.5,83.2h-50.6c-4,0-7.3-3.3-7.3-7.3v-18c0-4,3.3-7.3,7.3-7.3h50.6c4,0,7.3,3.3,7.3,7.3
			v18C39.9,79.9,36.6,83.2,32.5,83.2z"/>
		<path id="Stroke-28_3_" class="st2" d="M-14.9,69.6l15.2-7.1"/>
		<path id="Stroke-30_3_" class="st2" d="M-9.1,77l38.6-18"/>
		<path id="Stroke-32_3_" class="st2" d="M18,74.8l10-4.3"/>
		<polygon id="Stroke-34_3_" class="st2" points="45.7,82.3 61,82.3 61,76.3 45.7,76.3 		"/>
		<path id="Stroke-36_3_" class="st2" d="M45.7,53.3h15.2"/>
		<path id="Stroke-37_3_" class="st2" d="M45.7,56.7h15.2"/>
		<path id="Stroke-38_3_" class="st2" d="M45.7,60.2h15.2"/>
		<path id="Stroke-39_3_" class="st2" d="M45.7,63.4h15.2"/>
		<polygon id="Stroke-40_3_" class="st2" points="55.6,70 61,70 61,67.4 55.6,67.4 		"/>
		<polygon id="Stroke-41_3_" class="st2" points="45.7,70 51.3,70 51.3,67.4 45.7,67.4 		"/>
		<path id="Stroke-42_5_" class="st2" d="M54.9,93.7h-84.4c-4,0-7.3-3.3-7.3-7.3V48.8c0-4,3.3-7.3,7.3-7.3H64c4,0,7.3,3.3,7.3,7.3
			v17.1c0,0,0,21,0,24c0,3-2,4-4,4C65.3,93.9,54.4,93.7,54.9,93.7z"/>
		<path id="Stroke-43_1_" class="st2" d="M119.4,92.7H86.3c-1.1,0-4.2-2.1-4.2-3.2c0-1.1,0.9-2,2-2h37.8c1.1,0,2,0.9,2,2
			C123.9,90.6,120.6,92.7,119.4,92.7z"/>
		<path id="Stroke-44_1_" class="st2" d="M119.4,87.5H86.3c-1.1,0-4.2-2.1-4.2-3.2c0-1.1,0.9-2,2-2h37.8c1.1,0,2,0.9,2,2
			C123.9,85.4,120.6,87.5,119.4,87.5z"/>
		<path id="Stroke-45_1_" class="st2" d="M119.4,82.4H86.3c-1.1,0-4.2-2.1-4.2-3.2c0-1.1,0.9-2,2-2h37.8c1.1,0,2,0.9,2,2
			S120.6,82.4,119.4,82.4z"/>
		<path id="Stroke-46_1_" class="st2" d="M119.4,77.2H86.3c-1.1,0-4.2-2.1-4.2-3.2c0-1.1,0.9-2,2-2h37.8c1.1,0,2,0.9,2,2
			C123.9,75.2,120.6,77.2,119.4,77.2z"/>
		<path id="Stroke-47_6_" class="st2" d="M115,72.1H91c-0.9,0-3.5-1.7-3.5-2.6s0.7-1.6,1.6-1.6h27.9c0.9,0,1.6,0.7,1.6,1.6
			C118.7,70.4,115.9,72.1,115,72.1z"/>
		<path id="Stroke-48_3_" class="st2" d="M115,67.9H91c-0.9,0-3.5-1.7-3.5-2.6s0.7-1.6,1.6-1.6h27.9c0.9,0,1.6,0.7,1.6,1.6
			C118.7,66.2,115.9,67.9,115,67.9z"/>
		<path id="Stroke-49_6_" class="st21" d="M158.1,85.6v-4.7c1.2,0.2,2.5,1.2,2.5,2.4C160.6,84.5,159.2,85.3,158.1,85.6z M158.1,78.7
			v-1.4h-17.7v10.4c0,2.7,2.2,4.9,4.9,4.9h7.9c2.7,0,4.9-2.2,4.9-4.9v0.3c2.6,0,4.6-2.1,4.6-4.6S160.6,78.7,158.1,78.7z"/>
		<path id="Stroke-50_3_" class="st13" d="M158,74.6v-4.7c1.2,0.2,2.5,1.2,2.5,2.4C160.5,73.5,159.2,74.5,158,74.6z M158,67.7v-1.4
			h-17.7v10.9L158,77c0,0,4.6-2.1,4.6-4.6S160.6,67.7,158,67.7z"/>
		<path id="Stroke-51_11_" class="st2" d="M189.2,92.4h-8.3c-3.5,0-5.7-2.2-5.7-5.7V72.3h19.7v14.4
			C194.9,90.2,192.8,92.4,189.2,92.4z"/>
		<path id="Stroke-52_10_" class="st2" d="M192.6,67.4c0.1-0.2,0.2-0.4,0.2-0.6c0-1.3-2.1-2.4-5-2.9c0.1-0.2,0.1-0.4,0.1-0.6
			c0-1.2-1.2-2.1-2.8-2.1c-1.5,0-2.8,1-2.8,2.1c0,0.2,0.1,0.4,0.1,0.6c-2.9,0.4-5,1.5-5,2.9c0,0.2,0.1,0.4,0.1,0.5
			c-2.1,1.2-3.3,3-3.3,5h21.3C195.7,70.4,194.6,68.7,192.6,67.4z"/>
		<polygon id="Stroke-53_8_" class="st2" points="177,85.8 192.9,85.8 192.9,77.8 177,77.8 		"/>
	</g>
	<path class="st4" d="M235.5,326h-14.5v-63.9h29.2c0-11.7-1.7-25.1-10.8-38.4c-5.8-8.5-6.2-15.4-5.8-23.6
		c0.4-8.4,13.9-26.3,14.7-35.6c0.8-9.3-8.4-9.3-16.5-12.1c-8.1-2.9-6.7-10.8-6.7-10.8h-4.1v-8.1h-6v8.1H211c0,0,1.4,7.9-6.7,10.8
		c-8.1,2.9-17.3,2.9-16.5,12.1c0.8,9.3,14.4,27.2,14.7,35.6c0.4,8.4,0.3,15.5-5.8,23.6c-8.6,11.6-10.8,26.8-10.8,38.4h29.2V326
		h-16.8c-1.7,0-3.1,1.4-3.1,3.1c0,1.7,1.4,3.1,3.1,3.1h37.3c1.7,0,3.1-1.3,3.1-3.1C238.7,327.5,237.2,326,235.5,326z"/>
	<path class="st3" d="M235.9,206.2c0,0-0.4-5.3,0.8-11.9c1-5.1,10.9-8.7,8.7-21c0,0-7.7-9.5-6.1-18.8l-6.1-1.7c0,0-1.5,11.8-4,12.6
		c-2.5,0.8-11.2,1.1-11.2,1.1s-8.7-0.3-11.2-1.1c-2.5-0.8-4-12.6-4-12.6l-6.1,1.7c1.6,9.5-6.1,18.8-6.1,18.8
		c-2.1,12.3,7.8,15.9,8.7,21c1.2,6.6,0.8,11.9,0.8,11.9c-26.4,21.7-27,63.5-27,63.5H218h44.9C263,269.7,262.2,227.9,235.9,206.2z"/>
	<path class="st22" d="M234.9,208.1c0,0-0.4-5.3,0.8-11.9c1-5.1,10.9-8.7,8.7-21c0,0-7.7-9.5-6.1-18.8l-6.1-1.7c0,0-1.5,11.8-4,12.6
		c-2.5,0.8-11.2,1.1-11.2,1.1s-8.7-0.3-11.2-1.1c-2.5-0.8-4-12.6-4-12.6l-6.1,1.7c1.6,9.5-6.1,18.8-6.1,18.8
		c-2.1,12.3,7.8,15.9,8.7,21c1.2,6.6,0.8,11.9,0.8,11.9c-26.4,21.7-27,63.5-27,63.5h44.9h44.9C262,271.6,261.3,229.7,234.9,208.1z"
		/>
	<g>
		<path id="Path_126_" class="st3" d="M981.2,113.9c-15.7,0-31.4,0-47.1,0c-2.6-23.3-5.3-46.7-8-70c18.5,0,37,0,55.5,0
			C981.4,67.2,981.4,90.7,981.2,113.9z"/>
		<path id="Shape_19_" class="st4" d="M982.6,41.1c-19.2,0.1-38.4,0.2-57.6,0.3c-0.5,0-0.7,0-1.2,0c0.1,0.6,0.2,1,0.2,1.6
			c3,23.9,6,47.8,8.9,71.8c0,0.3,0.1,0.5,0.1,0.8c0.2,0,0.3,0,0.5,0c16.4,0.2,32.9,0.2,49.2,0.2c0.4-24.2,0.8-48.5,1.2-72.8
			c0-0.8,0-1.2,0-2C983.4,41.1,983.1,41.1,982.6,41.1z M934.6,113.1c-2.4-22.5-4.7-45.1-7.1-67.6c17.6,0.1,35.3,0.2,52.8,0.3
			c0,22.3,0.2,44.8,0.3,67.1C965.2,112.9,949.9,113,934.6,113.1z"/>
		<path id="Path_125_" class="st9" d="M944.6,95.8c-1.2-11.3-2.4-22.5-3.7-33.7c9.4,0,18.7,0,28.1,0c0,11.3,0,22.5,0,33.7
			C960.7,95.8,952.7,95.8,944.6,95.8z"/>
	</g>
	<g>
		<path id="Path_124_" class="st4" d="M86.6,162c-15-0.4-29.9-0.8-44.9-1.2c-1.2-11.8-2.3-23.5-3.5-35.1c16.2,0,32.5,0,48.8,0
			C86.9,137.8,86.7,150,86.6,162z"/>
		<path id="Shape_18_" class="st3" d="M88.3,123.8c-17.1,0.1-34.2,0.1-51.5,0.2c-0.4,0-0.6,0-1.1,0c0,0.4,0.1,0.5,0.1,0.8
			c1.4,12.4,2.9,24.7,4.2,37.1c0,0.2,0,0.3,0.1,0.4c0.2,0,0.3,0,0.4,0c15.9,0.5,31.8,1,47.8,1.4c0.4-13,0.8-25.9,1.2-38.9
			c0-0.4,0-0.6,0-1.1C89.1,123.8,88.8,123.8,88.3,123.8z M42.2,160.5c-1-11.3-2-22.6-2.9-34c15.5,0.1,31,0.2,46.5,0.3
			c0,11.6,0.1,23.2,0.1,34.8C71.4,161,56.8,160.8,42.2,160.5z"/>
		<path id="Path_123_" class="st9" d="M52.5,152c-0.8-6.9-1.2-10.3-2-17.1c8.4,0.1,16.8,0.1,25.1,0.2c-0.2,7-0.3,10.4-0.4,17.4
			C66,152.3,61.5,152.2,52.5,152z"/>
	</g>
	<g id="Path_85_" transform="translate(1127.255446, 27.928934)">
		<path class="st23" d="M-10.4,181.7c0,0-0.3,21,0.1,27.6c0.4,6.5,10.2,25.7,17.7,48.3c7.4,22.6,28.2,76.7,30,75.1
			c1.9-1.5-1-15.8-1-15.8s4-0.1,3.4-0.4c-0.6-0.4-3.3-1.6-5.5-5.8c-0.6-1.1-6.2-15.3-6.5-26c-0.4-10.8-0.1-43-4.1-54.7
			C19.5,218,10,211.2,10,211.2s8.6-35.7,9.2-37.2C19.8,172.4-8.6,171.2-10.4,181.7z"/>
		<path class="st24" d="M4.3,170.4c0,0-25.3,23.9-29.6,23.9c0,0,25,5.8,36.6,22s20,24.1,29,26c0.7,0.2,1.2,0.2,1.8,0.2
			c1.6-0.1,2.8-1.1,4.5-2.7c3.6-3.1-0.4,2.8-0.4,2.8s10.8,4.5,12.9,6.9c1.5,1.8-9.4,2.8-22.1-0.4c-12.7-3.1-68-26.9-80-37.3
			c-11.9-10.3-10-14.9-3.5-26.2c9.2-16.1,16.6-34.7,26.4-33.3C-10.4,153.7,4.3,170.4,4.3,170.4z"/>
		<path class="st24" d="M-0.1,76.9c0,0,3.2-8.8-2.7-12.4c-5.9-3.6-45.9,1.2-47.5-0.8c-1.6-1.9-23.5-25.4-25.1-27.7
			c-1.6-2.3-2.1-12.6-0.6-15.8s-4.1,1.9-3.7,6.8s-2.7,5.1-5.7,4.8c-3.1-0.3,1.2,1,3.6,2.8c2.3,1.8,15,18.3,19.6,24.2
			c4.5,6,7.9,13.3,13.6,13.4C-42.8,72.1-2.6,79.8-0.1,76.9z"/>
		<path class="st13" d="M-14.7,73.6c0,0-1.2,25.1-3.1,36.1c-0.6,3.9-15.4,32.1-22.6,36.6c-7,4.5-12.4,13.3-12.4,13.3
			s14.5,13.3,27.4,16.3c12.8,3,17.2,11.5,28.7,7.9s17.8-7.4,21.8-7.4s15.7-1.3,18.5-3.7c2.9-2.4-17.5-26.8-21.4-38.3
			c-4-11.5-12.8-23.7-11.5-35.2s-0.9-30-7.9-28.6C-4.1,71.8-14.7,73.6-14.7,73.6z"/>
		<path class="st24" d="M-11.2,45.9c0,0,2.6,4.3,2.8,8.8c0.2,4.7,0.8,8-6.1,9.3c-6.9,1.2,7.1,11.7,11.9,9.5s2.9-31.6-2.6-31.6
			C-10.7,41.9-11.2,45.9-11.2,45.9z"/>
		<path class="st13" d="M-4.6,62c0,0-3.7,4.5-6.7,3.7c-3-0.7-1.3-2.7-1.3-2.7s-7.3,10.3-3.2,33.1c1.3,7.3,16.7-4,16.7-15.2
			S0.5,61.1-4.6,62z"/>
		<path class="st6" d="M5.4,65C0.1,66.8-5.8,80.7-16,93.2c-7.7,9.5-17.8,26.2-27.9,33.9c-3.8,2.9-7.3,5.7-8.3,7.2
			c-2.1,3.4-6.1,9-7.5,11.9c-0.8,1.6,3.5-1,9.1-6c5.7-5.1,5.7,1.5,6.7,0.9c1-0.6-1.4-4.6,0-7.5c1.1-2.1,18.8-13.7,28.9-25.1
			C-3.2,95,0.5,83.3,4.2,85.5"/>
		<path class="st24" d="M-15.6,16.4c0,0-8.1,20.5-3.1,27.3c4.9,6.7,13,1.8,15.2-4S-0.8,2.4-15.6,16.4z"/>
		<path class="st5" d="M6.7,109.6c1.4,16.6-14.9-5.5-11.1-8.8c3.8-3.3-0.3-34.7-0.3-43s-2.8-15.6-1.2-18c0.7-1.2,2-3.4,2.1-5.3
			c0.2-1.8-0.5-3.3-3.7-3.3c-6.3,0-15.5-16.8-15.5-16.8s5-1.7,10.4-4.5S2.8,7.6,3,14.9s23.5,2.8,20.2,23.5s4,28.4,7,35.8
			c3,7.3,4.5,26.8,0,29.9C25.7,107,6.1,102.1,6.7,109.6z"/>
		<path class="st21" d="M46.2,242.8c0,0,10.8,4.5,12.9,6.9c0.7,0.9-1.4,1.5-5.4,1.6c0-0.2,0-0.3,0.1-0.4c0.8-2.2-2.5-3.5-6.7-4.9
			s-4.5-1.7-5.1-3.4c1.6-0.1,2.8-1.1,4.5-2.7C50.1,236.9,46.2,242.8,46.2,242.8z"/>
		<path class="st21" d="M34.1,327.5c1.8,0.2,1.6-2.9,0.4-9c-1.1-5.1,0.5-5.6,0.9-5.9c2,2.7,3.9,3.7,4.4,3.9c0.6,0.4-3.4,0.4-3.4,0.4
			s2.8,14.2,1,15.8c-0.3,0.3-1-0.8-2.1-2.9L34.1,327.5z"/>
	</g>
	<path class="st6" d="M1417.6,43.7c0,0,0,4.5,0,7.1l12.5,0.4c0-2.6,0.2-5.2,0.5-7.8C1427.1,43.1,1421.2,43.7,1417.6,43.7
		L1417.6,43.7z"/>
	<g>
		<g>
			<path class="st25" d="M1245.1,278.2c0,0-50.3-68-34.5-82.5C1226.4,181.2,1249.4,232.3,1245.1,278.2z"/>
			<g>
				<g>
					<path class="st26" d="M1215.3,203.7c17.5,26.7,27.6,57.6,31.5,89.2c0.8,6.3,1.2,12.7,1.8,19.1c0,0.4,0.6,0.4,0.6,0
						c0-12.2-1.8-24.6-4.1-36.5c-3-15.5-7.6-30.8-14.1-45.2c-4.2-9.4-9.2-18.4-15.1-26.9C1215.6,203,1215,203.3,1215.3,203.7
						L1215.3,203.7z"/>
				</g>
			</g>
			<g>
				<g>
					<path class="st26" d="M1242.2,245c-0.2,3-0.3,6.1-0.4,9.1c-0.1,2.7-0.4,5.4-0.2,8.1c0,0.3,0.5,0.4,0.5,0.1
						c1.1-5.4,1.1-11.7,0.7-17.3C1242.8,244.7,1242.2,244.7,1242.2,245L1242.2,245z"/>
				</g>
			</g>
			<g>
				<g>
					<path class="st26" d="M1234.4,221.8c-0.2,3-0.3,6.1-0.4,9.1c-0.1,2.7-0.4,5.4-0.2,8.1c0,0.3,0.5,0.4,0.5,0.1
						c1.1-5.4,1.1-11.7,0.7-17.3C1234.9,221.4,1234.4,221.4,1234.4,221.8L1234.4,221.8z"/>
				</g>
			</g>
			<g>
				<g>
					<path class="st26" d="M1222.9,200.8c0.3,5.2,0.1,10.5,0.4,15.7c0,0.3,0.5,0.4,0.5,0.1c1-5,0.7-10.9-0.3-15.8
						C1223.4,200.4,1222.8,200.4,1222.9,200.8L1222.9,200.8z"/>
				</g>
			</g>
			<g>
				<g>
					<path class="st26" d="M1214,213c4.3,3,8.3,6.4,12.6,9.4c0.3,0.2,0.5-0.2,0.3-0.4c-3.3-3.8-8.1-7.3-12.6-9.5
						C1213.9,212.3,1213.7,212.8,1214,213L1214,213z"/>
				</g>
			</g>
			<g>
				<g>
					<path class="st26" d="M1215.5,217.1c4.3,3,8.3,6.4,12.6,9.4c0.3,0.2,0.5-0.2,0.3-0.4c-3.3-3.8-8.1-7.3-12.6-9.5
						C1215.5,216.4,1215.2,216.9,1215.5,217.1L1215.5,217.1z"/>
				</g>
			</g>
			<g>
				<g>
					<path class="st26" d="M1224.2,237.6c4.3,3,8.3,6.4,12.6,9.4c0.3,0.2,0.5-0.2,0.3-0.4c-3.3-3.8-8.1-7.3-12.6-9.5
						C1224.1,236.9,1223.9,237.4,1224.2,237.6L1224.2,237.6z"/>
				</g>
			</g>
		</g>
		<g>
			<path class="st25" d="M1258,264.1c0,0,48.5-69.3,32.3-83.4C1274.2,166.6,1252.5,218.3,1258,264.1z"/>
			<g>
				<g>
					<path class="st26" d="M1285.2,188.5c-17.5,26.7-26.5,58.3-29.5,89.9c-0.6,6.5-1.1,13-0.9,19.6c0,0.4,0.6,0.4,0.6,0
						c0.8-12.3,1.6-24.5,3.6-36.6c2.7-15.5,6.9-30.8,12.9-45.4c3.9-9.4,8.6-18.4,13.9-27.1C1286.1,188.5,1285.5,188.1,1285.2,188.5
						L1285.2,188.5z"/>
				</g>
			</g>
			<g>
				<g>
					<path class="st26" d="M1259.4,230.9c-0.2,5.5-0.1,11.8,1.1,17.3c0.1,0.3,0.5,0.2,0.5-0.1c0.1-2.7-0.3-5.4-0.4-8.1
						c-0.2-3-0.3-6.1-0.6-9.1C1260,230.5,1259.4,230.5,1259.4,230.9L1259.4,230.9z"/>
				</g>
			</g>
			<g>
				<g>
					<path class="st26" d="M1266.6,207.4c-0.2,5.5-0.1,11.8,1.1,17.3c0.1,0.3,0.5,0.2,0.5-0.1c0.1-2.7-0.3-5.4-0.4-8.1
						c-0.2-3-0.3-6.1-0.6-9.1C1267.2,207,1266.7,207,1266.6,207.4L1266.6,207.4z"/>
				</g>
			</g>
			<g>
				<g>
					<path class="st26" d="M1277.6,186c-0.9,5-1,10.9,0.1,15.8c0.1,0.3,0.5,0.2,0.5-0.1c0.2-5.2-0.1-10.5,0-15.7
						C1278.2,185.8,1277.6,185.7,1277.6,186L1277.6,186z"/>
				</g>
			</g>
			<g>
				<g>
					<path class="st26" d="M1287.1,197.6c-4.4,2.3-9.2,5.9-12.4,9.8c-0.2,0.2,0.1,0.6,0.3,0.4c4.2-3,8.2-6.6,12.3-9.7
						C1287.7,197.9,1287.4,197.4,1287.1,197.6L1287.1,197.6z"/>
				</g>
			</g>
			<g>
				<g>
					<path class="st26" d="M1285.6,201.7c-4.4,2.3-9.2,5.9-12.4,9.8c-0.2,0.2,0.1,0.6,0.3,0.4c4.2-3,8.2-6.6,12.3-9.7
						C1286.2,202,1286,201.5,1285.6,201.7L1285.6,201.7z"/>
				</g>
			</g>
			<g>
				<g>
					<path class="st26" d="M1277.5,222.5c-4.4,2.3-9.2,5.9-12.4,9.8c-0.2,0.2,0.1,0.6,0.3,0.4c4.2-3,8.2-6.6,12.3-9.7
						C1278.1,222.8,1277.9,222.3,1277.5,222.5L1277.5,222.5z"/>
				</g>
			</g>
		</g>
		<g>
			<path class="st27" d="M1253.1,245.8c0,0-48.8-69-32.7-83.2C1236.5,148.4,1258.4,200.1,1253.1,245.8z"/>
			<g>
				<g>
					<path class="st26" d="M1224.9,170.8c17,27.2,26.4,58.3,29.6,90.1c0.6,6.3,0.9,12.6,1.4,18.9c0,0.4,0.6,0.4,0.6,0
						c0.3-12.3-1.3-24.8-3.4-36.9c-2.7-15.6-7-30.9-13.2-45.4c-4-9.4-8.8-18.4-14.4-27C1225.3,170,1224.7,170.4,1224.9,170.8
						L1224.9,170.8z"/>
				</g>
			</g>
			<g>
				<g>
					<path class="st26" d="M1250.9,212.7c-0.3,3-0.4,6.1-0.6,9.1c-0.2,2.7-0.5,5.4-0.4,8.1c0,0.3,0.4,0.4,0.5,0.1
						c1.2-5.4,1.3-11.7,1.1-17.3C1251.5,212.3,1251,212.3,1250.9,212.7L1250.9,212.7z"/>
				</g>
			</g>
			<g>
				<g>
					<path class="st26" d="M1243.6,189.2c-0.3,3-0.4,6.1-0.6,9.1c-0.2,2.7-0.5,5.4-0.4,8.1c0,0.3,0.4,0.4,0.5,0.1
						c1.2-5.4,1.3-11.7,1.1-17.3C1244.2,188.8,1243.6,188.8,1243.6,189.2L1243.6,189.2z"/>
				</g>
			</g>
			<g>
				<g>
					<path class="st26" d="M1232.6,168c0.2,5.2-0.2,10.5,0.1,15.7c0,0.3,0.4,0.4,0.5,0.1c1.1-5,1-10.9,0-15.8
						C1233.1,167.6,1232.6,167.6,1232.6,168L1232.6,168z"/>
				</g>
			</g>
			<g>
				<g>
					<path class="st26" d="M1223.4,180c4.2,3.1,8.1,6.6,12.4,9.6c0.3,0.2,0.5-0.2,0.3-0.4c-3.2-3.9-8-7.4-12.4-9.7
						C1223.4,179.3,1223.1,179.8,1223.4,180L1223.4,180z"/>
				</g>
			</g>
			<g>
				<g>
					<path class="st26" d="M1224.9,184.1c4.2,3.1,8.1,6.6,12.4,9.6c0.3,0.2,0.5-0.2,0.3-0.4c-3.2-3.9-8-7.4-12.4-9.7
						C1224.9,183.4,1224.6,183.9,1224.9,184.1L1224.9,184.1z"/>
				</g>
			</g>
			<g>
				<g>
					<path class="st26" d="M1233.1,204.8c4.2,3.1,8.1,6.6,12.4,9.6c0.3,0.2,0.5-0.2,0.3-0.4c-3.2-3.9-8-7.4-12.4-9.7
						C1233,204.1,1232.8,204.6,1233.1,204.8L1233.1,204.8z"/>
				</g>
			</g>
		</g>
		<g>
			<path class="st28" d="M1248.6,266c0,0,30-41.3,20.4-50C1259.4,207.3,1245.7,238.3,1248.6,266z"/>
			<g>
				<g>
					<path class="st26" d="M1265.7,220.6c-7.5,10.9-12.6,23.3-15.7,36c-2.3,9.5-4.2,19.9-3.9,29.8c0,0.4,0.6,0.4,0.6,0
						c1.2-9.9,1.9-19.7,4.3-29.5c3.2-12.8,8.3-24.9,15.3-36C1266.6,220.5,1266,220.2,1265.7,220.6L1265.7,220.6z"/>
				</g>
			</g>
			<g>
				<g>
					<path class="st26" d="M1249.8,246c-0.2,3.4-0.1,7.1,0.5,10.4c0,0.2,0.3,0.1,0.3,0c0.1-3.4-0.2-7-0.4-10.4
						C1250.1,245.7,1249.8,245.7,1249.8,246L1249.8,246z"/>
				</g>
			</g>
			<g>
				<g>
					<path class="st26" d="M1254.4,231.8c-0.2,3.4-0.1,7.1,0.5,10.4c0,0.2,0.3,0.1,0.3,0c0.1-3.4-0.2-7-0.4-10.4
						C1254.8,231.6,1254.4,231.6,1254.4,231.8L1254.4,231.8z"/>
				</g>
			</g>
			<g>
				<g>
					<path class="st26" d="M1261.2,219.1c-0.6,3-0.7,6.5-0.1,9.6c0,0.2,0.3,0.1,0.3,0c0.2-3.1,0-6.3,0.2-9.5
						C1261.6,218.9,1261.3,218.9,1261.2,219.1L1261.2,219.1z"/>
				</g>
			</g>
			<g>
				<g>
					<path class="st26" d="M1266.8,226.2c-2.7,1.3-5.6,3.5-7.6,5.8c-0.1,0.1,0,0.4,0.2,0.2c2.6-1.8,5-3.9,7.6-5.7
						C1267.2,226.3,1267.1,226.1,1266.8,226.2L1266.8,226.2z"/>
				</g>
			</g>
			<g>
				<g>
					<path class="st26" d="M1265.9,228.6c-2.7,1.3-5.6,3.5-7.6,5.8c-0.1,0.1,0,0.4,0.2,0.2c2.6-1.8,5-3.9,7.6-5.7
						C1266.3,228.8,1266.1,228.5,1265.9,228.6L1265.9,228.6z"/>
				</g>
			</g>
			<g>
				<g>
					<path class="st26" d="M1260.8,241.1c-2.7,1.3-5.6,3.5-7.6,5.8c-0.1,0.1,0,0.4,0.2,0.2c2.6-1.8,5-3.9,7.6-5.7
						C1261.2,241.2,1261,241,1260.8,241.1L1260.8,241.1z"/>
				</g>
			</g>
		</g>
		<g>
			<path class="st29" d="M1272.9,329.2c0,1.9-9.7,3.4-21.6,3.4s-21.6-1.5-21.6-3.4c0-1.9,9.7-3.4,21.6-3.4
				S1272.9,327.3,1272.9,329.2z"/>
			<polygon class="st12" points="1268.7,296 1268.5,297.4 1268.1,300.5 1263.7,329.6 1237.8,329.6 1233.4,300.5 1233,297.4 
				1232.8,296 			"/>
			<path class="st30" d="M1269.3,298.7h-37c-1.2,0-2.1-1-2.1-2.1l0,0c0-1.2,1-2.1,2.1-2.1h37c1.2,0,2.1,1,2.1,2.1l0,0
				C1271.4,297.8,1270.4,298.7,1269.3,298.7z"/>
		</g>
	</g>
	<g>
		<path class="st29" d="M125.1,304.8c0,1.9-9.7,3.4-21.6,3.4c-11.9,0-21.6-1.5-21.6-3.4c0-1.9,9.7-3.4,21.6-3.4
			C115.4,301.4,125.1,303,125.1,304.8z"/>
		<path class="st12" d="M103.4,236.1c-7.4,0-13.9,1.6-16.4,2.3c-0.6,0.2-1.1,0.9-1,1.7c0.1,3.3,0.4,38.7,1.7,47.6
			c1.6,10.8,6.1,18,11.2,18h4.5h0h4.5c5.1,0,9.6-7.2,11.2-18c1.3-8.9,1.7-44.3,1.7-47.6c0-0.8-0.4-1.5-1-1.7
			C117.3,237.7,110.6,236.1,103.4,236.1z"/>
		<g>
			<g>
				<path class="st26" d="M102.5,189.6c-1.1,4.5-3.6,8.4-5.2,12.7c-1.7,4.8-2.3,9.9-1.6,15c1.4,9.7,7.4,18.4,7.6,28.2
					c3-7,5.7-15.5,6.1-23.1C110.2,211.2,109.4,208.2,102.5,189.6"/>
			</g>
			<g>
				<path class="st31" d="M102.8,190.7c-1.4,8.5-4.1,16.7-2.8,25.4c0.7,4.5,1.8,8.9,2.5,13.4c0.8,4.8,1.1,9.5,1,14.3
					c0,0.2,0.4,0.3,0.4,0c0.7-9-1.7-17.7-3.3-26.5c-1.6-9.2,1.1-17.6,2.3-26.6C103,190.6,102.8,190.6,102.8,190.7L102.8,190.7z"/>
			</g>
			<g>
				<path class="st31" d="M102.4,189.8c1.1,4.2,0.7,8.4,0.7,12.8c0,4.6,0.7,9.1,1.3,13.7c1.2,9.4,0.7,18.7-0.7,28
					c0,0.3,0.4,0.3,0.4,0.1c1.5-9.4,2-18.6,0.8-28.1c-0.6-4.7-1.3-9.4-1.3-14.1c0-4.2,0.4-8.3-0.9-12.4
					C102.5,189.6,102.3,189.6,102.4,189.8L102.4,189.8z"/>
			</g>
			<g>
				<path class="st31" d="M103.2,192c1.8,8.5,3.8,17,4.1,25.8c0.3,9-1.5,17.7-3.7,26.3c-0.1,0.3,0.4,0.4,0.5,0.1
					c2.4-8.3,4-17,3.8-25.7c-0.3-9-2.3-17.8-4.4-26.6C103.3,191.8,103.2,191.9,103.2,192L103.2,192z"/>
			</g>
			<g>
				<path class="st31" d="M102.4,189.8c-2.8,9.2-6.1,17.8-4.8,27.6c1.2,9.3,5.7,17.8,5.8,27.3c0,0.2,0.4,0.2,0.4,0
					c0.5-8.9-3.9-17.1-5.4-25.6c-0.9-5.2-0.9-10.2,0.3-15.4c1.1-4.7,2.7-9.2,3.9-13.8C102.5,189.8,102.4,189.7,102.4,189.8
					L102.4,189.8z"/>
			</g>
		</g>
		<g>
			<g>
				<path class="st32" d="M135.5,204.1c-3.4,6.3-10.7,9.3-16.4,13.7c-5.2,4-9.3,9.4-11.8,15.5c-1.4,3.6-2.3,7.3-4,10.8
					c5-5.2,12.6-6.9,18.4-11.3C129.1,227.2,137.3,211.1,135.5,204.1"/>
			</g>
			<g>
				<path class="st31" d="M135.5,204.2c0.2,4.2-3.5,7.7-5.9,10.8c-2.9,3.8-5.8,7.5-9.4,10.7c-6.2,5.5-12.4,11.2-16.9,18.2
					c-0.1,0.2,0.2,0.5,0.3,0.2c5.2-8.2,12.8-13.8,19.6-20.5c3.5-3.4,6.2-7.6,9.1-11.5c1.7-2.3,3.9-5,3.4-8.1
					C135.6,204.2,135.5,204.2,135.5,204.2L135.5,204.2z"/>
			</g>
			<g>
				<path class="st31" d="M135.5,204.4c-0.2,4.4-1.5,8.5-3.6,12.3c-2.2,4.1-5,8.5-8.2,11.8c-3,3.2-7.5,5-11.1,7.6
					c-3.4,2.3-6.5,5-9.3,7.9c-0.2,0.3,0.2,0.6,0.4,0.3c3.4-3.5,7.3-6.5,11.4-9.2c3.8-2.5,7.6-4.3,10.5-7.9
					c5-6.4,10.7-14.3,10.2-22.8C135.6,204.3,135.5,204.3,135.5,204.4L135.5,204.4z"/>
			</g>
			<g>
				<path class="st31" d="M135.4,204.2c-0.5,3.6-4.2,7-6.5,9.6c-3.1,3.3-6.4,6.4-9.6,9.6c-6,5.9-13.1,11.4-15.6,19.8
					c-0.1,0.2,0.2,0.3,0.3,0.1c1.1-2,2-4.1,3.1-6c1.5-2.7,3.3-4.7,5.6-6.7c3.3-2.8,6.2-6.1,9.3-9.1c3.4-3.3,6.8-6.6,9.9-10.2
					c1.5-1.8,3.9-4.5,3.8-7.1C135.6,204.1,135.5,204.1,135.4,204.2L135.4,204.2z"/>
			</g>
			<g>
				<path class="st31" d="M135.4,204.2c-1.6,4.5-6,7.8-9.5,10.8c-3.7,3.1-7.6,6.1-11.2,9.4c-2.9,2.6-4.9,5.9-6.9,9.2
					c-1.9,3.2-3.8,7-4.5,10.6c0,0.2,0.2,0.3,0.3,0.1c1.8-3.7,2.9-7.5,5-11c1-1.6,1.9-3.3,3-4.8c1.7-2.3,3.8-4.1,6-6
					c3.5-3.1,7.2-5.8,10.7-8.9c2.9-2.6,6.1-5.5,7.4-9.2C135.8,204.1,135.5,204,135.4,204.2L135.4,204.2z"/>
			</g>
		</g>
		<g>
			<g>
				<path class="st32" d="M103.8,243.9c-6.1-8.4-18.4-20.5-28.8-21.5c-3-0.3-6-0.2-9-0.1c-2,0.1-6.2,1.7-8,2.4
					c4,1.3,7.1,4.6,10.9,6.4c5.9,2.9,12.9,2,19.2,3.7C94,236.5,99,240.3,103.8,243.9"/>
			</g>
			<g>
				<path class="st31" d="M58.1,224.8c4.5-1,8.9-1.4,13.5-0.7c3.7,0.6,7.5,1.9,11,3.2c8.3,3.1,14.8,9.9,20.5,16.4
					c0.2,0.2,0.5-0.1,0.3-0.3c-6.1-6.7-12.8-13.6-21.6-16.7c-7.8-2.7-15.8-4.7-23.9-2.1C57.9,224.6,57.9,224.8,58.1,224.8
					L58.1,224.8z"/>
			</g>
			<g>
				<path class="st31" d="M58,224.8c8.6,1,17.7,1.1,25.8,4.7c7.7,3.4,14,8.8,19.9,14.8c0.2,0.2,0.5-0.1,0.3-0.3
					c-5.9-5.9-12.3-11.3-20-14.7c-8-3.6-17.3-3.9-25.9-4.6C57.9,224.5,57.9,224.7,58,224.8L58,224.8z"/>
			</g>
			<g>
				<path class="st31" d="M58,224.8c3.1,1.7,6.5,3.3,9.9,4.4c3.8,1.3,7.9,1.7,11.8,2.6c8.9,2,16.1,6.2,23.3,11.7
					c0.2,0.2,0.6-0.2,0.3-0.3c-6.6-4.9-13-9-21.1-11.2c-3.9-1-8-1.5-12-2.5c-4.3-1.1-8.2-3.1-12.2-4.9
					C57.9,224.5,57.8,224.7,58,224.8L58,224.8z"/>
			</g>
			<g>
				<path class="st31" d="M58,224.7c3.5,1.7,7.3,2,11.1,2.5c4.4,0.6,8.8,1.8,13,3.4c8,3.1,15.3,7.8,21.6,13.6
					c0.2,0.2,0.6-0.2,0.4-0.4c-6.1-5.7-13.2-10.3-21-13.4c-3.7-1.5-7.5-2.6-11.4-3.3c-4.5-0.8-9.3-0.8-13.5-2.7
					C58,224.5,57.9,224.7,58,224.7L58,224.7z"/>
			</g>
		</g>
		<g>
			<g>
				<path class="st33" d="M72.3,191.9c3.5,2.9,4.1,7.8,5.3,12.1c1.5,5.3,4.3,10.2,7.1,15c1.6,2.8,3.3,5.6,5.2,8.1
					c2.1,2.7,4.6,5.2,6.8,7.9c2.4,2.9,4.4,6.1,6.5,9.3c1.4-11.7,1.4-21.6-9.2-32.9c-2.3-2.5-4.4-5.2-6.8-7.6
					c-1.6-1.6-2.9-3.6-4.6-5.1C79.4,195.7,77.1,193.6,72.3,191.9"/>
			</g>
			<g>
				<path class="st31" d="M73,192.4c4.3,2.7,6.6,8.3,8.8,12.7c2.2,4.4,4.1,8.9,6.7,13.2c4.9,8.1,10.8,15.6,14,24.6
					c0.1,0.3,0.5,0.1,0.4-0.2c-3.3-9.5-9.8-17.4-14.8-26c-2.6-4.4-4.6-9-6.9-13.5c-2-3.8-4.3-8.6-8.1-10.8
					C73,192.2,72.9,192.4,73,192.4L73,192.4z"/>
			</g>
			<g>
				<path class="st31" d="M74.6,193.6c7.8,6.1,10.6,15.8,15.9,23.8c2.7,4,5.9,7.6,8,11.9c2.3,4.5,3.6,9.2,4.1,14.2
					c0,0.3,0.5,0.2,0.5-0.1c-0.4-4.7-1.7-9.4-3.7-13.6c-2.1-4.4-5.3-8.1-8-12.1c-5.6-8.1-8.4-18.2-16.7-24.2
					C74.6,193.4,74.5,193.6,74.6,193.6L74.6,193.6z"/>
			</g>
			<g>
				<path class="st31" d="M73,192.5c3.6,1.9,6.8,4.9,9.7,7.6c3.6,3.3,6.4,7.5,9.2,11.5c3.2,4.6,6.2,9.4,8.2,14.7
					c2.1,5.6,2.1,11.4,2.5,17.3c0,0.4,0.7,0.3,0.6-0.1c-0.4-5.9-0.5-11.8-2.6-17.4c-2-5.3-5-10.2-8.3-14.7
					c-5.2-7.2-11.1-14.9-19.2-19C72.9,192.2,72.9,192.4,73,192.5L73,192.5z"/>
			</g>
			<g>
				<path class="st31" d="M73,192.4c3.4,3.3,5.2,8.5,6.7,12.9c1.2,3.6,2.3,7.2,4,10.7c2.4,4.8,5.4,9.3,8.6,13.6
					c3.5,4.6,7.9,8.5,10.1,13.9c0.1,0.3,0.6,0.1,0.5-0.2c-1.9-5-6-8.7-9.2-12.9c-3.8-4.8-7.3-10-10-15.6c-1.6-3.4-2.6-7.1-3.9-10.6
					c-1.5-4.1-3.3-8.9-6.7-11.8C73,192.2,72.9,192.4,73,192.4L73,192.4z"/>
			</g>
		</g>
		<path class="st12" d="M87.8,247.6v-7.7c0,0,14.9,4.8,31.3-0.4v8.1"/>
		<g>
			<g>
				<path class="st34" d="M87.3,239.9c5.2,2.1,11.3,2.2,16.9,2.1c4.9-0.1,11-0.2,15.5-2.5c0.2-0.1,0-0.3-0.1-0.3
					c-5,1.7-10.4,2.2-15.7,2.3c-5.4,0.1-11.3-0.1-16.4-1.9C87.2,239.5,87.1,239.8,87.3,239.9L87.3,239.9z"/>
			</g>
		</g>
		<g>
			<g>
				<path class="st34" d="M95.3,303.5c2.8,1.1,6,1.3,9,1.2c2.6-0.1,5.6-0.2,7.9-1.4c0.2-0.1,0-0.3-0.1-0.3
					c-5.2,1.5-11.5,1.8-16.7,0.2C95.1,303,95.1,303.4,95.3,303.5L95.3,303.5z"/>
			</g>
		</g>
	</g>
	<g>
		<g>
			<path class="st22" d="M899.4,94.1l-21.7-70.7c-0.1-0.2-0.4-0.2-0.5,0l-21.7,70.7"/>
			<line class="st22" x1="877.5" y1="94.1" x2="877.5" y2="7.9"/>
			<g>
				<g>
					<g>
						<path class="st26" d="M874.5,96.6c-2.6-4.5-6.8-8.3-12.1-8.9c-5.7-0.7-10.4,2.6-13.9,6.8c-4,4.8-9.5,10.5-16.2,10.8
							c-6.6,0.3-13.5-3.3-19.9-0.4c-5,2.2-7.8,7.9-7.8,13.2c0,0.3,0.5,0.3,0.5,0c0.6-5.3,3.1-10.9,8.5-12.7
							c6.1-2.1,12.5,1.1,18.7,0.9c5.6-0.2,10.3-4.1,14-7.9c3.4-3.5,5.9-7.6,10.8-9.3c6.8-2.3,13.4,2.1,16.8,7.8
							C874.2,97.2,874.7,96.9,874.5,96.6L874.5,96.6z"/>
					</g>
				</g>
				<g>
					<g>
						<path class="st26" d="M884,96.8c1.7-4.9,6.2-9,11.4-9.9c6.7-1.2,11.5,3.8,13.3,9.9c1.5,4.7,1.3,9.8,2.9,14.5
							c1.8,5.2,5.5,9.4,11.1,10.7c0.3,0.1,0.5-0.4,0.1-0.5c-5.7-2.2-9.2-6-10.8-11.9c-1.1-4-1.1-8.3-2.2-12.3
							c-1.2-4.3-3.7-8.6-7.9-10.5c-3.3-1.4-7.1-1-10.3,0.5c-3.9,1.9-7,5.3-8.3,9.4C883.3,97,883.9,97.2,884,96.8L884,96.8z"/>
					</g>
				</g>
				<g>
					<g>
						<path class="st26" d="M879.8,95.9c0.6-3.2,1.6-6.4,3.9-8.8c1.8-1.8,4-3,6.2-4.3c5.3-3.2,9.1-7.9,10.5-14
							c0.1-0.3-0.4-0.5-0.5-0.2c-1.5,3.6-3,7.1-5.9,9.9c-2,2-4.5,3.3-6.9,4.7c-4.8,2.9-7.3,6.8-8,12.5
							C879.2,96.2,879.8,96.3,879.8,95.9L879.8,95.9z"/>
					</g>
				</g>
				<g>
					<g>
						<path class="st26" d="M876.8,95.9c-0.2-7.3-5.2-12.7-12.3-14.2c-6.4-1.3-14.6,0.5-18.6,6.1c-0.2,0.3,0.2,0.5,0.4,0.3
							c4.9-4.6,11-6.9,17.7-5.6c6.8,1.3,11.6,6.3,12.2,13.3C876.2,96.2,876.8,96.3,876.8,95.9L876.8,95.9z"/>
					</g>
				</g>
				<g>
					<path class="st32" d="M846.2,96.5c0,0-6,2.6-7.1-0.6C838.3,93.5,843.3,92.5,846.2,96.5z"/>
					<g>
						<path class="st26" d="M841.2,95.6c1.1,0.5,2.3,0.7,3.5,0.7c0.6,0,1.2-0.1,1.7-0.3c0.5-0.2,1-0.5,1.5-0.8l0.5,0.8
							c-0.6,0.3-1.2,0.6-1.8,0.7c-0.6,0.1-1.3,0.1-1.9,0.1C843.5,96.7,842.3,96.2,841.2,95.6z"/>
					</g>
				</g>
				<g>
					<path class="st35" d="M861.3,87.6c0,0-4.5-1.6-3.5-3.8C858.5,82.1,861.7,84.1,861.3,87.6z"/>
					<g>
						<path class="st26" d="M859.1,84.7c0.4,0.8,0.9,1.5,1.6,2.1c0.3,0.3,0.7,0.5,1.1,0.7c0.4,0.2,0.8,0.3,1.2,0.3l-0.1,0.7
							c-0.5-0.1-0.9-0.3-1.3-0.5c-0.4-0.3-0.8-0.5-1.1-0.9C859.8,86.4,859.3,85.6,859.1,84.7z"/>
					</g>
				</g>
				<g>
					<path class="st32" d="M886.7,92.7c0,0,4.2-2.2,5.2,0.1C892.6,94.4,889,95.4,886.7,92.7z"/>
					<g>
						<path class="st26" d="M890.3,93.1c-0.8-0.3-1.7-0.4-2.6-0.3c-0.4,0-0.8,0.2-1.2,0.3c-0.4,0.1-0.7,0.4-1,0.6l-0.4-0.6
							c0.4-0.2,0.8-0.5,1.3-0.6c0.5-0.1,0.9-0.2,1.4-0.1C888.7,92.4,889.6,92.7,890.3,93.1z"/>
					</g>
				</g>
				<g>
					<path class="st32" d="M894.8,87c0,0,5.5-0.4,5.5,2.5C900.3,91.6,896,91,894.8,87z"/>
					<g>
						<path class="st26" d="M898.5,89.1c-0.8-0.7-1.7-1.2-2.6-1.5c-0.5-0.2-1-0.2-1.4-0.2c-0.5,0-1,0.1-1.4,0.2l-0.2-0.8
							c0.6-0.1,1.1-0.1,1.7,0c0.5,0.1,1.1,0.2,1.5,0.5C897,87.7,897.9,88.3,898.5,89.1z"/>
					</g>
				</g>
				<g>
					<path class="st35" d="M890.9,87.5c0,0,3.7-4.1,1.4-5.9C890.6,80.3,888.5,84.1,890.9,87.5z"/>
					<g>
						<path class="st26" d="M891.6,83.3c0.2,1,0.2,2.1,0,3.1c-0.1,0.5-0.3,1-0.6,1.5c-0.3,0.5-0.6,0.9-1,1.3l-0.5-0.7
							c0.4-0.3,0.7-0.6,1-1c0.3-0.4,0.5-0.8,0.7-1.3C891.5,85.3,891.6,84.3,891.6,83.3z"/>
					</g>
				</g>
				<g>
					<path class="st32" d="M883.3,86.6c0,0,1.8-3.7-0.2-4.5C881.6,81.6,880.8,84.7,883.3,86.6z"/>
					<g>
						<path class="st26" d="M882.9,83.5c0.4,0.7,0.6,1.4,0.6,2.2c0,0.4,0,0.8-0.1,1.2c-0.1,0.4-0.3,0.8-0.5,1.1l-0.5-0.4
							c0.2-0.3,0.4-0.6,0.5-0.9c0.1-0.3,0.2-0.7,0.2-1.1C883.2,85,883.1,84.2,882.9,83.5z"/>
					</g>
				</g>
				<g>
					<path class="st32" d="M876.8,87.9c0,0,1.8-3.7-0.2-4.5C875.2,82.9,874.4,86,876.8,87.9z"/>
					<g>
						<path class="st26" d="M876.4,84.8c0.4,0.7,0.6,1.4,0.6,2.2c0,0.4,0,0.8-0.1,1.2c-0.1,0.4-0.3,0.8-0.5,1.1L876,89
							c0.2-0.3,0.4-0.6,0.5-0.9c0.1-0.3,0.2-0.7,0.2-1.1C876.8,86.3,876.7,85.5,876.4,84.8z"/>
					</g>
				</g>
				<g>
					<path class="st32" d="M889.2,81.9c0,0,1.8-3.7-0.2-4.5C887.6,76.8,886.8,79.9,889.2,81.9z"/>
					<g>
						<path class="st26" d="M888.8,78.7c0.4,0.7,0.6,1.4,0.6,2.2c0,0.4,0,0.8-0.1,1.2c-0.1,0.4-0.3,0.8-0.5,1.1l-0.5-0.4
							c0.2-0.3,0.4-0.6,0.5-0.9c0.1-0.3,0.2-0.7,0.2-1.1C889.2,80.2,889.1,79.4,888.8,78.7z"/>
					</g>
				</g>
				<g>
					<path class="st32" d="M896.4,76.1c0,0,1.8-3.7-0.2-4.5C894.8,71.1,894,74.2,896.4,76.1z"/>
					<g>
						<path class="st26" d="M896,73c0.4,0.7,0.6,1.4,0.6,2.2c0,0.4,0,0.8-0.1,1.2c-0.1,0.4-0.3,0.8-0.5,1.1l-0.5-0.4
							c0.2-0.3,0.4-0.6,0.5-0.9c0.1-0.3,0.2-0.7,0.2-1.1C896.4,74.5,896.3,73.7,896,73z"/>
					</g>
				</g>
				<g>
					<path class="st32" d="M899.8,69.4c0,0,0.7-4.1-1.4-4.2C896.8,65,896.9,68.3,899.8,69.4z"/>
					<g>
						<path class="st26" d="M898.5,66.5c0.5,0.6,1,1.2,1.2,2c0.1,0.4,0.2,0.8,0.2,1.2c0,0.4,0,0.8-0.1,1.2l-0.6-0.2
							c0.1-0.3,0.2-0.7,0.3-1c0-0.4,0-0.7-0.1-1.1C899.3,67.9,899,67.1,898.5,66.5z"/>
					</g>
				</g>
				<g>
					<path class="st32" d="M881.1,91.2c0,0,2.2-3.5,3.9-2.2C886.3,89.9,884,92.2,881.1,91.2z"/>
					<g>
						<path class="st26" d="M884,89.9c-0.8,0.2-1.5,0.5-2.1,0.9c-0.3,0.2-0.6,0.5-0.8,0.8c-0.2,0.3-0.4,0.6-0.5,0.9l-0.6-0.2
							c0.2-0.4,0.4-0.7,0.7-1c0.3-0.3,0.6-0.5,1-0.7C882.4,90.1,883.2,89.9,884,89.9z"/>
					</g>
				</g>
				<g>
					<path class="st33" d="M874.5,91.8c0,0-1.4,3.9,0.7,4.4C876.8,96.7,877.2,93.4,874.5,91.8z"/>
					<g>
						<path class="st26" d="M875.3,94.9c-0.4-0.6-0.7-1.4-0.9-2.1c-0.1-0.4-0.1-0.8,0-1.2c0-0.4,0.2-0.8,0.3-1.2l0.6,0.3
							c-0.2,0.3-0.3,0.6-0.4,1c-0.1,0.3-0.1,0.7-0.1,1.1C874.8,93.5,875,94.2,875.3,94.9z"/>
					</g>
				</g>
				<g>
					<path class="st33" d="M872.2,98c0,0,0,4.1,2.1,4C875.9,101.8,875.2,98.6,872.2,98z"/>
					<g>
						<path class="st26" d="M873.9,100.6c-0.6-0.5-1.2-1-1.5-1.7c-0.2-0.3-0.3-0.7-0.4-1.1c-0.1-0.4-0.1-0.8-0.1-1.2l0.6,0.1
							c-0.1,0.3-0.1,0.7-0.1,1.1c0,0.4,0.1,0.7,0.2,1.1C873,99.4,873.4,100.1,873.9,100.6z"/>
					</g>
				</g>
				<g>
					<path class="st32" d="M873.4,107.7c0,0,2.6,3.2,4.2,1.7C878.7,108.3,876.1,106.3,873.4,107.7z"/>
					<g>
						<path class="st26" d="M876.4,108.6c-0.8,0-1.6-0.1-2.3-0.4c-0.4-0.1-0.7-0.3-1-0.6c-0.3-0.2-0.6-0.6-0.8-0.9l0.5-0.3
							c0.2,0.3,0.3,0.6,0.6,0.9c0.3,0.3,0.5,0.5,0.9,0.7C874.9,108.3,875.6,108.5,876.4,108.6z"/>
					</g>
				</g>
				<g>
					<path class="st32" d="M879.4,113.2c0,0,4.1,0.3,4.1-1.9C883.5,109.7,880.3,110.2,879.4,113.2z"/>
					<g>
						<path class="st26" d="M882.2,111.6c-0.5,0.6-1.1,1.1-1.8,1.4c-0.4,0.2-0.7,0.3-1.1,0.4c-0.4,0.1-0.8,0-1.2,0l0.1-0.6
							c0.3,0.1,0.7,0.2,1,0.1c0.4,0,0.7-0.1,1.1-0.2C881,112.5,881.6,112.1,882.2,111.6z"/>
					</g>
				</g>
				<g>
					<path class="st33" d="M886.8,115.6c0,0,4-1.1,3.2-3.1C889.5,111,886.6,112.5,886.8,115.6z"/>
					<g>
						<path class="st26" d="M888.9,113.2c-0.3,0.7-0.7,1.4-1.2,2c-0.3,0.3-0.6,0.5-1,0.7c-0.4,0.2-0.8,0.3-1.2,0.4l-0.1-0.6
							c0.3,0,0.7-0.1,1-0.2c0.3-0.1,0.7-0.3,1-0.5C888,114.5,888.5,113.9,888.9,113.2z"/>
					</g>
				</g>
				<g>
					<path class="st32" d="M895.3,113.1c0,0,3.1-2.7,1.6-4.2C895.8,107.8,893.8,110.4,895.3,113.1z"/>
					<g>
						<path class="st26" d="M896.2,110c0.1,0.8,0,1.6-0.3,2.3c-0.1,0.4-0.3,0.7-0.6,1.1c-0.2,0.3-0.6,0.6-0.9,0.9l-0.3-0.5
							c0.3-0.2,0.6-0.4,0.8-0.6c0.2-0.3,0.5-0.6,0.6-0.9C895.9,111.6,896.1,110.8,896.2,110z"/>
					</g>
				</g>
				<g>
					<path class="st32" d="M892.3,115.2c0,0,4-1,4.3,1.1C896.9,117.9,893.7,118,892.3,115.2z"/>
					<g>
						<path class="st26" d="M895.3,116.2c-0.7-0.4-1.4-0.7-2.1-0.8c-0.4-0.1-0.7,0-1.1,0c-0.4,0-0.7,0.2-1,0.3l-0.3-0.6
							c0.4-0.1,0.8-0.2,1.2-0.2c0.4,0,0.8,0,1.2,0.1C894,115.4,894.7,115.7,895.3,116.2z"/>
					</g>
				</g>
				<g>
					<path class="st32" d="M883.2,115.9c0,0,3.1,2.6,1.7,4.2C883.8,121.1,881.8,118.6,883.2,115.9z"/>
					<g>
						<path class="st26" d="M884.1,118.9c-0.1-0.8-0.3-1.5-0.6-2.2c-0.2-0.3-0.4-0.6-0.7-0.9c-0.2-0.3-0.6-0.4-0.9-0.6l0.3-0.5
							c0.3,0.2,0.7,0.5,0.9,0.9c0.2,0.3,0.4,0.7,0.6,1.1C884.1,117.3,884.2,118.1,884.1,118.9z"/>
					</g>
				</g>
				<g>
					<path class="st33" d="M875.6,112c0,0,1.8,3.7-0.2,4.5C873.9,117,873.1,113.9,875.6,112z"/>
					<g>
						<path class="st26" d="M875.2,115.1c0.3-0.7,0.4-1.5,0.3-2.2c0-0.4-0.1-0.7-0.2-1.1c-0.1-0.3-0.3-0.6-0.5-0.9l0.5-0.4
							c0.2,0.4,0.4,0.7,0.5,1.1c0.1,0.4,0.1,0.8,0.1,1.2C875.7,113.7,875.5,114.4,875.2,115.1z"/>
					</g>
				</g>
				<g>
					<path class="st35" d="M872.7,93.9c0,0-2.5,2.3-3.6,0.9C868.3,93.8,870.6,92.4,872.7,93.9z"/>
					<g>
						<path class="st26" d="M870.1,94.3c0.6,0,1.3-0.1,1.8-0.3c0.6-0.2,1.1-0.6,1.4-1.1l0.4,0.3c-0.5,0.5-1.1,0.9-1.7,1
							C871.4,94.4,870.7,94.4,870.1,94.3z"/>
					</g>
				</g>
				<g>
					<path class="st32" d="M871.2,102c0,0-1.1,3.2-2.7,2.5C867.3,104,868.7,101.7,871.2,102z"/>
					<g>
						<path class="st26" d="M869.2,103.6c0.6-0.3,1.1-0.7,1.5-1.1c0.4-0.5,0.6-1,0.7-1.6l0.5,0.1c-0.2,0.7-0.5,1.3-1,1.7
							C870.4,103.1,869.8,103.4,869.2,103.6z"/>
					</g>
				</g>
				<g>
					<path class="st32" d="M886,84.9c0,0,3.5-2.2,4.5-0.2C891.2,86,888.1,87.1,886,84.9z"/>
					<g>
						<path class="st26" d="M889.1,85c-0.7-0.2-1.5-0.2-2.2-0.1c-0.4,0.1-0.7,0.2-1,0.3c-0.3,0.2-0.6,0.4-0.9,0.6l-0.4-0.5
							c0.3-0.2,0.7-0.5,1.1-0.6c0.4-0.1,0.8-0.2,1.2-0.2C887.6,84.5,888.4,84.7,889.1,85z"/>
					</g>
				</g>
				<g>
					<path class="st32" d="M894,79.6c0,0,3.5-2.2,4.5-0.2C899.2,80.8,896.2,81.9,894,79.6z"/>
					<g>
						<path class="st26" d="M897.2,79.7c-0.7-0.2-1.5-0.2-2.2-0.1c-0.4,0.1-0.7,0.2-1,0.3c-0.3,0.2-0.6,0.4-0.9,0.6l-0.4-0.5
							c0.3-0.2,0.7-0.5,1.1-0.6c0.4-0.1,0.8-0.2,1.2-0.2C895.7,79.3,896.5,79.4,897.2,79.7z"/>
					</g>
				</g>
				<g>
					<path class="st32" d="M903.6,87.7c0,0,5.3,1.6,5.9-1.2C910,84.4,905.6,84.1,903.6,87.7z"/>
					<g>
						<path class="st26" d="M907.7,86.5c-0.8,0.6-1.8,1.1-2.8,1.3c-0.5,0.1-1.1,0.2-1.6,0.1c-0.6,0-1.1-0.2-1.6-0.4l0.4-0.8
							c0.4,0.2,0.8,0.4,1.3,0.5c0.5,0.1,1,0.1,1.5,0.1C905.8,87.3,906.8,87,907.7,86.5z"/>
					</g>
				</g>
				<g>
					<path class="st32" d="M909.5,96.2c0,0,2.8,4.7,5.2,3.1C916.4,98.1,913.4,94.9,909.5,96.2z"/>
					<g>
						<path class="st26" d="M913.3,98.1c-1-0.1-2-0.4-3-0.9c-0.5-0.3-0.9-0.6-1.3-1c-0.4-0.4-0.7-0.9-0.9-1.4l0.8-0.3
							c0.2,0.4,0.3,0.9,0.6,1.3c0.3,0.4,0.6,0.8,1,1C911.3,97.4,912.3,97.8,913.3,98.1z"/>
					</g>
				</g>
				<g>
					<path class="st32" d="M911.7,106.8c0,0,2.5,4.3,4.6,2.8C917.9,108.5,915.2,105.7,911.7,106.8z"/>
					<g>
						<path class="st26" d="M915.1,108.5c-0.9-0.1-1.8-0.4-2.7-0.8c-0.4-0.2-0.8-0.5-1.1-0.9c-0.4-0.4-0.6-0.8-0.8-1.2l0.7-0.3
							c0.1,0.4,0.3,0.8,0.6,1.1c0.3,0.3,0.6,0.7,0.9,0.9C913.4,107.9,914.2,108.3,915.1,108.5z"/>
					</g>
				</g>
				<g>
					<path class="st33" d="M915.6,115.9c0,0,4.5,2.1,5.4-0.3C921.7,113.8,917.9,112.9,915.6,115.9z"/>
					<g>
						<path class="st26" d="M919.4,115.4c-0.8,0.4-1.7,0.7-2.7,0.8c-0.5,0-1,0-1.4-0.1c-0.5-0.1-0.9-0.3-1.4-0.6l0.4-0.6
							c0.3,0.2,0.7,0.5,1.1,0.6c0.4,0.1,0.8,0.2,1.3,0.3C917.6,115.8,918.5,115.7,919.4,115.4z"/>
					</g>
				</g>
				<g>
					<path class="st32" d="M922.1,121.3c0,0,3.4,0.7,3.7-1.1C926,118.9,923.2,118.9,922.1,121.3z"/>
					<g>
						<path class="st26" d="M924.6,120.3c-0.5,0.4-1.1,0.8-1.7,1c-0.6,0.2-1.4,0.2-2.1,0l0.2-0.5c0.5,0.3,1.2,0.3,1.8,0.2
							C923.5,120.9,924.1,120.7,924.6,120.3z"/>
					</g>
				</g>
				<g>
					<path class="st32" d="M906.6,92.2c0,0,0.9,4.7-1.6,4.9C903.2,97.3,903.3,93.6,906.6,92.2z"/>
					<g>
						<path class="st26" d="M905.2,95.6c0.5-0.7,0.9-1.5,1-2.4c0.1-0.4,0.1-0.8,0.1-1.3c0-0.4-0.2-0.8-0.3-1.2l0.7-0.3
							c0.1,0.5,0.2,0.9,0.2,1.4c0,0.5-0.1,0.9-0.3,1.4C906.2,94.1,905.8,94.9,905.2,95.6z"/>
					</g>
				</g>
				<g>
					<path class="st32" d="M909.5,100.5c0,0-0.8,4.7-3.2,4.1C904.6,104.2,906,100.7,909.5,100.5z"/>
					<g>
						<path class="st26" d="M907.1,103.2c0.7-0.5,1.3-1.2,1.8-1.9c0.2-0.4,0.4-0.8,0.5-1.2c0.1-0.4,0.1-0.8,0.1-1.2l0.7,0
							c0,0.5-0.1,1-0.3,1.4c-0.2,0.4-0.4,0.8-0.7,1.2C908.6,102.3,907.8,102.8,907.1,103.2z"/>
					</g>
				</g>
				<g>
					<path class="st32" d="M911.8,110.9c0,0,0.4,4.7-2,4.8C907.9,115.7,908.4,112,911.8,110.9z"/>
					<g>
						<path class="st26" d="M910.1,114.1c0.6-0.7,1-1.5,1.3-2.3c0.1-0.4,0.2-0.8,0.2-1.2c0-0.4-0.1-0.8-0.2-1.2l0.7-0.2
							c0.1,0.5,0.1,1,0,1.4c-0.1,0.5-0.2,0.9-0.4,1.3C911.3,112.8,910.7,113.6,910.1,114.1z"/>
					</g>
				</g>
				<g>
					<path class="st32" d="M917.3,119c0,0,3.2,3.5,1.3,5C917.2,125.2,915.3,122,917.3,119z"/>
					<g>
						<path class="st26" d="M918,122.6c0-0.9-0.1-1.8-0.4-2.6c-0.2-0.4-0.4-0.8-0.6-1.1c-0.2-0.3-0.6-0.6-0.9-0.8l0.4-0.6
							c0.4,0.3,0.7,0.7,0.9,1.1c0.2,0.4,0.4,0.8,0.5,1.3C918.1,120.8,918.1,121.7,918,122.6z"/>
					</g>
				</g>
				<g>
					<path class="st32" d="M837.6,103.6c0,0-6.5,0.8-6.6-2.6C830.9,98.5,836,99,837.6,103.6z"/>
					<g>
						<path class="st26" d="M833.1,101.4c0.9,0.8,2,1.4,3.2,1.7c0.6,0.2,1.2,0.2,1.7,0.2c0.6,0,1.1-0.1,1.7-0.3l0.2,0.7
							c-0.6,0.1-1.3,0.2-1.9,0.1c-0.6-0.1-1.3-0.2-1.8-0.4C835,103,834,102.3,833.1,101.4z"/>
					</g>
				</g>
				<g>
					<path class="st32" d="M842.6,102.1c0,0-3.6,5.4-0.6,7.1C844.1,110.4,846,105.6,842.6,102.1z"/>
					<g>
						<path class="st26" d="M842.5,107.1c-0.4-1.1-0.6-2.4-0.5-3.6c0-0.6,0.2-1.2,0.4-1.8c0.2-0.6,0.6-1.1,1-1.6l0.5,0.5
							c-0.4,0.4-0.8,0.8-1,1.4c-0.3,0.5-0.5,1.1-0.6,1.7C842.2,104.7,842.3,105.9,842.5,107.1z"/>
					</g>
				</g>
				<g>
					<path class="st32" d="M853.3,91.6c0,0-3.6,5.4-0.6,7.1C854.8,99.9,856.7,95.1,853.3,91.6z"/>
					<g>
						<path class="st26" d="M853.3,96.6c-0.4-1.1-0.6-2.4-0.5-3.6c0-0.6,0.2-1.2,0.4-1.8c0.2-0.6,0.6-1.1,1-1.6l0.5,0.5
							c-0.4,0.4-0.8,0.8-1,1.4c-0.3,0.5-0.5,1.1-0.6,1.7C852.9,94.2,853,95.5,853.3,96.6z"/>
					</g>
				</g>
				<g>
					<path class="st32" d="M866.8,90.7c0,0-6.5-0.1-6.3,3.3C860.6,96.5,865.7,95.5,866.8,90.7z"/>
					<g>
						<path class="st26" d="M862.6,93.4c0.8-1,1.7-1.8,2.8-2.4c0.5-0.3,1.2-0.5,1.8-0.6c0.6-0.1,1.3-0.1,1.9-0.1l-0.1,0.7
							c-0.6-0.1-1.1-0.2-1.7-0.1c-0.6,0.1-1.2,0.2-1.7,0.4C864.4,91.8,863.4,92.5,862.6,93.4z"/>
					</g>
				</g>
				<g>
					<path class="st32" d="M873.1,88c0,0-4.9-4.3-6.9-1.6C864.7,88.5,869.2,91,873.1,88z"/>
					<g>
						<path class="st26" d="M868.2,87.4c1.2-0.2,2.4-0.3,3.7,0c0.6,0.1,1.2,0.4,1.8,0.7c0.6,0.3,1.1,0.7,1.5,1.2l-0.6,0.5
							c-0.4-0.4-0.7-0.9-1.2-1.2c-0.5-0.3-1-0.6-1.6-0.8C870.6,87.4,869.4,87.2,868.2,87.4z"/>
					</g>
				</g>
				<g>
					<path class="st32" d="M860.3,82.1c0,0-5.5,0.9-4.8,3.7C856.1,87.8,860.1,86.2,860.3,82.1z"/>
					<g>
						<path class="st26" d="M857.2,85c0.5-0.9,1.1-1.7,2-2.4c0.4-0.3,0.9-0.6,1.4-0.8c0.5-0.2,1-0.3,1.6-0.3l0,0.6
							c-0.5,0-1,0-1.4,0.2c-0.5,0.1-0.9,0.3-1.4,0.6C858.5,83.4,857.8,84.1,857.2,85z"/>
					</g>
				</g>
				<g>
					<path class="st32" d="M850,85.2c0,0-2.8,3.3-1,4.6C850.3,90.8,851.9,87.8,850,85.2z"/>
					<g>
						<path class="st26" d="M849.5,88.5c-0.2-0.8-0.2-1.6,0-2.4c0.1-0.4,0.2-0.8,0.4-1.2c0.2-0.4,0.5-0.7,0.8-1l0.3,0.4
							c-0.3,0.2-0.6,0.5-0.8,0.8c-0.2,0.3-0.4,0.7-0.5,1C849.5,86.9,849.5,87.7,849.5,88.5z"/>
					</g>
				</g>
				<g>
					<path class="st33" d="M867.9,82.7c0,0-5-3.6-2.7-6.7C866.6,73.9,870.2,78.4,867.9,82.7z"/>
					<g>
						<path class="st26" d="M866.5,77.9c0.1,1.2,0.4,2.4,0.9,3.5c0.3,0.5,0.6,1,1,1.4c0.4,0.4,0.9,0.8,1.4,1l-0.4,0.6
							c-0.5-0.4-1-0.8-1.4-1.3c-0.4-0.5-0.7-1.1-0.9-1.6C866.6,80.3,866.4,79.1,866.5,77.9z"/>
					</g>
				</g>
				<g>
					<path class="st32" d="M853.8,82.2c0,0-6.5,0-6.3-3.4C847.7,76.3,852.8,77.4,853.8,82.2z"/>
					<g>
						<path class="st26" d="M849.6,79.4c0.8,0.9,1.8,1.6,2.9,2c0.5,0.2,1.1,0.4,1.7,0.4c0.6,0.1,1.1,0,1.7-0.1l0.1,0.7
							c-0.6,0.1-1.3,0.1-1.9-0.1c-0.6-0.1-1.2-0.3-1.8-0.6C851.3,81.2,850.4,80.4,849.6,79.4z"/>
					</g>
				</g>
				<g>
					<path class="st33" d="M822.2,104.2c0,0-6.2-1.9-5-5C818.1,96.9,822.6,99.4,822.2,104.2z"/>
					<g>
						<path class="st26" d="M819,100.4c0.5,1.1,1.3,2.1,2.2,2.8c0.5,0.4,1,0.7,1.5,0.9c0.5,0.2,1.1,0.3,1.7,0.4l-0.1,0.7
							c-0.6-0.1-1.3-0.3-1.8-0.6c-0.6-0.3-1.1-0.7-1.5-1.1C820.1,102.6,819.5,101.5,819,100.4z"/>
					</g>
				</g>
				<g>
					<path class="st32" d="M809,106.1c0,0-4.6-1-3.9-3.3C805.7,101.1,809,102.6,809,106.1z"/>
					<g>
						<path class="st26" d="M806.5,103.5c0.4,0.7,1,1.4,1.7,1.9c0.3,0.2,0.7,0.4,1.1,0.6c0.4,0.1,0.8,0.2,1.2,0.2l0,0.5
							c-0.5-0.1-0.9-0.2-1.3-0.3c-0.4-0.2-0.8-0.4-1.1-0.7C807.4,105,806.9,104.3,806.5,103.5z"/>
					</g>
				</g>
				<g>
					<path class="st32" d="M804.9,115.2c0,0-2,4.2-4.1,3C799.2,117.3,801.5,114.4,804.9,115.2z"/>
					<g>
						<path class="st26" d="M801.8,117.1c0.8-0.3,1.6-0.7,2.2-1.2c0.3-0.3,0.6-0.6,0.8-1c0.2-0.3,0.4-0.7,0.5-1.1l0.5,0.1
							c-0.2,0.4-0.4,0.9-0.7,1.2c-0.3,0.4-0.6,0.7-1,0.9C803.5,116.6,802.7,116.9,801.8,117.1z"/>
					</g>
				</g>
				<g>
					<path class="st32" d="M807,110.9c0,0-2,4.2,0.2,5.1C808.8,116.7,809.7,113.1,807,110.9z"/>
					<g>
						<path class="st26" d="M807.4,114.5c-0.4-0.8-0.6-1.6-0.7-2.5c0-0.4,0-0.9,0.1-1.3c0.1-0.4,0.3-0.9,0.5-1.3l0.4,0.3
							c-0.2,0.3-0.5,0.7-0.6,1.1c-0.1,0.4-0.2,0.8-0.3,1.2C807,112.8,807.1,113.7,807.4,114.5z"/>
					</g>
				</g>
				<g>
					<path class="st32" d="M815.2,104.9c0,0-4.3,1.9-3.1,4C813,110.5,815.9,108.3,815.2,104.9z"/>
					<g>
						<path class="st26" d="M813.3,107.9c0.2-0.8,0.6-1.7,1.1-2.4c0.3-0.4,0.6-0.7,1-0.9c0.4-0.3,0.8-0.5,1.2-0.6l0.1,0.5
							c-0.4,0.1-0.8,0.2-1.1,0.4c-0.4,0.2-0.7,0.5-1,0.8C814,106.3,813.6,107.1,813.3,107.9z"/>
					</g>
				</g>
				<g>
					<path class="st32" d="M829.2,106.1c0,0-4.6,0.6-4.1,3C825.4,110.9,828.9,109.6,829.2,106.1z"/>
					<g>
						<path class="st26" d="M826.5,108.5c0.4-0.8,1-1.4,1.7-2c0.4-0.3,0.8-0.5,1.2-0.6c0.4-0.2,0.9-0.2,1.4-0.2l0,0.5
							c-0.4,0-0.8,0-1.2,0.1c-0.4,0.1-0.8,0.2-1.2,0.5C827.6,107.2,827,107.8,826.5,108.5z"/>
					</g>
				</g>
				<g>
					<g>
						<path class="st26" d="M880.4,93c0-1.8-0.3-5.8-3.1-5c-2.7,0.8-4.3,4.9-5.1,7.2c-1.3,3.9-1.6,8.4,0.1,12.3
							c1.6,3.7,5.3,6.2,8.9,7.6c3.5,1.4,7.6,1.8,11.1,0.4c3-1.2,5.7-4.2,8.9-4.4c0.3,0,0.3-0.5,0-0.5c-2.4-0.2-4.5,1.6-6.5,2.7
							c-3.8,2.2-7.6,2.7-11.8,1.5c-4.6-1.4-9.1-4.7-10.4-9.5c-1.2-4.4-0.2-9.5,2.1-13.4c0.6-1,1.7-3,3-3.2c1.9-0.2,2,3,2.1,4.3
							C879.8,93.4,880.4,93.4,880.4,93L880.4,93z"/>
					</g>
				</g>
			</g>
			<path class="st3" d="M880.6,110.9l-6.7-0.1c-9.2-0.1-17.6-7.6-17.5-16.8l0-0.8l42.2,0.5l0,0.8C898.6,103.7,889.8,111,880.6,110.9
				z"/>
			<path class="st22" d="M855.8,93.5c0,0,1.7,17.4,21.7,17.4"/>
			<path class="st22" d="M877.5,92l0,18.9c20,0,21.7-17.4,21.7-17.4"/>
			<path class="st5" d="M855.8,95L855.8,95c-0.7,0-1.3-0.6-1.3-1.3l0,0c0-0.7,0.6-1.3,1.3-1.3l0,0c0.7,0,1.3,0.6,1.3,1.3l0,0
				C857.1,94.4,856.5,95,855.8,95z"/>
			<path class="st5" d="M877.5,95L877.5,95c-0.7,0-1.3-0.6-1.3-1.3l0,0c0-0.7,0.6-1.3,1.3-1.3l0,0c0.7,0,1.3,0.6,1.3,1.3l0,0
				C878.8,94.4,878.2,95,877.5,95z"/>
			<path class="st5" d="M899.2,95L899.2,95c-0.7,0-1.3-0.6-1.3-1.3l0,0c0-0.7,0.6-1.3,1.3-1.3l0,0c0.7,0,1.3,0.6,1.3,1.3l0,0
				C900.5,94.4,899.9,95,899.2,95z"/>
			<path class="st5" d="M877.5,112.2L877.5,112.2c-0.7,0-1.3-0.6-1.3-1.3l0,0c0-0.7,0.6-1.3,1.3-1.3l0,0c0.7,0,1.3,0.6,1.3,1.3l0,0
				C878.8,111.6,878.2,112.2,877.5,112.2z"/>
		</g>
	</g>
	<g>
		<g>
			<path class="st36" d="M346.6,45.5c-5.4,2.4-6.7,10.7-6.9,16.6c-0.1,2.5,0.6,5,0.6,7.5c0.1,3.3-0.9,6.4-1.4,9.7
				c-1.3,8.7,3.9,11.4,8.3,17.5c1.9,2.6,1.2,6.3-0.1,9.2s-3.4,5.6-4.2,8.7c-1.3,4.8,0.5,9.9,2.4,14.6c1.6,4.1,4.2,8.7,8.5,9.1
				c3-8,7.1-15.6,12-22.5c2.6-3.7,4.1-7.5,6.2-11.4c2.2-4,6.3-6.4,8.5-10.4c3.6-6.3,0.3-14.3,1.3-21.5c0.5-3.2,1.9-6.4,1.6-9.7
				c-0.4-5.8-5.6-9.9-10.3-13.3c-2-1.4-3-1.4-5.2-1.3c-1.8,0.1-6.1-3.6-7.9-4C355.6,43.4,350.8,43.7,346.6,45.5z"/>
			<path class="st24" d="M373.5,102.6c0,0,15.6,6.6,39-8.6s41.3-32.7,41.1-35c-0.2-2.3-0.2-7-0.6-9.7c-0.4-3.1,0.9-1.5,2.2,3.7
				c0,0,3.5-4.6,7-7.8c3.5-3.1,5.7-4.1,5.3-3.1c-0.8,1.8-3.9,7.3-8.7,19.8c-0.8,2.2-11.1,16.3-27.1,30.7
				c-11.9,10.7-20.6,14.8-29.9,19.6c-3.3,1.7-14.3,6.5-17.5,3.9C374.6,108.6,373.5,102.6,373.5,102.6z"/>
			<path class="st37" d="M372.4,102.3c0,0,10.4,2.5,16.3,0.8c1.2-0.3-0.3,1.9-2,8c-1.6,5.8,1.9,5,1.2,7.2
				c-3.3,10.1-8.1,23.6-9.9,24.4c-3.4,1.5-25.6,4.8-24.7-2.3c0.9-7.1-7.4-40.7-4.8-42.7S356.7,99.9,372.4,102.3z"/>
			<path class="st23" d="M347.5,193.5c0,0,6.2,27.4,6.9,29.8c0,0-18.2,4.7-21.4,26.5s-3.6,39.6-3.8,45.1c-0.1,5.4-8.2,27.1-9.7,27.2
				c-1.5,0.1-5.6,0.8-8,2.1c-0.5,0.3,4.2,0.3,4.2,0.3s-7.2,8.7-7.4,12.6c-0.2,3.9,0.7,3.4,6.8-2.3c6.1-5.7,12.5-13.8,19-27.1
				c6.5-13.3,38.6-75.8,41.1-79.8c2.6-4,15.6-24.2,12-33.6S364.6,182.7,347.5,193.5z"/>
			<g>
				<path class="st24" d="M374.8,186.7c0,0,9.9,43.5,10.4,48.6c0.6,6-1.1,10.6-0.9,14c0.2,3.3,7.2,41.6,10.9,58.2
					c3.7,16.6,10.6,42.9,9.9,46.6c-0.8,3.7-6.8-7.5-8.3-11c-1.6-3.5-3.2-4.2-4.2-2.2c-1,2-1.8,2.2,0.9-5.6c0,0,0.7-0.8-0.3-3.4
					c-1.3-3.4-33.3-49.1-34.3-68.2c-1.1-20.1,1.7-26.6,1.7-26.6s-27.3-31.9-28.4-37.1S368.9,177.7,374.8,186.7z"/>
				<path class="st26" d="M393.8,333.9c0.9-0.3,2,0.9,2.5,2.1c0.5,1.3,4.5,10.3,6.3,12.5c0.8,1,1.9,1.5,2.3,0.7
					c0.1,1,0.4,2.9,0.4,3.5c0,0.6-0.1,1.4-0.1,1.4c-0.8,3.6-6.8-7.6-8.3-11.1c-1.6-3.5-3.1-4.2-4.1-2.2c-1,2-1.9,2.2,0.9-5.6
					C393.6,335.3,393.7,334,393.8,333.9z"/>
			</g>
			<g>
				<g>
					<path class="st30" d="M378.4,142.7c0,0-4.5-4.5,10.3,31.2c10.2,24.5,9.7,42.9,7.7,48.4s-4.1-4.2-27.8,1.8
						c-28.4,7.3-46,2.9-47.8-2.6c-1.8-5.5,3.9-43,10.7-56.1c6.7-13.1,20.7-25.8,22.2-24.5C355.1,142.2,378.4,142.7,378.4,142.7z"/>
				</g>
			</g>
			<path class="st24" d="M343.2,115.1c-4.5-0.2-11.7,15.5-24.2,29.7c-10.7,12.2-29.4,24.5-30.4,26.6c-1.5,3,1,7.3,0,7.9
				c-1,0.7-1.1-6.3-7-1s-10.5,8-9.6,6.3c1.5-3.1,5.6-9,7.9-12.6c1.1-1.7,4.7-4.6,8.7-7.7c10.7-8.1,21.4-25.9,29.4-35.8
				c10.8-13.3,17.5-25.6,22.6-29.2c0,0,3.2-1.7,5.1-2c5-0.8,5.2,0,7.2,1.4c1,0.7,1.9,3.5,1.9,6.1
				C354.9,119.3,345.7,115.1,343.2,115.1L343.2,115.1z"/>
			<path class="st24" d="M380.4,60.2c0,0,1.6,9,0.1,16.5c-2.1,10.6-6.7,14.8-11.2,15.1c-7,0.4-12.5-16.8-12.5-23.6s6.4-12,6.4-12
				S378.9,54.4,380.4,60.2z"/>
			<path class="st38" d="M389.8,80.2"/>
			<path class="st24" d="M373,88.2c0,0-1.1,9-0.2,11c0.9,1.9,8,3.9,11,4.3c3,0.4-1.9,7.3-13.5,5.6s-14.5-10.6-14.5-10.6
				s9.2,1.6,10.1,0.3c0.9-1.3,0.2-13.3,0.2-13.3L373,88.2z"/>
			<path class="st26" d="M318.4,323.8c-1.5,1.1-3.9,2.6-4.7,5c-0.5,1.5-1.6,8-1.2,8.5c0,0-1.6,1.1-1.6,1.2c-2.4,1.9-2.8,1.3-2.6-1.4
				c0.2-3.9,7.4-12.6,7.4-12.6s-4.7,0-4.2-0.3c2.4-1.3,6.5-2,8-2.1C319.6,322,319.9,322.7,318.4,323.8z"/>
		</g>
		<path class="st36" d="M372.5,63.6c1.2-1.2,1.7-2.7,1.2-4.3c0.6,2.3,5.5,8.1,7.6,8.9c2.2,0.8,5.5,2.6,7.5,1.3
			c-8.7-6.8-1.6-18.1-12.6-19.9c-2.2-0.4-5.9,0.7-8.1,0.7c-6.6,0.1-18.3,25.6-18.3,25.6C365.7,76.4,369.6,66.7,372.5,63.6z"/>
		<path class="st13" d="M365.6,48.8c0,0-11.2,1.3-12.9,15.2C352.7,64,347.5,48.4,365.6,48.8z"/>
		<path class="st36" d="M355.5,96.4c1.5,1.6,3.6,2.4,5.2,3.9c4.4,4.4,3.7,12,4.7,17.6c0.9,4.8,2,10,5.6,13.4
			c-4.6,1.6-10.2-0.4-12.8-4.5c-1.1-1.7-1.6-3.7-2.8-5.4c-2.8-4-10.1-2.5-14.2-6.2c-5.1-4.6-5-11.5-3.3-17.8c1.4-5-1.2-19,2.2-23
			c11.4-13.3,12.4,2.1,15.9,7.4C359,86.4,350.1,90.6,355.5,96.4z"/>
	</g>
	<g>
		<g>
			<path class="st39" d="M1388.1,113.2c0,0,5.4-0.3,5.4-1.4c0-0.9-3.3-0.1-3.3-0.1s3.6-1.1,5.3-1.9c0.4-0.2,0.7-0.4,1-0.7
				c0.3-0.3,0.4-0.8,0.2-1.2c-0.3-0.5-1-0.5-1.5-0.5c-2.2,0.3-3.8,1.5-5.8,2.5c1.5-0.7,2.8-1.7,4-2.8c1.1-1,2.4-2,3.2-3.3
				c0.5-0.8,0.7-2.1-0.2-2.8c-0.8-0.7-2-0.4-2.9,0c-2.4,0.8-4.5,2.5-5.8,4.6c0.4-1,0.6-2,0.8-3c0.1-0.4,0.1-0.9-0.2-1.2
				c-0.4-0.3-1,0.1-1.4,0.5c-0.8,1-1.5,2.2-1.9,3.5c0.3-2.8,0.5-5.7-0.1-8.5c-0.1-0.6-0.3-1.3-0.7-1.8c-0.4-0.5-1-0.9-1.7-0.8
				c-0.6,0.1-1.1,0.5-1.5,1c-1.3,1.5-2.1,3.5-2.2,5.4c0,2,0.6,4,1.9,5.5c-0.7-0.7-1.4-1.3-2.2-1.8c-0.2-0.1-0.4-0.2-0.6,0
				c-0.1,0.1-0.1,0.2-0.1,0.3c0.1,1.4,1,2.5,1.9,3.5c-1.8-2.1-4.5-3.2-7.2-3c-0.3,0-0.7,0.1-0.9,0.4c-0.1,0.2-0.1,0.4-0.1,0.6
				c0.1,1.4,1.3,2.3,2.5,3c1,0.6,2,1.1,3.1,1.5c-0.6-0.1-1.2-0.1-1.8-0.1c-0.1,0-0.3,0-0.4,0.1c-0.2,0.2,0.1,0.5,0.3,0.6
				c1.5,1.1,3.4,1.6,5.2,1.5"/>
			
				<linearGradient id="SVGID_1_" gradientUnits="userSpaceOnUse" x1="1390.8033" y1="117.6288" x2="1390.8033" y2="132.7419" gradientTransform="matrix(0.9992 -3.960000e-02 3.960000e-02 0.9992 -9.105 36.2867)">
				<stop  offset="0.3656" style="stop-color:#86CF94"/>
				<stop  offset="0.9892" style="stop-color:#008166"/>
			</linearGradient>
			<path class="st40" d="M1394.3,103.1c0.1,0,0.1,0.1,0.1,0.1c-1.7,1.3-3.3,2.8-4.7,4.4c-1.4,1.6-2.6,3.4-3.7,5.3
				c0,0.1-0.1,0-0.1-0.1C1387.7,109,1390.8,105.6,1394.3,103.1L1394.3,103.1z M1386.5,104.5c-1,2.5-1.6,5.7-1.4,8.5
				c0,0.1,0.1,0.1,0.1,0c0-2.7,0.5-5.8,1.4-8.4C1386.7,104.5,1386.5,104.4,1386.5,104.5L1386.5,104.5z M1383.1,98.9
				c-0.5,4.7-0.1,9.6,1.2,14.1c0,0.1,0.1,0,0.1,0c-0.5-2.4-0.9-4.7-1.1-7.1C1383.1,103.5,1383.1,101.2,1383.1,98.9
				C1383.2,98.8,1383.1,98.8,1383.1,98.9L1383.1,98.9z M1378.9,105.8c1.4,2,2.9,5.7,4.8,7.3c0.1,0.1,0.2,0,0.1-0.1
				c-1.7-1.8-3.3-5.2-4.8-7.2C1378.9,105.7,1378.8,105.8,1378.9,105.8L1378.9,105.8z M1393.9,108.9c-2.8,1.3-5.6,2.7-8,4.7
				c-0.1,0.1,0,0.2,0.1,0.1c2.6-1.7,5.1-3.4,7.9-4.7C1394,109,1394,108.9,1393.9,108.9L1393.9,108.9z M1376.7,108.6
				c2,1.2,4.2,3.8,6.4,4.6c0.1,0,0.1-0.1,0.1-0.1c-2.1-1-4.3-3.4-6.4-4.6C1376.7,108.4,1376.6,108.5,1376.7,108.6L1376.7,108.6z"/>
		</g>
		<g>
			<rect x="1379.2" y="112.9" class="st21" width="11.8" height="9.9"/>
		</g>
	</g>
</g>
</svg>
