<?xml version="1.0" encoding="utf-8"?>
<!-- Generator: Adobe Illustrator 22.1.0, SVG Export Plug-In . SVG Version: 6.00 Build 0)  -->
<svg version="1.1" id="Capa_1" xmlns="http://www.w3.org/2000/svg" xmlns:xlink="http://www.w3.org/1999/xlink" x="0px" y="0px"
	 viewBox="0 0 121 86" style="enable-background:new 0 0 121 86;" xml:space="preserve">
<style type="text/css">
	.st0{fill:none;stroke:#898989;stroke-width:3;stroke-linecap:round;stroke-linejoin:round;stroke-miterlimit:10;}
	.st1{fill:#FFFFFF;stroke:#898989;stroke-width:3;stroke-linecap:round;stroke-linejoin:round;stroke-miterlimit:10;}
	.st2{fill:#898989;}
	.st3{fill:#E63976;}
	.st4{fill:none;stroke:#FAF7F5;stroke-width:3;stroke-linecap:round;stroke-linejoin:round;}
</style>
<title>Group 9</title>
<desc>Created with Sketch.</desc>
<g id="Landing-Vendedoras">
	<g id="Landing---Sellers" transform="translate(-682.000000, -504.000000)">
		<g id="Group-7" transform="translate(605.000000, 504.000000)">
			<g id="Group-2">
				<g id="Group-9" transform="translate(77.000000, 0.000000)">
					<g id="icon_shipping" transform="translate(5.000000, 14.000000)">
						<path id="Path" class="st0" d="M34,55c-2,0-4,1.7-4,4c0,2,1.7,4,4,4c2,0,4-1.7,4-4C38,57,36.3,55,34,55z"/>
						<line id="Path_12_" class="st0" x1="9" y1="19.7" x2="9" y2="34.7"/>
						<polyline id="Path_11_" class="st0" points="82,35 82,0 29.2,0 						"/>
						<path id="Path_2_" class="st0" d="M83.5,42v15"/>
						<path id="Path_3_" class="st0" d="M77,50H50"/>
						<path id="Path_4_" class="st0" d="M20,49H0"/>
						<path id="Path_5_" class="st0" d="M5,41h27"/>
						<path id="Path_6_" class="st0" d="M10,49.1V57h104c0,0,0-14,0-19.1s-4.3-7.9-11.4-7.9S83,30,83,30"/>
						<path id="Path_7_" class="st0" d="M83,15h22c0,0,0-8-5.7-8C93.7,7,83,7,83,7"/>
						<path id="Path_8_" class="st0" d="M114,39h-8c0,0-0.6,8,8,8"/>
						<path id="Path_9_" class="st0" d="M102,15l5,15"/>
						<path id="Oval" class="st1" d="M97.5,70c5.8,0,10.5-4.7,10.5-10.5c0-4.4-2.7-8.2-6.6-9.8c-1.2-0.5-2.5-0.7-3.9-0.7
							C91.7,49,87,53.7,87,59.5S91.7,70,97.5,70z"/>
						<circle id="Oval_1_" class="st1" cx="33.5" cy="59.5" r="10.5"/>
						<circle id="Oval_2_" class="st2" cx="97" cy="59" r="4"/>
						<path id="Path_10_" class="st2" d="M34,55c-2,0-4,1.7-4,4c0,2,1.7,4,4,4c2,0,4-1.7,4-4C37.7,57,36,55,34,55z"/>
					</g>
					<g id="icon_helpbox-03">
						<circle id="Oval_3_" class="st3" cx="14.5" cy="14.5" r="14.5"/>
					</g>
					<polyline id="Stroke-3" class="st4" points="8,15.6 12,20 21,10 					"/>
				</g>
			</g>
		</g>
	</g>
</g>
</svg>
