<?xml version="1.0" encoding="utf-8"?>
<!-- Generator: Adobe Illustrator 22.1.0, SVG Export Plug-In . SVG Version: 6.00 Build 0)  -->
<svg version="1.1" id="Capa_1" xmlns="http://www.w3.org/2000/svg" xmlns:xlink="http://www.w3.org/1999/xlink" x="0px" y="0px"
	 viewBox="0 0 86.9 86" style="enable-background:new 0 0 86.9 86;" xml:space="preserve">
<style type="text/css">
	.st0{fill:none;stroke:#898989;stroke-width:3;stroke-miterlimit:10;}
	.st1{fill:#E63976;}
	.st2{fill:#FFFFFF;}
</style>
<title>Group 9</title>
<desc>Created with Sketch.</desc>
<circle class="st0" cx="43.4" cy="43" r="15"/>
<circle class="st0" cx="22.2" cy="74" r="10.5"/>
<circle class="st1" cx="70.7" cy="14.4" r="10.5"/>
<circle class="st2" cx="70.7" cy="14.4" r="2.3"/>
<circle class="st0" cx="77.3" cy="64" r="7.6"/>
<circle class="st0" cx="9.8" cy="9.1" r="7.6"/>
<line class="st0" x1="15.1" y1="14.6" x2="32.2" y2="31.7"/>
<line class="st0" x1="54.5" y1="31.6" x2="62.1" y2="23.8"/>
<line class="st0" x1="56.6" y1="51.8" x2="70.1" y2="60.1"/>
<line class="st0" x1="34.5" y1="55.6" x2="28.4" y2="64.9"/>
</svg>
