<?xml version="1.0" encoding="UTF-8"?>
<svg width="8px" height="16px" viewBox="0 0 8 16" version="1.1" xmlns="http://www.w3.org/2000/svg" xmlns:xlink="http://www.w3.org/1999/xlink">
    <!-- Generator: Sketch 47.1 (45422) - http://www.bohemiancoding.com/sketch -->
    <title>Fill 1</title>
    <desc>Created with Sketch.</desc>
    <defs></defs>
    <g id="Inspire:-Home" stroke="none" stroke-width="1" fill="none" fill-rule="evenodd">
        <g transform="translate(-218.000000, -257.000000)" id="Banner" fill="#FFFFFF">
            <g transform="translate(150.000000, 90.000000)">
                <g id="Navigation" transform="translate(570.500000, 178.000000) scale(-1, 1) rotate(-180.000000) translate(-570.500000, -178.000000) translate(0.000000, 157.000000)">
                    <path d="M74.8233764,16 C75.0827163,16 75.3432088,16.0865582 75.5587491,16.2654453 C76.0474607,16.6740001 76.1154653,17.4010893 75.7097425,17.891586 L70.650886,23.9899024 L75.7327949,30.1078387 C76.140823,30.5971813 76.073971,31.3254246 75.5841068,31.7328253 C75.0919373,32.1413802 74.3669383,32.0732877 73.9612154,31.5839452 L68.2672643,24.7273786 C67.9111042,24.300358 67.9111042,23.6794469 68.2661117,23.2524262 L73.9347051,16.4166337 C74.1640768,16.1419555 74.492574,16 74.8233764,16" id="Fill-1"></path>
                </g>
            </g>
        </g>
    </g>
</svg>