<?xml version="1.0" encoding="UTF-8"?>
<svg width="22px" height="22px" viewBox="0 0 22 22" version="1.1" xmlns="http://www.w3.org/2000/svg" xmlns:xlink="http://www.w3.org/1999/xlink">
    <!-- Generator: Sketch 54.1 (76490) - https://sketchapp.com -->
    <title>premium</title>
    <desc>Created with Sketch.</desc>
    <defs>
        <linearGradient x1="48.5417165%" y1="50%" x2="315.927392%" y2="290.651859%" id="linearGradient-1">
            <stop stop-color="#E63976" offset="0%"></stop>
            <stop stop-color="#FFD3E7" offset="100%"></stop>
        </linearGradient>
    </defs>
    <g id="Symbols" stroke="none" stroke-width="1" fill="none" fill-rule="evenodd">
        <g id="multi-colores-v1" transform="translate(-774.000000, -21.000000)" fill="url(#linearGradient-1)" fill-rule="nonzero">
            <g id="premium" transform="translate(774.000000, 21.000000)">
                <path d="M16.5852661,7.45726012 L13.6937714,8.42103578 L11.7150269,5.45300293 C11.3756409,4.9440918 10.6253662,4.94241335 10.2849731,5.45300293 L8.30622865,8.42103578 L5.41473389,7.45726012 C4.79051207,7.2489624 4.17082213,7.79396058 4.30023193,8.4410095 C5.57737731,14.572113 5.38015749,14.4106445 5.70661927,14.7372741 C8.62530518,17.6557923 13.3743591,17.6559601 16.2932129,14.7372741 C16.6196747,14.4108124 16.4251404,14.5598602 17.6996002,8.4410095 C17.8283386,7.79765319 17.2136841,7.24778746 16.5852661,7.45726012 Z M14.8958893,13.6961212 C12.6976013,15.7122955 9.30223082,15.7122955 7.10411071,13.6961212 L6.27612305,9.556015 L8.38545228,10.2591247 C8.75303649,10.3818207 9.15721129,10.2430115 9.37222292,9.92057799 L11,7.47891238 L12.6277771,9.92057799 C12.8426208,10.2430115 13.2467956,10.3816528 13.6145477,10.2591247 L15.723877,9.556015 L14.8958893,13.6961212 Z M11,0 C4.92059326,0 0,4.91975404 0,11 C0,17.0794067 4.91975404,22 11,22 C17.0794067,22 22,17.080246 22,11 C22,4.92059326 17.080246,0 11,0 Z M11,20.28125 C5.87043763,20.28125 1.71875,16.1302338 1.71875,11 C1.71875,5.87043763 5.86976625,1.71875 11,1.71875 C16.1295624,1.71875 20.28125,5.86976625 20.28125,11 C20.28125,16.1295624 16.1302338,20.28125 11,20.28125 Z" id="Shape"></path>
            </g>
        </g>
    </g>
</svg>