<?xml version="1.0" encoding="UTF-8"?>
<svg width="30px" height="32px" viewBox="0 0 30 32" version="1.1" xmlns="http://www.w3.org/2000/svg" xmlns:xlink="http://www.w3.org/1999/xlink">
    <!-- Generator: Sketch 54.1 (76490) - https://sketchapp.com -->
    <title>shopping-cart</title>
    <desc>Created with Sketch.</desc>
    <g id="Symbols" stroke="none" stroke-width="1" fill="none" fill-rule="evenodd">
        <g id="multi-colores-v1" transform="translate(-1189.000000, -17.000000)" fill="#3F3F3F" fill-rule="nonzero">
            <g id="shopping-cart" transform="translate(1189.000000, 17.000000)">
                <path d="M8.55004354,21.0695816 L26.3376505,21.0695816 C28.3545966,21.0695816 30,19.4385685 30,17.4392622 L30,10.0207833 C30,10.0142066 30,10.0010533 30,9.99447663 C30,9.97474663 30,9.9615933 30,9.9418633 C30,9.92870997 30,9.91555664 29.9933653,9.90240331 C29.9933653,9.88924998 29.9867306,9.86951998 29.9867306,9.85636665 C29.9867306,9.84321332 29.9800959,9.83005999 29.9800959,9.81690666 C29.9734612,9.80375332 29.9734612,9.79059999 29.9668265,9.77087 C29.9601919,9.75771666 29.9601919,9.74456333 29.9535572,9.73141 C29.9469225,9.71825667 29.9469225,9.70510334 29.9402878,9.69195001 C29.9336531,9.67879668 29.9270184,9.66564334 29.9203837,9.64591335 C29.913749,9.63276002 29.9071143,9.61960668 29.9004796,9.61303002 C29.8938449,9.59987669 29.8872103,9.58672336 29.8805756,9.57357002 C29.8739409,9.56041669 29.8673062,9.55384003 29.8606715,9.5406867 C29.8540368,9.52753337 29.8407674,9.51438003 29.8341327,9.5012267 C29.827498,9.48807337 29.8208633,9.48149671 29.807594,9.46834337 C29.8009593,9.45519004 29.7876899,9.44861338 29.7810552,9.43546005 C29.7744205,9.42230671 29.7611511,9.41573005 29.7545164,9.40257672 C29.7478817,9.38942339 29.7346124,9.38284672 29.7279777,9.37627005 C29.7147083,9.36311672 29.7080736,9.35654006 29.6948042,9.34338673 C29.6815348,9.33681006 29.6749001,9.32365673 29.6616308,9.31708006 C29.6483614,9.3105034 29.635092,9.29735007 29.6218226,9.2907734 C29.6085532,9.28419673 29.6019185,9.27762007 29.5886491,9.2710434 C29.5753798,9.26446674 29.5621104,9.25789007 29.548841,9.24473674 C29.5355716,9.23816008 29.5223022,9.23158341 29.5090329,9.22500674 C29.4957635,9.21843008 29.4824941,9.21185341 29.4692247,9.20527675 C29.4559553,9.19870008 29.4426859,9.19212342 29.4294166,9.18554675 C29.4161472,9.17897008 29.4028778,9.17897008 29.3896084,9.17239342 C29.376339,9.16581675 29.356435,9.15924009 29.3431656,9.15924009 C29.3298962,9.15924009 29.3166268,9.15266342 29.3099921,9.15266342 C29.290088,9.14608676 29.2768187,9.14608676 29.2569146,9.14608676 C29.2502799,9.14608676 29.2436452,9.13951009 29.2303758,9.13951009 L6.68569533,6.05505388 L6.68569533,2.93771435 C6.68569533,2.90483102 6.68569533,2.87194769 6.67906064,2.84564103 C6.67906064,2.83906437 6.67906064,2.8324877 6.67242595,2.81933437 C6.67242595,2.79960437 6.66579126,2.77987438 6.66579126,2.76014438 C6.65915656,2.74041438 6.65915656,2.72726105 6.65252187,2.70753105 C6.65252187,2.69437772 6.64588718,2.68780106 6.64588718,2.67464772 C6.63925249,2.65491773 6.6326178,2.63518773 6.62598311,2.61545773 C6.62598311,2.60888107 6.61934842,2.59572774 6.61934842,2.58915107 C6.61271373,2.56942107 6.60607904,2.55626774 6.59280965,2.53653775 C6.58617496,2.52996108 6.58617496,2.51680775 6.57954027,2.51023108 C6.57290558,2.49707775 6.56627089,2.48392442 6.55300151,2.47077109 C6.54636682,2.45761776 6.53973212,2.45104109 6.53309743,2.43788776 C6.52646274,2.42473443 6.51982805,2.41815776 6.51319336,2.40500443 C6.50655867,2.3918511 6.49328929,2.37869777 6.4866546,2.36554444 C6.4800199,2.35896777 6.47338521,2.35239111 6.46675052,2.34581444 C6.45348114,2.33266111 6.44021176,2.31950778 6.42694237,2.30635445 C6.42030768,2.29977778 6.41367299,2.29320111 6.4070383,2.28662445 C6.39376892,2.27347112 6.38049954,2.26031779 6.36059546,2.24716446 C6.35396077,2.24058779 6.34069139,2.23401112 6.3340567,2.22743446 C6.32078732,2.21428113 6.30751793,2.20770446 6.29424855,2.19455113 C6.27434448,2.1813978 6.25444041,2.16824447 6.24117102,2.1616678 C6.23453633,2.15509114 6.22790164,2.15509114 6.22126695,2.14851447 C6.19472818,2.13536114 6.16155473,2.12220781 6.13501596,2.10905448 L1.24524859,0.0702881145 C0.787454905,-0.12043519 0.263314305,0.0900181115 0.0709082616,0.543808044 C-0.121497782,0.997597976 0.090812335,1.51715456 0.548606024,1.70787787 L4.88769403,3.5230376 L4.88769403,7.54795699 L4.88769403,8.18589357 L4.88769403,13.0789328 L4.88769403,17.4524155 L4.88769403,22.9768147 C4.88769403,24.8182811 6.28097917,26.3440675 8.07898047,26.5742508 C7.7538806,27.1135374 7.56147456,27.7448973 7.56147456,28.4157172 C7.56147456,30.3952936 9.18697389,32 11.1773812,32 C13.1677886,32 14.7932879,30.3887169 14.7932879,28.4157172 C14.7932879,27.7580506 14.6141512,27.1332674 14.2956861,26.6071341 L22.3502011,26.6071341 C22.0317359,27.1398441 21.8525993,27.7580506 21.8525993,28.4157172 C21.8525993,30.3952936 23.4780986,32 25.468506,32 C27.4589133,32 29.0844126,30.3887169 29.0844126,28.4157172 C29.0844126,26.4427175 27.4589133,24.8314344 25.468506,24.8314344 L8.55004354,24.8314344 C7.51503172,24.8314344 6.67906064,23.9961979 6.67906064,22.9768147 L6.67906064,20.569755 C7.22310531,20.885435 7.86667035,21.0695816 8.55004354,21.0695816 Z M13.008556,28.4091405 C13.008556,29.4087937 12.1858543,30.2177236 11.1840159,30.2177236 C10.1821776,30.2177236 9.35947586,29.4022171 9.35947586,28.4091405 C9.35947586,27.416064 10.1821776,26.6005575 11.1840159,26.6005575 C12.1858543,26.6005575 13.008556,27.4094874 13.008556,28.4091405 Z M27.2996807,28.4091405 C27.2996807,29.4087937 26.476979,30.2177236 25.4751406,30.2177236 C24.4733023,30.2177236 23.6506006,29.4022171 23.6506006,28.4091405 C23.6506006,27.416064 24.4733023,26.6005575 25.4751406,26.6005575 C26.476979,26.6005575 27.2996807,27.4094874 27.2996807,28.4091405 Z M26.3376505,19.2938819 L8.55004354,19.2938819 C7.51503172,19.2938819 6.67906064,18.4586454 6.67906064,17.4392622 L6.67906064,13.0657795 L6.67906064,8.17274023 L6.67906064,7.84390695 L28.2086334,10.7836765 L28.2086334,17.4326855 C28.2086334,18.465222 27.3660276,19.2938819 26.3376505,19.2938819 Z" id="Shape"></path>
            </g>
        </g>
    </g>
</svg>