<?xml version="1.0" encoding="utf-8"?>
<!-- Generator: Adobe Illustrator 22.0.0, SVG Export Plug-In . SVG Version: 6.00 Build 0)  -->
<svg version="1.1" id="Layer_1" xmlns="http://www.w3.org/2000/svg" xmlns:xlink="http://www.w3.org/1999/xlink" x="0px" y="0px"
	 viewBox="0 0 15 15" style="enable-background:new 0 0 15 15;" xml:space="preserve">
<style type="text/css">
	.st0{fill:#78BE00;}
	.st1{fill:#FFFFFF;}
	.st2{fill:#FF0000;}
	.st3{fill:#FFD200;}
</style>
<g>
	<circle class="st0" cx="7.5" cy="7.5" r="7.5"/>
</g>
<g id="Rectangle-4_3_">
	<rect x="4.9" y="6.8" transform="matrix(0.7071 -0.7071 0.7071 0.7071 -4.5119 6.8752)" class="st1" width="2.2" height="4.1"/>
</g>
<g id="Rectangle-4_2_">
	<rect x="4.8" y="6.6" transform="matrix(0.7071 -0.7071 0.7071 0.7071 -2.9645 8.2867)" class="st1" width="7.4" height="2.2"/>
</g>
</svg>
