<?xml version="1.0" encoding="utf-8"?>
<!-- Generator: Adobe Illustrator 22.1.0, SVG Export Plug-In . SVG Version: 6.00 Build 0)  -->
<svg version="1.1" id="Capa_1" xmlns="http://www.w3.org/2000/svg" xmlns:xlink="http://www.w3.org/1999/xlink" x="0px" y="0px"
	 viewBox="0 0 1024 768" style="enable-background:new 0 0 1024 768;" xml:space="preserve">
<style type="text/css">
	.st0{fill:url(#SVGID_1_);}
</style>
<linearGradient id="SVGID_1_" gradientUnits="userSpaceOnUse" x1="128.1877" y1="383.9999" x2="895.811" y2="383.9999">
	<stop  offset="0" style="stop-color:#F651A1"/>
	<stop  offset="0" style="stop-color:#F34A97"/>
	<stop  offset="1" style="stop-color:#E4245E"/>
</linearGradient>
<path class="st0" d="M635.8,384.6l244.6-244.7c20.5-20.5,20.5-53.9,0-74.7l-49.8-49.8c-20.5-20.5-53.9-20.5-74.7,0L511.3,260.1
	L268.1,16.9c-20.5-20.5-53.9-20.5-74.7,0l-49.8,49.8c-20.5,20.5-20.5,53.9,0,74.7l243.2,243.2L143.8,627.4
	c-20.5,20.5-20.5,53.9,0,74.7l49.8,49.8c20.5,20.5,53.9,20.5,74.7,0l242.9-242.8l243.4,243.4c20.5,20.5,53.9,20.5,74.7,0l49.8-49.8
	c20.5-20.5,20.5-53.9,0-74.7L635.8,384.6z"/>
</svg>
