<?xml version="1.0" encoding="UTF-8"?>
<svg width="42px" height="42px" viewBox="0 0 42 42" version="1.1" xmlns="http://www.w3.org/2000/svg" xmlns:xlink="http://www.w3.org/1999/xlink">
    <!-- Generator: Sketch 47.1 (45422) - http://www.bohemiancoding.com/sketch -->
    <title>Button: Add</title>
    <desc>Created with Sketch.</desc>
    <defs></defs>
    <g id="Symbols" stroke="none" stroke-width="1" fill="none" fill-rule="evenodd">
        <g id="Button:-Add">
            <g id="Icon">
                <circle id="Oval" fill="#E63976" cx="21" cy="21" r="21"></circle>
                <rect id="Rectangle-3" fill="#FFFFFF" x="20" y="13" width="2" height="16"></rect>
                <rect id="Rectangle-3" fill="#FFFFFF" transform="translate(21.000000, 21.000000) rotate(-270.000000) translate(-21.000000, -21.000000) " x="20" y="13" width="2" height="16"></rect>
            </g>
        </g>
    </g>
</svg>