<?xml version="1.0" encoding="utf-8"?>
<!-- Generator: Adobe Illustrator 22.0.1, SVG Export Plug-In . SVG Version: 6.00 Build 0)  -->
<svg version="1.1" id="Capa_1" xmlns="http://www.w3.org/2000/svg" xmlns:xlink="http://www.w3.org/1999/xlink" x="0px" y="0px"
	 viewBox="0 0 40.6 54.2" style="enable-background:new 0 0 40.6 54.2;" xml:space="preserve">
<style type="text/css">
	.st0{fill:#E4E3E2;}
</style>
<g>
	<g>
		<path class="st0" d="M39.5,20.3h-3.4v-4.5C36.1,7.1,29,0,20.3,0S4.5,7.1,4.5,15.8v4.5H1.1c-0.6,0-1.1,0.5-1.1,1.1v28.2
			c0,2.5,2,4.5,4.5,4.5h31.6c2.5,0,4.5-2,4.5-4.5V21.5C40.6,20.8,40.1,20.3,39.5,20.3z M23.7,43.9c0,0.3-0.1,0.6-0.3,0.9
			c-0.2,0.2-0.5,0.4-0.8,0.4h-4.5c-0.3,0-0.6-0.1-0.8-0.4s-0.3-0.6-0.3-0.9l0.7-6.4c-1.2-0.8-1.8-2.2-1.8-3.6c0-2.5,2-4.5,4.5-4.5
			c2.5,0,4.5,2,4.5,4.5c0,1.5-0.7,2.8-1.8,3.6L23.7,43.9z M29.4,20.3H11.3v-4.5c0-5,4.1-9,9-9s9,4.1,9,9V20.3z"/>
	</g>
</g>
</svg>
