<?xml version="1.0" encoding="UTF-8"?>
<svg width="27px" height="23px" viewBox="0 0 27 23" version="1.1" xmlns="http://www.w3.org/2000/svg" xmlns:xlink="http://www.w3.org/1999/xlink">
    <!-- Generator: Sketch 47.1 (45422) - http://www.bohemiancoding.com/sketch -->
    <title>icon_share</title>
    <desc>Created with Sketch.</desc>
    <defs></defs>
    <g id="Inspire:-Home" stroke="none" stroke-width="1" fill="none" fill-rule="evenodd">
        <g id="Inspire:-Detail" transform="translate(-570.000000, -279.000000)" fill="#4B4F62">
            <g id="Content" transform="translate(117.000000, 264.000000)">
                <g id="Tab">
                    <g id="Button:-Share" transform="translate(453.000000, 15.000000)">
                        <g id="icon_share">
                            <path d="M1.46158481,12.28125 C0.568069297,12.28125 0,12.6603263 0,13.4435299 L0,21.582009 C0,22.3652127 0.6543028,23 1.46158481,23 L25.4446652,23 C26.2519472,23 26.90625,22.3652127 26.90625,21.582009 L26.90625,13.4038262 C26.90625,12.6210952 26.2972563,12.3011019 25.4446652,12.3011019 C24.5915869,12.3011019 23.9830804,12.4982026 23.9830804,13.4435299 L23.9830804,20.1640181 L2.92316962,20.1640181 C2.92316962,20.1640181 2.92316962,14.6058099 2.92316962,13.4435299 C2.92316962,12.6686766 2.43597468,12.28125 1.46158481,12.28125 Z" id="Fill-1"></path>
                            <path d="M11.6336274,4.88692748 L11.6336274,14.1937023 C11.6336274,14.9842557 12.2734193,15.625 13.0627977,15.625 C13.8521762,15.625 14.4919681,14.9842557 14.4919681,14.1937023 L14.4919681,4.88692748 L18.4355254,8.83635496 C18.71469,9.11593511 19.0805576,9.25572519 19.4459488,9.25572519 C19.81134,9.25572519 20.1767312,9.11593511 20.4558958,8.83635496 C21.0147014,8.27767176 21.0147014,7.37166031 20.4558958,6.8125 L14.0751267,0.421278626 C13.8164469,0.161259542 13.4582015,0 13.0627977,0 C12.667394,0 12.3091486,0.161259542 12.0504688,0.421278626 L5.6687469,6.8125 C5.1104177,7.37166031 5.1104177,8.27767176 5.6687469,8.83635496 C6.22707611,9.39551527 7.13174092,9.39551527 7.69007012,8.83683206 L11.6336274,4.88692748 Z" id="Fill-3"></path>
                        </g>
                    </g>
                </g>
            </g>
        </g>
    </g>
</svg>