<?xml version="1.0" encoding="utf-8"?>
<!-- Generator: Adobe Illustrator 22.0.1, SVG Export Plug-In . SVG Version: 6.00 Build 0)  -->
<svg version="1.1" id="Capa_1" xmlns="http://www.w3.org/2000/svg" xmlns:xlink="http://www.w3.org/1999/xlink" x="0px" y="0px"
	 viewBox="0 0 33.3 33.3" style="enable-background:new 0 0 33.3 33.3;" xml:space="preserve">
<style type="text/css">
	.st0{fill:none;stroke:url(#SVGID_1_);stroke-width:3;stroke-linecap:round;stroke-linejoin:round;stroke-miterlimit:10;}
	.st1{fill:none;stroke:url(#SVGID_2_);stroke-width:3;stroke-linecap:round;stroke-linejoin:round;stroke-miterlimit:10;}
	.st2{fill:none;stroke:url(#SVGID_3_);stroke-width:3;stroke-linecap:round;stroke-linejoin:round;stroke-miterlimit:10;}
</style>
<title>header_cart</title>
<desc>Created with Sketch.</desc>
<g>
	<linearGradient id="SVGID_1_" gradientUnits="userSpaceOnUse" x1="4.3616" y1="5.4114" x2="28.9261" y2="27.8763">
		<stop  offset="0" style="stop-color:#F651A1"/>
		<stop  offset="0" style="stop-color:#F34A97"/>
		<stop  offset="1" style="stop-color:#E4245E"/>
	</linearGradient>
	<circle class="st0" cx="16.6" cy="16.6" r="15.1"/>
	<g>
		<linearGradient id="SVGID_2_" gradientUnits="userSpaceOnUse" x1="9.4473" y1="10.0624" x2="23.8404" y2="23.2253">
			<stop  offset="0" style="stop-color:#F651A1"/>
			<stop  offset="0" style="stop-color:#F34A97"/>
			<stop  offset="1" style="stop-color:#E4245E"/>
		</linearGradient>
		<line class="st1" x1="10.8" y1="10.8" x2="22.5" y2="22.5"/>
		
			<linearGradient id="SVGID_3_" gradientUnits="userSpaceOnUse" x1="10.7807" y1="9.5624" x2="25.1738" y2="22.7253" gradientTransform="matrix(6.123234e-17 1 -1 6.123234e-17 32.7877 -1.3333)">
			<stop  offset="0" style="stop-color:#F651A1"/>
			<stop  offset="0" style="stop-color:#F34A97"/>
			<stop  offset="1" style="stop-color:#E4245E"/>
		</linearGradient>
		<line class="st2" x1="22.5" y1="10.8" x2="10.8" y2="22.5"/>
	</g>
</g>
</svg>
