<?xml version="1.0" encoding="utf-8"?>
<!-- Generator: Adobe Illustrator 22.1.0, SVG Export Plug-In . SVG Version: 6.00 Build 0)  -->
<svg version="1.1" id="Capa_1" xmlns="http://www.w3.org/2000/svg" xmlns:xlink="http://www.w3.org/1999/xlink" x="0px" y="0px"
	 viewBox="0 0 40.7 27" style="enable-background:new 0 0 40.7 27;" xml:space="preserve">
<style type="text/css">
	.st0{fill:none;stroke:#E63976;stroke-width:2;stroke-miterlimit:10;}
	.st1{fill:none;stroke:#E63976;stroke-width:2;stroke-linecap:round;stroke-miterlimit:10;}
	.st2{fill:#E63976;}
</style>
<path class="st0" d="M38.7,13.7c0,0-6.2-11.5-18.3-11.5S1.9,13.8,1.9,13.8S9,25.7,20.5,25.7S38.7,13.7,38.7,13.7z"/>
<path class="st1" d="M11.7,12.8c0.1-1,0.4-1.9,0.9-2.7"/>
<path class="st1" d="M15.2,7.4c1.4-1,3.1-1.6,4.9-1.6c4.5,0,8.1,3.6,8.1,8.1s-3.7,8-8.1,8c-3.6,0-6.6-2.3-7.7-5.5"/>
<circle class="st2" cx="20.1" cy="13.8" r="4"/>
</svg>
