<?xml version="1.0" encoding="utf-8"?>
<!-- Generator: Adobe Illustrator 23.0.3, SVG Export Plug-In . SVG Version: 6.00 Build 0)  -->
<svg version="1.1" id="Capa_1" xmlns="http://www.w3.org/2000/svg" xmlns:xlink="http://www.w3.org/1999/xlink" x="0px" y="0px"
	 viewBox="0 0 573.1 506.4" style="enable-background:new 0 0 573.1 506.4;" xml:space="preserve">
<style type="text/css">
	.st0{fill:#424245;}
	.st1{fill:none;stroke:#424245;stroke-width:34;stroke-miterlimit:10;}
</style>
<g>
	<g>
		<path class="st0" d="M388.2,270.3c-7.4-8.2-20-8.9-28.2-1.6l-48.1,43V65.8c0-11-9-20-20-20s-20,8.9-20,20v245.9l-48.1-43
			c-8.2-7.4-20.9-6.6-28.2,1.6c-7.4,8.2-6.6,20.9,1.6,28.2l72.7,65c6.3,5.6,14.1,8.4,22,8.4s15.7-2.8,22-8.4l72.7-65
			C394.8,291.2,395.5,278.6,388.2,270.3z"/>
	</g>
</g>
<path class="st1" d="M552,248v224.1c0,6.6-5.4,12-12,12H33.8c-6.6,0-12-5.4-12-12V242.3"/>
</svg>
