<?xml version="1.0" encoding="utf-8"?>
<!-- Generator: Adobe Illustrator 22.1.0, SVG Export Plug-In . SVG Version: 6.00 Build 0)  -->
<svg version="1.1" id="Capa_1" xmlns="http://www.w3.org/2000/svg" xmlns:xlink="http://www.w3.org/1999/xlink" x="0px" y="0px"
	 viewBox="0 0 19 20" style="enable-background:new 0 0 19 20;" xml:space="preserve">
<style type="text/css">
	.st0{fill:none;stroke:#43434C;stroke-width:2;stroke-linecap:round;stroke-linejoin:round;stroke-miterlimit:10;}
	.st1{fill:#43434C;}
</style>
<title>Group 2</title>
<desc>Created with Sketch.</desc>
<g id="Mobile-:-Store---Home" transform="translate(-222.000000, -881.000000)">
	<g id="Picks" transform="translate(10.000000, 872.000000)">
		<g id="Filters" transform="translate(204.000000, 0.000000)">
		</g>
	</g>
</g>
<path id="Stroke-1" class="st0" d="M5.6,4H18"/>
<path id="Stroke-3" class="st0" d="M5.6,10H18"/>
<path id="Stroke-5" class="st0" d="M5.6,16H18"/>
<circle class="st1" cx="1.7" cy="4" r="1.7"/>
<circle class="st1" cx="1.7" cy="10" r="1.7"/>
<circle class="st1" cx="1.7" cy="16" r="1.7"/>
</svg>
