<?xml version="1.0" encoding="UTF-8"?>
<svg width="15px" height="15px" viewBox="0 0 15 15" version="1.1" xmlns="http://www.w3.org/2000/svg" xmlns:xlink="http://www.w3.org/1999/xlink">
    <!-- Generator: Sketch 47.1 (45422) - http://www.bohemiancoding.com/sketch -->
    <title>Group 2</title>
    <desc>Created with Sketch.</desc>
    <defs></defs>
    <g id="Users" stroke="none" stroke-width="1" fill="none" fill-rule="evenodd" opacity="0.360450634">
        <g id="Mobile-:-Users---Edit-Profile" transform="translate(-68.000000, -1612.000000)" fill="#383C40">
            <g id="Direcciones" transform="translate(0.000000, 1365.000000)">
                <g id="Password-Reset-Copy-2" transform="translate(10.000000, 62.000000)">
                    <g id="Button" transform="translate(0.000000, 164.000000)">
                        <g id="Group-2" transform="translate(58.000000, 21.000000)">
                            <rect id="Rectangle-4" x="5" y="0" width="5" height="15"></rect>
                            <rect id="Rectangle-4" transform="translate(7.500000, 7.500000) rotate(-270.000000) translate(-7.500000, -7.500000) " x="5" y="0" width="5" height="15"></rect>
                        </g>
                    </g>
                </g>
            </g>
        </g>
    </g>
</svg>