<?xml version="1.0" encoding="utf-8"?>
<!-- Generator: Adobe Illustrator 23.0.3, SVG Export Plug-In . SVG Version: 6.00 Build 0)  -->
<svg version="1.1" id="Layer_1" xmlns="http://www.w3.org/2000/svg" xmlns:xlink="http://www.w3.org/1999/xlink" x="0px" y="0px"
	 viewBox="0 0 557.5 569.3" style="enable-background:new 0 0 557.5 569.3;" xml:space="preserve">
<style type="text/css">
	.st0{clip-path:url(#SVGID_2_);fill:#F5E6E7;}
	.st1{clip-path:url(#SVGID_2_);}
	.st2{fill:none;stroke:#FEFEFE;}
	.st3{opacity:0.3;clip-path:url(#SVGID_2_);fill:#F4C4C9;enable-background:new    ;}
	.st4{clip-path:url(#SVGID_2_);fill:none;stroke:#FEFEFE;}
	.st5{clip-path:url(#SVGID_2_);fill:#F4C4C9;fill-opacity:0.7;}
	.st6{clip-path:url(#SVGID_2_);fill:#F4C4C9;fill-opacity:0.4;}
	.st7{fill:#F2F2F2;}
	.st8{fill:#E6E6E6;}
	.st9{fill:#FFFFFF;}
	.st10{fill:#FFE6EC;}
	.st11{fill:#172D49;}
	.st12{fill:#FAB6C8;}
	.st13{fill:#FFCDD9;}
	.st14{fill:#FFA6BC;}
	.st15{fill:#E43B76;}
	.st16{fill:#CC2963;}
	.st17{fill:#F478AA;}
	.st18{fill:none;stroke:#CC2963;stroke-width:2;stroke-linecap:round;stroke-linejoin:round;stroke-miterlimit:10;}
	.st19{fill:#203550;}
	.st20{fill:#EDF5FF;}
	.st21{fill:#FCEFF0;}
	.st22{opacity:0.3;fill:#F4C4C9;enable-background:new    ;}
	.st23{fill:#F4C4C9;fill-opacity:0.7;}
	.st24{opacity:0.3;enable-background:new    ;}
	.st25{fill:#F4C4C9;}
	.st26{fill:#5B9CC9;}
	.st27{fill:#71B5E4;}
	.st28{fill:#FEFEFE;}
	.st29{fill:#71C9B4;}
	.st30{fill:#FFE194;}
	.st31{fill-rule:evenodd;clip-rule:evenodd;fill:none;stroke:#FEFEFE;}
	.st32{fill-rule:evenodd;clip-rule:evenodd;fill:none;stroke:#FEFEFE;stroke-miterlimit:10;}
	.st33{fill:#EF8087;}
	.st34{fill:#ABCC72;}
	.st35{fill:#E23B5B;}
	.st36{fill:#F67F9B;}
	.st37{fill-rule:evenodd;clip-rule:evenodd;fill:#E25F1A;}
	.st38{fill-rule:evenodd;clip-rule:evenodd;fill:#172D49;}
	.st39{fill-rule:evenodd;clip-rule:evenodd;fill:#FEFEFE;}
	.st40{fill-rule:evenodd;clip-rule:evenodd;fill:#F7BFB6;}
	.st41{clip-path:url(#SVGID_4_);}
	.st42{fill-rule:evenodd;clip-rule:evenodd;fill:#FFFFFF;}
	.st43{fill-rule:evenodd;clip-rule:evenodd;fill:#ED767E;}
	.st44{fill-rule:evenodd;clip-rule:evenodd;fill:#276B87;}
	.st45{clip-path:url(#SVGID_6_);}
	.st46{fill-rule:evenodd;clip-rule:evenodd;fill:#204861;}
	.st47{clip-path:url(#SVGID_8_);}
	.st48{clip-path:url(#SVGID_10_);}
	.st49{clip-path:url(#SVGID_12_);}
	.st50{fill-rule:evenodd;clip-rule:evenodd;fill:#F49804;}
	.st51{clip-path:url(#SVGID_14_);}
	.st52{fill:#EBEEED;}
	.st53{clip-path:url(#SVGID_16_);}
	.st54{clip-path:url(#SVGID_18_);}
	.st55{clip-path:url(#SVGID_20_);}
	.st56{fill-rule:evenodd;clip-rule:evenodd;fill:#009B8E;}
	.st57{fill-rule:evenodd;clip-rule:evenodd;fill:#E43B76;}
	.st58{clip-path:url(#SVGID_22_);}
	.st59{clip-path:url(#SVGID_24_);}
	.st60{fill:#4BADB3;}
	.st61{fill:#F49804;}
	.st62{fill:#CEE7E8;}
	.st63{opacity:0.6;fill:#CEE7E8;}
	.st64{opacity:0.35;fill:#9EDBDE;}
	.st65{opacity:0.66;fill:#9EDBDE;}
	.st66{fill:#9EDBDE;}
	.st67{fill:#BDE3E5;}
	.st68{fill:#AB4764;}
	.st69{fill:#CCE7FC;}
	.st70{fill:#E0F0FC;}
	.st71{fill:#76ADB0;}
	.st72{fill:#89C9CC;}
	.st73{fill:none;stroke:#56ABB0;stroke-miterlimit:10;}
	.st74{fill:#D1ECED;}
	.st75{fill:#F7BA90;}
	.st76{fill:#FFD97D;}
	.st77{fill:#93E2CE;}
	.st78{fill:#182D49;}
	.st79{fill:#FFE178;}
	.st80{fill:#FE6A84;}
	.st81{fill:#EE7E9A;}
	.st82{fill:none;stroke:#FFFFFF;stroke-miterlimit:10;}
	.st83{opacity:0.6;fill:#9EDBDE;}
	.st84{opacity:0.5;}
	.st85{fill:none;}
	.st86{fill:#E73C8D;}
	.st87{fill:#FAD65D;}
	.st88{fill:#FDF3F1;}
	.st89{fill:#FF70A5;}
	.st90{fill:#B7E5E8;}
	.st91{fill:#EBF2F2;}
	.st92{fill:none;stroke:#BDE3E5;stroke-width:2;stroke-miterlimit:10;}
	.st93{fill:url(#SVGID_26_);}
	.st94{fill:none;stroke:#FFFFFF;stroke-width:2;stroke-linecap:round;stroke-linejoin:round;stroke-miterlimit:10;}
	.st95{opacity:9.000000e-02;fill:#695A7A;}
	.st96{opacity:6.000000e-02;fill:#695A7A;}
	.st97{fill:none;stroke:#C6C4CE;stroke-miterlimit:10;}
	.st98{fill:#C6C4CE;}
	.st99{fill:#69627E;}
	.st100{fill:#2E3253;}
	.st101{opacity:0.15;fill:#69627E;}
	.st102{opacity:0.7;fill:none;stroke:#2E3253;stroke-miterlimit:10;}
	.st103{fill:#868096;}
	.st104{opacity:0.23;fill:#C6C4CE;}
	.st105{opacity:0.55;fill:none;stroke:#2E3253;stroke-miterlimit:10;}
	.st106{fill:#8E5A7A;}
	.st107{fill:#FAA244;}
	.st108{fill:#E0E3ED;}
	.st109{fill:#D3D1D9;}
	.st110{fill:none;stroke:#4E5275;stroke-miterlimit:10;}
	.st111{fill:#8F5B7B;}
	.st112{fill:#DE8E87;}
	.st113{fill:#F0C1BC;}
	.st114{fill:none;stroke:#2E3253;stroke-miterlimit:10;}
	.st115{fill:#1D9F9D;}
	.st116{fill:#0E7C74;}
	.st117{fill:#259E78;}
	.st118{fill:#3FC7A1;}
	.st119{fill:#D4D5E6;}
	.st120{fill:#40B1BD;}
	.st121{opacity:0.5;fill:#2E3253;}
	.st122{fill:#3C9B95;}
	.st123{fill:#2EC6B7;}
	.st124{fill:#6D2953;}
	.st125{fill:#4BBCB1;}
	.st126{fill:#009BA8;}
	.st127{fill:#3DC8A1;}
	.st128{opacity:0.45;fill:url(#SVGID_28_);}
	.st129{opacity:0.7;}
	.st130{opacity:0.7;fill:none;stroke:#C6C4CE;stroke-miterlimit:10;}
	.st131{opacity:0.14;fill:#FFFFFF;}
	.st132{opacity:9.000000e-02;}
	.st133{fill:#695A7A;}
	.st134{fill:none;stroke:#8E5A7A;stroke-width:0.5;stroke-miterlimit:10;}
	.st135{fill:none;stroke:#8E5A7A;stroke-miterlimit:10;}
	.st136{fill:#302D9C;}
	.st137{fill:#3D4278;}
	.st138{clip-path:url(#SVGID_32_);}
	.st139{fill:#C73367;}
	.st140{fill:#7B7FD6;}
	.st141{fill:#72C0C4;}
	.st142{fill:#6E72BF;}
	.st143{clip-path:url(#SVGID_36_);}
	.st144{opacity:0.3;fill:#695A7A;}
	.st145{fill:#ED767E;}
	.st146{clip-path:url(#SVGID_40_);}
	.st147{fill:#F2979D;}
	.st148{fill:none;stroke:#695A7A;stroke-miterlimit:10;}
	.st149{fill:#383D75;}
	.st150{fill:none;stroke:#9EDBDE;stroke-width:3;stroke-miterlimit:10;}
	.st151{clip-path:url(#SVGID_44_);}
	.st152{opacity:0.36;fill:#695A7A;}
	.st153{fill:none;stroke:#259E78;stroke-miterlimit:10;}
	.st154{fill:#92879F;}
	.st155{fill:none;stroke:#FEFEFE;stroke-miterlimit:10;}
	.st156{fill:#ECB2AC;}
	.st157{fill:#D0CBD5;}
	.st158{fill:none;stroke:#B6AFBF;stroke-miterlimit:10;}
	.st159{fill:#6A5A7A;}
	.st160{fill:#B4AABD;}
	.st161{fill:#8F849C;}
	.st162{fill:#827391;}
	.st163{clip-path:url(#SVGID_48_);}
	.st164{fill:#1D9E9C;}
	.st165{fill:#4D5286;}
	.st166{fill:#E64783;}
	.st167{fill:none;stroke:#4D5286;stroke-width:3;stroke-miterlimit:10;}
	.st168{clip-path:url(#SVGID_50_);}
	.st169{opacity:4.000000e-02;fill:#695A7A;}
	.st170{opacity:0.12;fill:#695A7A;}
	.st171{fill:none;stroke:#C6C4CE;stroke-width:3;stroke-miterlimit:10;}
	.st172{fill:none;stroke:#1D9F9D;stroke-miterlimit:10;}
	.st173{opacity:7.000000e-02;fill:none;stroke:#695A7A;stroke-miterlimit:10;}
	.st174{opacity:4.000000e-02;fill:#FFFFFF;}
	.st175{opacity:7.000000e-02;fill:#FFFFFF;}
	.st176{fill:#B6AFBF;}
	.st177{clip-path:url(#SVGID_52_);}
	.st178{clip-path:url(#SVGID_54_);}
	.st179{opacity:0.3;fill:#A3D0C7;}
	.st180{opacity:0.37;fill:#A3D0C7;}
	.st181{fill:#EAACA5;}
	.st182{fill:none;stroke:#1D9E9C;stroke-miterlimit:10;}
	.st183{fill:none;stroke:#7A2B36;stroke-miterlimit:10;}
	.st184{fill:none;stroke:#0E7C74;stroke-width:1.7183;stroke-miterlimit:10;}
	.st185{fill:#D2EFFF;}
	.st186{fill:none;stroke:#D2EFFF;stroke-miterlimit:10;}
	.st187{fill:#F478AA;stroke:#F478AA;stroke-linejoin:round;stroke-miterlimit:10;}
	.st188{fill:#EA5C9D;}
	.st189{fill:#162C49;}
	.st190{fill:#E43B76;stroke:#E43B76;stroke-linecap:round;stroke-linejoin:round;stroke-miterlimit:10;}
	.st191{clip-path:url(#SVGID_56_);fill:#D2EFFF;}
	.st192{clip-path:url(#SVGID_56_);fill:#FFFFFF;}
	.st193{clip-path:url(#SVGID_56_);}
	.st194{fill:#59BCA4;}
	.st195{fill:none;stroke:#FDF6F1;stroke-miterlimit:10;}
	.st196{fill:#FDF6F1;}
	.st197{fill:#71B6E5;}
	.st198{fill:url(#SVGID_57_);}
	.st199{fill:#FFDEF0;}
	.st200{fill:#D7ECFC;}
	.st201{fill:#A5E5E8;}
	.st202{fill:#FF385C;}
	.st203{fill:#FF79AC;}
	.st204{fill:#6FA6D5;}
	.st205{fill:#2A679C;}
	.st206{fill:#C4DBF0;}
	.st207{fill:#BBD2E8;}
	.st208{fill:none;stroke:#2A679C;stroke-width:3;stroke-linecap:round;stroke-linejoin:round;stroke-miterlimit:10;}
	.st209{fill:#9BC2E6;}
	.st210{fill:#FCF1CF;}
	.st211{fill:#FCE6A1;}
	.st212{clip-path:url(#Fill-1_9_);}
	.st213{fill:#FFE0E3;}
	.st214{fill:#FFC400;}
	.st215{fill:#FFF0F1;}
	.st216{fill:#CFE9FF;}
	.st217{fill:#FFC7CB;}
	.st218{fill:none;stroke:#FFD9DC;stroke-miterlimit:10;}
	.st219{fill:none;stroke:#FF385C;stroke-width:2;stroke-miterlimit:10;}
	.st220{fill-rule:evenodd;clip-rule:evenodd;fill:#FCF1CF;}
	.st221{fill:#F9E29C;}
	.st222{fill:#B6E3D6;}
	.st223{fill:#5497C4;}
	.st224{fill:#3977A1;}
	.st225{fill-rule:evenodd;clip-rule:evenodd;fill:#ABCC72;}
	.st226{fill:none;stroke:#3977A1;stroke-width:3;stroke-miterlimit:10;}
	.st227{fill:#FBE1E2;}
	.st228{fill:#E43C76;}
	.st229{fill:#FAD8CC;}
	.st230{fill:#ECDAC9;}
	.st231{fill:#FDEEEB;}
	.st232{fill:none;stroke:#E43C76;}
	.st233{fill:#E9E9E9;}
	.st234{fill:#3B9CD2;}
	.st235{fill:none;stroke:#F4C4C9;stroke-width:2;}
	.st236{fill:#E1EFF1;}
	.st237{fill:#D0E2E7;}
	.st238{fill:#B7D1D7;}
	.st239{fill:#F7F9F9;}
	.st240{fill:#F8C7B5;}
	.st241{fill:none;stroke:#FBE1E2;}
	.st242{fill:none;stroke:#FBE1E2;stroke-width:2;}
	.st243{fill:#9786B3;}
	.st244{fill:#83749F;}
	.st245{fill:#6B5F89;}
	.st246{fill:#83CCD9;}
	.st247{fill:#EE7B7D;}
	.st248{fill:#F8BA7A;}
	.st249{fill:#A7CC79;}
	.st250{fill:#DA717C;}
	.st251{fill:#C56170;}
	.st252{fill:#9685BD;}
	.st253{fill:#DDECFC;}
	.st254{fill:none;stroke:#FFFFFF;stroke-width:4.2057;stroke-linecap:round;stroke-linejoin:round;stroke-miterlimit:10;}
	.st255{fill:#A7E3E8;}
	.st256{fill:none;stroke:#FFFFFF;stroke-width:3.1542;stroke-linecap:round;stroke-linejoin:round;stroke-miterlimit:10;}
	.st257{fill:none;stroke:#F478AA;stroke-width:2;stroke-miterlimit:10;}
	.st258{fill:none;stroke:#A7E3E8;stroke-width:3;stroke-miterlimit:10;}
	.st259{fill:none;stroke:#A7E3E8;stroke-width:2;stroke-linecap:round;stroke-linejoin:round;stroke-miterlimit:10;}
	.st260{fill:none;stroke:#FFFFFF;stroke-width:2;stroke-linecap:round;stroke-linejoin:round;}
	.st261{fill:#DDECFC;stroke:#FFFFFF;stroke-width:2;}
	.st262{opacity:0.75;fill:#FCF3EF;}
	.st263{fill:#A0D0DE;}
	.st264{fill:#77ADBD;}
	.st265{fill:#F0E2E3;}
	.st266{fill:#568B9C;}
	.st267{fill:#E63976;}
	.st268{fill:none;stroke:#77ADBD;stroke-width:5;stroke-linecap:round;stroke-linejoin:round;stroke-miterlimit:10;}
	.st269{fill:#E7487D;}
	.st270{fill:#EA7DA5;}
	.st271{fill:#EE5A92;}
	.st272{fill:#F28EB7;}
	.st273{fill:#FBEEED;}
	.st274{fill:#7A2B36;}
	.st275{fill-rule:evenodd;clip-rule:evenodd;fill:#182D49;}
	.st276{fill-rule:evenodd;clip-rule:evenodd;fill:#7D8FFC;}
	.st277{fill-rule:evenodd;clip-rule:evenodd;fill:#FFA79B;}
	.st278{fill-rule:evenodd;clip-rule:evenodd;fill:url(#SVGID_58_);}
	.st279{fill-rule:evenodd;clip-rule:evenodd;fill:url(#SVGID_59_);}
	.st280{fill-rule:evenodd;clip-rule:evenodd;fill:url(#SVGID_60_);}
	.st281{fill-rule:evenodd;clip-rule:evenodd;fill:#00111A;}
	.st282{fill-rule:evenodd;clip-rule:evenodd;fill:#8FD2FF;}
	.st283{fill:none;stroke:#FFFDFF;stroke-width:8.7882;stroke-linecap:square;stroke-linejoin:bevel;stroke-miterlimit:10;}
	.st284{clip-path:url(#SVGID_61_);fill:#E3E3E5;}
	.st285{opacity:0.3;clip-path:url(#SVGID_62_);fill:#949494;enable-background:new    ;}
	.st286{clip-path:url(#SVGID_63_);fill:none;stroke:#FFFDFF;stroke-width:8.7882;stroke-linecap:square;stroke-miterlimit:10;}
	.st287{clip-path:url(#SVGID_64_);fill:none;stroke:#FFFDFF;stroke-width:8.7882;stroke-linecap:square;stroke-miterlimit:10;}
	.st288{clip-path:url(#SVGID_65_);fill:none;stroke:#FFFDFF;stroke-width:8.7882;stroke-linecap:square;stroke-miterlimit:10;}
	.st289{clip-path:url(#SVGID_66_);fill:none;stroke:#FFFDFF;stroke-width:8.7882;stroke-linecap:square;stroke-miterlimit:10;}
	.st290{clip-path:url(#SVGID_67_);fill:#CAD658;stroke:#FFFDFF;stroke-width:7;stroke-miterlimit:10;}
	.st291{opacity:0.3;clip-path:url(#SVGID_68_);fill:#949494;enable-background:new    ;}
	.st292{opacity:0.3;clip-path:url(#SVGID_69_);fill:#949494;enable-background:new    ;}
	.st293{opacity:0.3;clip-path:url(#SVGID_70_);fill:#606060;enable-background:new    ;}
	.st294{clip-path:url(#SVGID_71_);}
	.st295{fill:#F8F6F4;}
	.st296{clip-path:url(#SVGID_72_);fill:none;}
	.st297{clip-path:url(#SVGID_74_);}
	.st298{opacity:4.000000e-02;}
	.st299{opacity:6.000000e-02;}
	.st300{opacity:0.2;}
	.st301{fill:#008E91;}
	.st302{opacity:0.12;}
	.st303{clip-path:url(#SVGID_76_);}
	.st304{fill:#F0B64C;}
	.st305{fill:none;stroke:#9A722A;stroke-width:3;stroke-linecap:round;stroke-linejoin:round;stroke-miterlimit:10;}
	.st306{fill:#9A722A;}
	.st307{opacity:0.91;fill:#D0CBD5;}
	.st308{fill:none;stroke:#6A5A7A;stroke-miterlimit:10;}
	.st309{clip-path:url(#SVGID_78_);}
	.st310{clip-path:url(#SVGID_80_);}
	.st311{fill:none;stroke:#4D5286;stroke-width:4;stroke-miterlimit:10;}
	.st312{opacity:0.39;fill:#F0C1BC;}
	.st313{fill:#F9E5E3;}
	.st314{fill:none;stroke:#ECB2AC;stroke-miterlimit:10;}
	.st315{opacity:0.39;fill:#FFFFFF;}
	.st316{opacity:0.62;fill:#F0C1BC;}
	.st317{fill:#E33174;}
	.st318{fill:#AAA0B4;}
	.st319{opacity:0.5;fill:#827391;}
	.st320{fill:none;stroke:#6A5A7A;stroke-linecap:round;stroke-linejoin:round;stroke-miterlimit:10;}
	.st321{opacity:0.4;fill:#827391;}
	.st322{fill:none;stroke:#D7D2DA;stroke-linecap:round;stroke-linejoin:round;stroke-miterlimit:10;}
	.st323{opacity:0.77;fill:#B4AABD;}
	.st324{fill:none;stroke:#FFFFFF;stroke-linecap:round;stroke-linejoin:round;stroke-miterlimit:10;}
	.st325{fill:#D6D5DC;}
	.st326{fill:#14183E;}
	.st327{fill:#D7D2DA;}
	.st328{opacity:0.13;fill:#6A5A7A;}
	.st329{fill:#116C6F;}
	.st330{fill:none;stroke:#0E7C74;stroke-width:2;stroke-linecap:round;stroke-linejoin:round;stroke-miterlimit:10;}
	.st331{fill:#F5D8D5;}
	.st332{fill:#EBA49B;}
	.st333{fill:none;stroke:#F5D8D5;stroke-width:3;stroke-miterlimit:10;}
	.st334{fill:#434865;}
	.st335{opacity:4.000000e-02;fill:none;stroke:#FFFFF0;stroke-width:2;stroke-miterlimit:10;}
	.st336{opacity:4.000000e-02;fill:#FFFFF0;}
	.st337{fill:#005D6C;}
	.st338{fill:#DEDEE0;}
	.st339{fill:#91B5CC;}
	.st340{fill:#B5B5B9;}
	.st341{fill:#E76E60;}
	.st342{fill:#DB6270;}
	.st343{fill:#575B76;}
	.st344{fill:none;stroke:#434865;stroke-width:2;stroke-miterlimit:10;}
	.st345{fill:none;stroke:#2E3253;stroke-width:2;stroke-miterlimit:10;}
	.st346{fill:none;stroke:#8E5A7A;stroke-width:3;stroke-miterlimit:10;}
	.st347{fill:#0E7C74;stroke:#1D9E9C;stroke-width:2;stroke-linecap:round;stroke-linejoin:round;stroke-miterlimit:10;}
	.st348{opacity:0.46;fill:#FFFFFF;}
	.st349{fill:none;stroke:#69627E;stroke-width:2;stroke-linecap:round;stroke-linejoin:round;stroke-miterlimit:10;}
	.st350{fill:none;stroke:#2E3253;stroke-width:2;stroke-linejoin:round;stroke-miterlimit:10;}
	.st351{fill:none;stroke:#2E3253;stroke-width:1.5;stroke-linecap:round;stroke-linejoin:round;stroke-miterlimit:10;}
	.st352{fill:none;stroke:#2E3253;stroke-width:2;stroke-linecap:round;stroke-linejoin:round;stroke-miterlimit:10;}
	.st353{fill:#464E6E;}
	.st354{opacity:7.000000e-02;fill:#FFFFF0;}
	.st355{fill:#EDB6B0;}
	.st356{fill:#EB8B8B;}
	.st357{opacity:0.36;fill:none;stroke:#FFFFF0;stroke-width:2;stroke-miterlimit:10;}
	.st358{fill:#EBADA6;}
	.st359{fill:#3A3F5C;}
	.st360{fill:#3C4263;}
	.st361{fill:#24284A;}
	.st362{fill-rule:evenodd;clip-rule:evenodd;fill:#1D9E9C;}
	.st363{fill:#E4EDF8;}
	.st364{fill:none;stroke:#C8DBF4;stroke-miterlimit:10;}
	.st365{opacity:0.54;fill:#9DC3F3;}
	.st366{fill:#D4E4F8;}
	.st367{fill:#C8DBF4;}
	.st368{fill:#9FC1F4;}
	.st369{opacity:0.3;fill:#9FC1F4;}
	.st370{fill:#02707C;}
	.st371{fill:#501E4D;}
	.st372{fill:#5E5853;}
	.st373{fill:#9DC3F3;}
	.st374{fill:#FFB27D;}
	.st375{fill:#DD732C;}
	.st376{fill:#993D86;}
	.st377{fill:#FFCCCC;}
	.st378{fill:#E77787;}
	.st379{fill:#FF894B;}
	.st380{fill:none;stroke:#FFFFFF;stroke-width:0.5;stroke-miterlimit:10;}
	.st381{opacity:0.35;}
	.st382{filter:url(#Adobe_OpacityMaskFilter);}
	.st383{filter:url(#Adobe_OpacityMaskFilter_1_);}
	.st384{mask:url(#SVGID_81_);fill:url(#SVGID_82_);}
	.st385{opacity:0.4;fill:#FFFFFF;}
	.st386{opacity:0.4;fill:#FFF7CC;}
	.st387{font-family:'Sarabun-Light';}
	.st388{font-size:13.9949px;}
	.st389{fill-rule:evenodd;clip-rule:evenodd;fill:#FFCCCC;}
	.st390{fill:#BA7529;}
	.st391{fill:#E09D51;}
	.st392{fill:#D9903F;}
</style>
<path class="st363" d="M159.8,29.7c-81,2.7-122.3,66.5-129.3,78.4C12,139.7,2.2,176.9,0.6,213.7c-3,69.1,23.1,127.8,63,153
	c23.6,14.9,41.8,44,51.6,80.6c15.7,58.3,54.7,98.3,102.1,97.3c16.6-0.4,33.3-5.8,48.4-15.8c32.8-21.6,55.5-9.3,88-0.2
	c34,9.5,72.2,5,104.3-10.9c36.6-18.1,66.4-51.7,81.4-91.5c20.6-54.9,12.5-118.1-12.2-170c-7-14.7-15.8-29.3-29.5-37.1
	c-10.8-6.2-23.7-7.3-34.8-12.9c-67.4-33.7-87.5-87-115.5-110.3C322.5,75,237.9,27.1,159.8,29.7z"/>
<defs>
	<filter id="Adobe_OpacityMaskFilter" filterUnits="userSpaceOnUse" x="114.9" y="436.7" width="403.7" height="97.3">
		<feFlood  style="flood-color:white;flood-opacity:1" result="back"/>
		<feBlend  in="SourceGraphic" in2="back" mode="normal"/>
	</filter>
</defs>
<mask maskUnits="userSpaceOnUse" x="114.9" y="436.7" width="403.7" height="97.3" id="SVGID_2_">
	<g class="st382">
		<defs>
			<filter id="Adobe_OpacityMaskFilter_1_" filterUnits="userSpaceOnUse" x="72" y="436.7" width="1015.9" height="100.6">
				<feFlood  style="flood-color:white;flood-opacity:1" result="back"/>
				<feBlend  in="SourceGraphic" in2="back" mode="normal"/>
			</filter>
		</defs>
		<mask maskUnits="userSpaceOnUse" x="72" y="436.7" width="1015.9" height="100.6" id="SVGID_2_">
		</mask>
		<linearGradient id="SVGID_4_" gradientUnits="userSpaceOnUse" x1="579.9854" y1="563.2267" x2="579.9854" y2="380.9742">
			<stop  offset="0" style="stop-color:#0D0D0D"/>
			<stop  offset="1" style="stop-color:#FFFFFF"/>
		</linearGradient>
		<path style="mask:url(#SVGID_2_);fill:url(#SVGID_4_);" d="M149.3,486.1c-1.8,3.3-6.3,6.8-15.4,7.2s-17.2-0.9-18.8-4.5
			c-1.5-3.3,5.7-7.9,14.8-8.4S151,482.8,149.3,486.1z M135.6,456.6c-5.6,0.3-10.1,3.1-9.2,5.2c1,2.2,6,3,11.7,2.8
			c5.6-0.3,8.5-2.4,9.6-4.5C148.7,458.1,141.2,456.4,135.6,456.6z M177.5,460.6c-10.4,0.5-18.5,5.8-16.8,9.5
			c1.8,4,11.1,5.6,21.4,5.1c10.4-0.5,15.6-4.4,17.6-8.2C201.6,463.2,187.8,460.1,177.5,460.6z M91.8,437.8c-12,0.6-21.4,6.7-19.5,11
			c2.1,4.6,12.8,6.4,24.8,5.9c12-0.6,18-5.1,20.4-9.5C119.7,440.8,103.8,437.2,91.8,437.8z M207.4,475.9
			c-16.5,0.8-29.6,9.2-26.9,15.2c2.9,6.4,17.7,8.9,34.2,8.1s24.9-7.1,28.1-13.1C245.9,480.1,223.9,475.1,207.4,475.9z M244.7,456.3
			c-6.2,0.3-11,3.5-10,5.7c1.1,2.4,6.6,3.3,12.8,3c6.2-0.3,9.3-2.6,10.5-4.9C259.1,457.8,250.9,456,244.7,456.3z M274.4,498.3
			c-9.1,0.4-16.2,5.1-14.8,8.4c1.6,3.5,9.7,4.9,18.8,4.5c9.1-0.4,13.7-3.9,15.4-7.2C295.6,500.6,283.5,497.9,274.4,498.3z
			 M317.9,463.7c-9.4,0.4-16.9,5.3-15.4,8.7c1.6,3.7,10.1,5.1,19.6,4.6c9.4-0.4,14.2-4,16-7.5C339.9,466.1,327.3,463.3,317.9,463.7z
			 M298.6,436.8c-11.6,0.5-20.8,6.5-18.9,10.7c2,4.5,12.4,6.2,24.1,5.7c11.6-0.5,17.5-5,19.7-9.2
			C325.8,439.7,310.3,436.2,298.6,436.8z M349.4,443.5c-9.3,0.4-16.6,5.2-15.1,8.5c1.6,3.6,9.9,5,19.2,4.5c9.3-0.4,13.9-4,15.7-7.4
			C371,445.9,358.7,443.1,349.4,443.5z M332.2,478.9c-6,0.3-10.7,3.4-9.8,5.5c1,2.3,6.4,3.2,12.4,2.9c6-0.3,9-2.6,10.2-4.8
			C346.2,480.4,338.2,478.6,332.2,478.9z M374.9,459.4c-13.8,0.6-24.7,7.7-22.5,12.7c2.4,5.3,14.8,7.4,28.6,6.8
			c13.8-0.6,20.8-5.9,23.4-11C407.1,462.9,388.7,458.8,374.9,459.4z M328.1,490c-12.7,0.6-22.7,7.1-20.7,11.7
			c2.2,4.9,13.6,6.8,26.3,6.2c12.7-0.6,19.1-5.4,21.6-10.1C357.8,493.2,340.8,489.4,328.1,490z M304.1,518.8
			c-10.7,0.5-19.2,6-17.4,9.9c1.9,4.2,11.5,5.8,22.2,5.3s16.1-4.6,18.2-8.5C329.1,521.5,314.8,518.3,304.1,518.8z M251.1,513.7
			c-7.1,0.3-12.7,4-11.5,6.5c1.2,2.7,7.6,3.8,14.7,3.5c7.1-0.3,10.7-3,12-5.6C267.6,515.5,258.1,513.4,251.1,513.7z M395.7,487.1
			c-10.5,0.5-18.8,5.9-17.1,9.7c1.8,4.1,11.3,5.7,21.8,5.2c10.5-0.5,15.8-4.5,17.9-8.4C420.3,489.8,406.3,486.6,395.7,487.1z
			 M444.1,445.3c-12.2,0.6-21.8,6.8-19.8,11.2c2.1,4.7,13,6.5,25.2,6c12.2-0.6,18.3-5.2,20.7-9.7
			C472.5,448.4,456.3,444.7,444.1,445.3z M418.9,470.9c-6.5,0.3-11.7,3.7-10.6,6c1.1,2.5,7,3.5,13.5,3.2c6.5-0.3,9.8-2.8,11.1-5.2
			C434.2,472.5,425.4,470.6,418.9,470.9z M404.4,443.6c-6.5,0.3-11.7,3.7-10.6,6c1.1,2.5,7,3.5,13.5,3.2c6.5-0.3,9.8-2.8,11.1-5.2
			C419.6,445.2,410.9,443.3,404.4,443.6z M371.9,509c-12,0.6-21.4,6.7-19.5,11c2.1,4.6,12.8,6.4,24.8,5.9c12-0.6,18-5.1,20.4-9.5
			C399.8,512,383.9,508.4,371.9,509z M440.7,500.5c-13.2,0.6-23.6,7.4-21.5,12.2c2.3,5.1,14.1,7.1,27.3,6.5
			c13.2-0.6,19.9-5.6,22.4-10.5C471.5,503.8,453.9,499.9,440.7,500.5z M454.1,478.8c-8.5,0.4-15.2,4.7-13.8,7.8
			c1.5,3.3,9.1,4.5,17.5,4.2c8.5-0.4,12.8-3.6,14.4-6.7C473.9,481,462.6,478.4,454.1,478.8z M502.6,459.7c-7.4,0.3-13.2,4.1-12,6.8
			c1.3,2.9,7.9,4,15.3,3.6c7.4-0.3,11.1-3.2,12.5-5.9C519.8,461.6,510,459.4,502.6,459.7z M524,474c-16.5,0.8-29.5,9.2-26.8,15.2
			c2.9,6.4,17.6,8.8,34.1,8.1c16.5-0.8,24.8-7,28-13.1C562.4,478.2,540.5,473.3,524,474z M496.7,503.3c-6.3,0.3-11.3,3.5-10.2,5.8
			c1.1,2.4,6.7,3.4,13,3.1c6.3-0.3,9.5-2.7,10.7-5C511.3,504.8,502.9,503,496.7,503.3z M565.9,451.3c-9.7,0.4-17.3,5.4-15.8,8.9
			c1.7,3.8,10.4,5.2,20.1,4.8c9.7-0.4,14.6-4.1,16.4-7.7C588.5,453.7,575.6,450.8,565.9,451.3z M609.9,480.5
			c-7.9,0.4-14.1,4.4-12.8,7.2c1.4,3,8.4,4.2,16.3,3.9c7.9-0.4,11.8-3.4,13.4-6.3C628.3,482.5,617.8,480.2,609.9,480.5z
			 M621.7,455.7c-9.4,0.4-16.9,5.3-15.4,8.7c1.6,3.7,10.1,5.1,19.6,4.6c9.4-0.4,14.2-4,16-7.5C643.8,458.1,631.2,455.3,621.7,455.7z
			 M582.8,471.6c-7.4,0.3-13.2,4.1-12,6.8c1.3,2.9,7.9,4,15.3,3.6c7.4-0.3,11.1-3.2,12.5-5.9C600.1,473.4,590.2,471.2,582.8,471.6z
			 M661,468.4c-10.1,0.5-18,5.6-16.3,9.3c1.7,3.9,10.8,5.4,20.8,4.9c10.1-0.5,15.1-4.3,17.1-8C684.4,470.9,671,467.9,661,468.4z
			 M665.1,493.3c-6.7,0.3-11.9,3.7-10.8,6.1c1.2,2.6,7.1,3.6,13.8,3.3c6.7-0.3,10-2.8,11.3-5.3C680.6,494.9,671.7,493,665.1,493.3z
			 M727.5,469c-10.4,0.5-18.6,5.8-16.9,9.6c1.8,4,11.1,5.6,21.6,5.1c10.4-0.5,15.7-4.4,17.7-8.3C751.8,471.6,737.9,468.5,727.5,469z
			 M561.8,503.8c-5,0.2-8.9,2.8-8.1,4.6c0.9,1.9,5.3,2.7,10.3,2.4c5-0.2,7.5-2.1,8.4-3.9C573.4,505,566.7,503.6,561.8,503.8z
			 M602.8,519.4c-10.7,0.5-19.2,6-17.4,9.9c1.9,4.2,11.5,5.8,22.2,5.3c10.7-0.5,16.1-4.6,18.2-8.5
			C627.8,522.1,613.6,518.9,602.8,519.4z M712.6,495.1c-12.7,0.6-22.7,7.1-20.7,11.7c2.2,4.9,13.6,6.8,26.3,6.2
			c12.7-0.6,19.1-5.4,21.6-10.1C742.3,498.3,725.3,494.5,712.6,495.1z M703.1,447.6c-10.7,0.5-19.2,6-17.4,9.9
			c1.9,4.2,11.5,5.8,22.2,5.3c10.7-0.5,16.1-4.6,18.2-8.5C728.1,450.3,713.8,447.1,703.1,447.6z M818.3,483.4
			c-13.1,0.6-23.4,7.3-21.3,12c2.3,5.1,14,7,27.1,6.4c13.1-0.6,19.7-5.6,22.2-10.4C848.9,486.7,831.4,482.8,818.3,483.4z
			 M785.8,458.4c-8,0.4-14.3,4.5-13,7.4c1.4,3.1,8.6,4.3,16.5,3.9c8-0.4,12-3.4,13.6-6.3C804.4,460.4,793.8,458.1,785.8,458.4z
			 M874.9,463.7c-12.2,0.6-21.8,6.8-19.8,11.2c2.1,4.7,13,6.5,25.2,6c12.2-0.6,18.3-5.2,20.7-9.7
			C903.3,466.8,887.1,463.2,874.9,463.7z M911.9,480.5c-8.2,0.4-14.6,4.6-13.3,7.5c1.4,3.2,8.7,4.4,16.9,4
			c8.2-0.4,12.3-3.5,13.9-6.5C931,482.6,920.1,480.2,911.9,480.5z M960.7,461.1c-9.6,0.4-17.2,5.4-15.7,8.9
			c1.7,3.7,10.3,5.2,19.9,4.7c9.6-0.4,14.5-4.1,16.3-7.6C983.1,463.5,970.3,460.6,960.7,461.1z M994.7,477.7
			c-13.1,0.6-23.4,7.3-21.3,12c2.3,5.1,14,7,27.1,6.4c13.1-0.6,19.7-5.6,22.2-10.4C1025.2,481,1007.8,477.1,994.7,477.7z
			 M1033.1,464.5c-7.4,0.3-13.3,4.2-12.1,6.9c1.3,2.9,8,4,15.4,3.7c7.4-0.3,11.2-3.2,12.6-5.9
			C1050.5,466.4,1040.6,464.2,1033.1,464.5z M945.2,496.9c-6.5,0.3-11.7,3.7-10.6,6c1.1,2.5,7,3.5,13.5,3.2
			c6.5-0.3,9.8-2.8,11.1-5.2C960.5,498.6,951.7,496.6,945.2,496.9z M1051.5,496c-16.9,0.8-30.2,9.4-27.5,15.6
			c2.9,6.5,18.1,9.1,35,8.3c16.9-0.8,25.4-7.2,28.7-13.4C1090.9,500.2,1068.4,495.2,1051.5,496z M1066.4,478.1
			c-7.1,0.3-12.7,4-11.5,6.5c1.2,2.7,7.6,3.8,14.7,3.5c7.1-0.3,10.7-3,12-5.6C1083,479.9,1073.5,477.8,1066.4,478.1z M769.9,507.9
			c-6.4,0.3-11.4,3.6-10.3,5.9c1.1,2.5,6.8,3.4,13.2,3.1c6.4-0.3,9.6-2.7,10.8-5C784.8,509.5,776.3,507.6,769.9,507.9z M859.5,517.9
			c-12.9,0.6-23.1,7.2-21,11.9c2.2,5,13.8,6.9,26.7,6.3c12.9-0.6,19.4-5.5,21.9-10.2C889.6,521.1,872.4,517.3,859.5,517.9z
			 M993.2,505.6c-4.2,0.2-7.5,2.3-6.8,3.8c0.7,1.6,4.5,2.2,8.6,2c4.2-0.2,6.3-1.8,7.1-3.3C1002.9,506.7,997.4,505.4,993.2,505.6z
			 M1019.6,439.2c-11.8,0.5-21.1,6.6-19.2,10.9c2,4.6,12.6,6.3,24.4,5.8c11.8-0.5,17.8-5,20-9.4
			C1047.1,442.2,1031.4,438.7,1019.6,439.2z M838.3,451.5c-9.6,0.4-17.2,5.4-15.7,8.9c1.7,3.7,10.3,5.2,19.9,4.7
			c9.6-0.4,14.5-4.1,16.3-7.6C860.7,454,847.9,451.1,838.3,451.5z M99.1,518.2c-8.9,0.4-15.9,5-14.5,8.2c1.5,3.4,9.5,4.8,18.4,4.4
			c8.9-0.4,13.4-3.8,15.1-7.1C119.9,520.4,108,517.7,99.1,518.2z M272.1,473.9c-8.5,0.4-15.3,4.8-13.9,7.9c1.5,3.3,9.1,4.6,17.7,4.2
			c8.5-0.4,12.8-3.6,14.5-6.8C292,476.1,280.7,473.5,272.1,473.9z M162.8,502.8c-12.7,0.6-22.7,7.1-20.7,11.7
			c2.2,4.9,13.6,6.8,26.3,6.2c12.7-0.6,19.1-5.4,21.6-10.1C192.5,505.9,175.5,502.2,162.8,502.8z M767.4,478
			c-8.2,0.4-14.6,4.6-13.3,7.5c1.4,3.2,8.7,4.4,16.9,4c8.2-0.4,12.3-3.5,13.9-6.5C786.5,480,775.6,477.6,767.4,478z M876.2,493.4
			c-7.1,0.3-12.7,4-11.5,6.5c1.2,2.7,7.6,3.8,14.7,3.5c7.1-0.3,10.7-3,12-5.6C892.8,495.2,883.3,493.1,876.2,493.4z M517.4,521.8
			c-10.9,0.5-19.5,6.1-17.7,10c1.9,4.2,11.7,5.8,22.6,5.3c10.9-0.5,16.4-4.6,18.5-8.7C542.8,524.6,528.3,521.3,517.4,521.8z
			 M620.1,497.4c-9.4,0.4-16.9,5.3-15.4,8.7c1.6,3.7,10.1,5.1,19.6,4.6c9.4-0.4,14.2-4,16-7.5C642.1,499.8,629.5,497,620.1,497.4z
			 M971.8,515.3c-6.7,0.3-12,3.8-10.9,6.2c1.2,2.6,7.2,3.6,13.9,3.3s10.1-2.9,11.4-5.3C987.5,516.9,978.5,514.9,971.8,515.3z
			 M918.1,449.8c-8.5,0.4-15.3,4.8-13.9,7.9c1.5,3.3,9.1,4.6,17.7,4.2c8.5-0.4,12.8-3.6,14.5-6.8C938,451.9,926.6,449.4,918.1,449.8
			z M662.8,439.9c-7.3,0.3-13,4.1-11.8,6.7c1.3,2.8,7.8,3.9,15,3.6c7.3-0.3,10.9-3.1,12.3-5.8C679.8,441.7,670.1,439.5,662.8,439.9z
			 M816.2,512.7c-6.7,0.3-12,3.8-10.9,6.2c1.2,2.6,7.2,3.6,13.9,3.3s10.1-2.9,11.4-5.3C831.9,514.4,822.9,512.4,816.2,512.7z"/>
	</g>
</mask>
<path class="st366" d="M149.3,486.1c-1.8,3.3-6.3,6.8-15.4,7.2s-17.2-0.9-18.8-4.5c-1.5-3.3,5.7-7.9,14.8-8.4S151,482.8,149.3,486.1
	z M135.6,456.6c-5.6,0.3-10.1,3.1-9.2,5.2c1,2.2,6,3,11.7,2.8c5.6-0.3,8.5-2.4,9.6-4.5C148.7,458.1,141.2,456.4,135.6,456.6z
	 M177.5,460.6c-10.4,0.5-18.5,5.8-16.8,9.5c1.8,4,11.1,5.6,21.4,5.1c10.4-0.5,15.6-4.4,17.6-8.2
	C201.6,463.2,187.8,460.1,177.5,460.6z M207.4,475.9c-16.5,0.8-29.6,9.2-26.9,15.2c2.9,6.4,17.7,8.9,34.2,8.1s24.9-7.1,28.1-13.1
	C245.9,480.1,223.9,475.1,207.4,475.9z M244.7,456.3c-6.2,0.3-11,3.5-10,5.7c1.1,2.4,6.6,3.3,12.8,3c6.2-0.3,9.3-2.6,10.5-4.9
	C259.1,457.8,250.9,456,244.7,456.3z M274.4,498.3c-9.1,0.4-16.2,5.1-14.8,8.4c1.6,3.5,9.7,4.9,18.8,4.5c9.1-0.4,13.7-3.9,15.4-7.2
	C295.6,500.6,283.5,497.9,274.4,498.3z M317.9,463.7c-9.4,0.4-16.9,5.3-15.4,8.7c1.6,3.7,10.1,5.1,19.6,4.6c9.4-0.4,14.2-4,16-7.5
	C339.9,466.1,327.3,463.3,317.9,463.7z M298.6,436.8c-11.6,0.5-20.8,6.5-18.9,10.7c2,4.5,12.4,6.2,24.1,5.7
	c11.6-0.5,17.5-5,19.7-9.2C325.8,439.7,310.3,436.2,298.6,436.8z M349.4,443.5c-9.3,0.4-16.6,5.2-15.1,8.5c1.6,3.6,9.9,5,19.2,4.5
	c9.3-0.4,13.9-4,15.7-7.4C371,445.9,358.7,443.1,349.4,443.5z M332.2,478.9c-6,0.3-10.7,3.4-9.8,5.5c1,2.3,6.4,3.2,12.4,2.9
	c6-0.3,9-2.6,10.2-4.8C346.2,480.4,338.2,478.6,332.2,478.9z M374.9,459.4c-13.8,0.6-24.7,7.7-22.5,12.7c2.4,5.3,14.8,7.4,28.6,6.8
	c13.8-0.6,20.8-5.9,23.4-11C407.1,462.9,388.7,458.8,374.9,459.4z M328.1,490c-12.7,0.6-22.7,7.1-20.7,11.7
	c2.2,4.9,13.6,6.8,26.3,6.2c12.7-0.6,19.1-5.4,21.6-10.1C357.8,493.2,340.8,489.4,328.1,490z M304.1,518.8
	c-10.7,0.5-19.2,6-17.4,9.9c1.9,4.2,11.5,5.8,22.2,5.3s16.1-4.6,18.2-8.5C329.1,521.5,314.8,518.3,304.1,518.8z M251.1,513.7
	c-7.1,0.3-12.7,4-11.5,6.5c1.2,2.7,7.6,3.8,14.7,3.5c7.1-0.3,10.7-3,12-5.6C267.6,515.5,258.1,513.4,251.1,513.7z M395.7,487.1
	c-10.5,0.5-18.8,5.9-17.1,9.7c1.8,4.1,11.3,5.7,21.8,5.2c10.5-0.5,15.8-4.5,17.9-8.4C420.3,489.8,406.3,486.6,395.7,487.1z
	 M444.1,445.3c-12.2,0.6-21.8,6.8-19.8,11.2c2.1,4.7,13,6.5,25.2,6c12.2-0.6,18.3-5.2,20.7-9.7C472.5,448.4,456.3,444.7,444.1,445.3
	z M418.9,470.9c-6.5,0.3-11.7,3.7-10.6,6c1.1,2.5,7,3.5,13.5,3.2c6.5-0.3,9.8-2.8,11.1-5.2C434.2,472.5,425.4,470.6,418.9,470.9z
	 M404.4,443.6c-6.5,0.3-11.7,3.7-10.6,6c1.1,2.5,7,3.5,13.5,3.2c6.5-0.3,9.8-2.8,11.1-5.2C419.6,445.2,410.9,443.3,404.4,443.6z
	 M371.9,509c-12,0.6-21.4,6.7-19.5,11c2.1,4.6,12.8,6.4,24.8,5.9c12-0.6,18-5.1,20.4-9.5C399.8,512,383.9,508.4,371.9,509z
	 M440.7,500.5c-13.2,0.6-23.6,7.4-21.5,12.2c2.3,5.1,14.1,7.1,27.3,6.5c13.2-0.6,19.9-5.6,22.4-10.5
	C471.5,503.8,453.9,499.9,440.7,500.5z M454.1,478.8c-8.5,0.4-15.2,4.7-13.8,7.8c1.5,3.3,9.1,4.5,17.5,4.2
	c8.5-0.4,12.8-3.6,14.4-6.7C473.9,481,462.6,478.4,454.1,478.8z M502.6,459.7c-7.4,0.3-13.2,4.1-12,6.8c1.3,2.9,7.9,4,15.3,3.6
	c7.4-0.3,11.1-3.2,12.5-5.9C519.8,461.6,510,459.4,502.6,459.7z M272.1,473.9c-8.5,0.4-15.3,4.8-13.9,7.9c1.5,3.3,9.1,4.6,17.7,4.2
	c8.5-0.4,12.8-3.6,14.5-6.8C292,476.1,280.7,473.5,272.1,473.9z M162.8,502.8c-12.7,0.6-22.7,7.1-20.7,11.7
	c2.2,4.9,13.6,6.8,26.3,6.2c12.7-0.6,19.1-5.4,21.6-10.1C192.5,505.9,175.5,502.2,162.8,502.8z"/>
<path class="st367" d="M529.4,442.2H121v-12.5h414.5L529.4,442.2z"/>
<polygon class="st366" points="288.2,441 168.1,441 161.3,145.3 294.9,147.1 "/>
<polygon class="st368" points="174.3,441.3 171.6,155.1 284.6,156.6 280,441.3 "/>
<g>
	<path class="st366" d="M186.6,392.4c27.7,0,55.4,0,83.1,0c1.3-75.2,2.5-150.3,3.8-225.5c-31-0.9-61.9-1.8-92.9-2.8
		C182.6,240.3,184.6,316.4,186.6,392.4z"/>
	<path class="st385" d="M214.1,167.4c12.9,0.4,19.3,0.6,32.2,1c-0.3,73.6,0.4,147.3,1.8,221.1c-4,0-6,0-10,0
		C230,315.4,222,241.4,214.1,167.4L214.1,167.4z M210.6,167.3c-6.6-0.2-9.8-0.3-16.4-0.5c12.4,74.2,24.7,148.4,36.8,222.6
		c1.8,0,2.7,0,4.5,0C227.1,315.4,218.8,241.3,210.6,167.3L210.6,167.3z"/>
</g>
<path class="st386" d="M184.9,400l1,29.3h84.7l0.6-29.3H184.9z M269.5,428.3h-82.7l-0.9-27.3h84.1L269.5,428.3z"/>
<g>
	<polygon class="st386" points="274.9,291 278.8,291 276.8,390.8 272.6,390.8 	"/>
	<polygon class="st386" points="275.7,291 273.5,390.8 274.9,390.8 277.3,291 	"/>
</g>
<path class="st366" d="M297.4,51H158.9l-26.6,96.3c0,0,5,18,15.2,16.8c10.1-1.2,15.2-16.8,15.2-16.8h2c0,0,5,18,15.2,16.8
	c10.1-1.2,15.2-16.8,15.2-16.8h2c0,0,5,18,15.2,16.8c10.1-1.2,15.2-16.8,15.2-16.8h2c0,0,5,18,15.2,16.8
	c10.1-1.2,15.2-16.8,15.2-16.8h2c0,0,5,18,15.2,16.8c10.1-1.2,15.2-16.8,15.2-16.8h2c0,0,5,18,15.2,16.8
	c10.1-1.2,15.2-16.8,15.2-16.8L297.4,51z"/>
<g>
	<path class="st368" d="M251.4,315c-4.2-5.9-8.4-11.7-12.7-17.5c-4.3-5.8-8.6-11.6-12.9-17.4l-0.5-0.6l-0.4,0.7l-5.9,9.9l-5.8,9.9
		c-3.9,6.6-7.7,13.3-11.5,20c4.1-6.5,8.2-13,12.2-19.6l6-9.9l5.5-9.2c4.2,5.5,8.4,11.1,12.6,16.6C242.4,303.7,246.9,309.4,251.4,315
		z"/>
	<polygon class="st9" points="263.2,349.3 198.8,355.9 194,320.8 260.8,314 	"/>
	<path class="st368" d="M254.4,346.9l-47.3,4.2l0-0.3c-0.3-2.1-2.2-3.6-4.3-3.4l-0.3,0l-2.6-17.8l0.3,0c1.1-0.1,2-0.7,2.7-1.5
		c0.7-0.9,0.9-1.9,0.8-3l0-0.3l48.7-5.9l0,0.3c0.1,1.1,0.6,2.1,1.4,2.8c0.9,0.7,1.9,1,3,0.9l0.3,0l1.2,19.5l-0.3,0
		c-2.2,0.2-3.8,2-3.6,4.2L254.4,346.9z M207.7,350.4l46.1-4.1c0-2.3,1.7-4.2,3.9-4.5l-1.1-18.2c-1.2,0.1-2.3-0.3-3.2-1.1
		c-0.9-0.8-1.5-1.8-1.6-2.9l-47.4,5.7c0.1,1.1-0.2,2.2-0.9,3.2c-0.7,0.9-1.7,1.5-2.8,1.7l2.4,16.6
		C205.2,346.7,207.2,348.2,207.7,350.4z"/>
</g>
<g>
	<g>
		<path class="st368" d="M119.7,289.2l-2.2,24.4c-0.2,2-0.3,4.1-0.8,5.9c-0.5,1.7-1.7,3.4-2.7,5.2l-4.3,7.5
			c-0.2-2.2-0.5-4.4-1.2-6.6c-0.8-2.8-2.3-5.3-3.6-7.7c-0.4-0.7-0.8-1.4-1.1-2.1c0.7-2,1.8-3.8,3.2-5.3c0.8-0.8,1.8-1.7,2.5-2.9
			c0.8-1.3,1-2.7,1.1-3.9c0.6-4.9,0.8-9.9,0.7-14.8l-2.5,0.1c0.3,4.8,0.3,9.7-0.1,14.5c-0.1,1.2-0.3,2.3-0.7,3.1
			c-0.5,0.9-1.3,1.7-2.2,2.6c-1.2,1.3-2.2,2.9-2.8,4.6c-1.5-3.6-2.3-7.3-2.7-11.2c-0.5-5.4-0.3-10.9-0.1-16.4l-2.5-0.1
			c-0.2,5.5-0.4,11.1,0.2,16.8c0.3,2.8,0.8,5.6,1.7,8.3c0.8,2.7,2,5.4,3.4,7.8c1.4,2.4,2.7,4.7,3.5,7.2c0.8,2.5,1.1,5.2,1.3,7.9
			c0.4,5.5,0.7,11,0.8,16.5c0.5,22.1-0.8,44.2,0.4,66.4l1.4-0.1c-0.9-22.1,0.5-44.2,0.2-66.4c-0.1-5.3-0.3-10.6-0.6-15.9l5.5-9.2
			l1.6-2.6c0.5-0.9,1.1-1.9,1.4-2.9c0.7-2.1,0.7-4.2,1-6.2l2.7-24.3L119.7,289.2z"/>
		<path id="XMLID_91_" class="st366" d="M81.2,263c-1.4,7.5,0.2,15.5,3.9,22c3.7,6.5,9.4,11.6,15.7,14.9c8.5,4.5,19.1,5.8,27.1,0.3
			c4.2-2.8,7.3-7.3,9.1-12.4c1.8-5,2.2-10.5,1.7-15.8c-1.2-11.5-7.3-22.6-16.6-28.2c-12-7.2-27-3.5-35.8,7.7
			C83.8,254.8,82,258.8,81.2,263z"/>
		<path class="st367" d="M91.9,279.5c0,0-0.6-0.3-1.3-1c-0.7-0.7-1.6-1.9-2.1-3.5c-0.5-1.6-0.4-3.2-0.1-4.3c0.2-1.1,0.6-1.7,0.6-1.7
			s0.2,0.7,0.5,1.6c0.3,1,0.7,2.2,1.1,3.5c0.4,1.3,0.7,2.6,0.9,3.6C91.7,278.8,91.9,279.5,91.9,279.5z"/>
		<path class="st367" d="M90.4,275.7c0,0-0.2-0.5-0.3-1.2c-0.1-0.8-0.1-1.8,0.3-2.8c0.4-1,1-1.8,1.5-2.2c0.5-0.5,1-0.7,1-0.7
			s0,0.5,0,1.3c0,0.7-0.1,1.7-0.5,2.6c-0.3,0.9-0.8,1.7-1.2,2.2C90.8,275.4,90.4,275.7,90.4,275.7z"/>
		<path class="st367" d="M126.9,284.3c0,0-1.7-1.9-2.6-4.7c-0.9-2.8-0.5-5.5-0.5-5.5s1.7,1.9,2.6,4.7
			C127.3,281.6,126.9,284.3,126.9,284.3z"/>
		<path class="st367" d="M125.8,282.8c0,0-0.1-0.6,0-1.6c0.1-1,0.3-2.3,1-3.6c0.6-1.3,1.5-2.2,2.2-2.8c0.7-0.6,1.2-0.9,1.2-0.9
			s-0.1,0.6-0.3,1.6c-0.2,0.9-0.6,2.1-1.2,3.3c-0.6,1.2-1.3,2.2-1.9,2.9C126.3,282.4,125.8,282.8,125.8,282.8z"/>
		<path class="st367" d="M124.7,281.3c0,0-0.5,0-1.1-0.3c-0.6-0.3-1.4-0.9-2-1.8c-0.5-0.9-0.7-2-0.7-2.8c0-0.8,0.2-1.3,0.2-1.3
			s0.4,0.3,0.8,0.8c0.5,0.5,1,1.1,1.5,1.9c0.5,0.8,0.7,1.6,0.9,2.3C124.6,280.8,124.7,281.3,124.7,281.3z"/>
		<path class="st367" d="M102.3,280.1c0,0-1.7-0.5-2.8-2c-1.1-1.6-1.1-3.6-1.1-3.6s1.7,0.5,2.8,2
			C102.3,278.1,102.3,280.1,102.3,280.1z"/>
		<path class="st367" d="M109.7,275.9c0,0-0.3-0.3-0.7-0.9c-0.4-0.6-0.7-1.5-0.8-2.6c0-1.1,0.3-2,0.6-2.6c0.3-0.6,0.7-1,0.7-1
			s0.2,0.4,0.4,1.1c0.2,0.7,0.4,1.5,0.5,2.4c0,0.9-0.2,1.8-0.3,2.4C109.9,275.5,109.7,275.9,109.7,275.9z"/>
		<path class="st367" d="M109.1,279.1c0,0-0.1-0.6,0.1-1.5c0.1-0.9,0.4-2.1,1.1-3.2c0.7-1.1,1.6-1.8,2.3-2.3
			c0.7-0.4,1.2-0.6,1.2-0.6s-0.1,0.6-0.4,1.4c-0.3,0.8-0.7,1.9-1.3,2.9c-0.6,1-1.4,1.8-1.9,2.4C109.6,278.7,109.1,279.1,109.1,279.1
			z"/>
		<path class="st367" d="M109.9,276.8c0,0-1.7-0.3-2.7-1.7c-1-1.4-1-3.3-1-3.3s1.7,0.3,2.7,1.7C109.9,274.8,109.9,276.8,109.9,276.8
			z"/>
		<path class="st367" d="M129.5,282c0,0,0.1-0.2,0.4-0.6c0.2-0.3,0.5-0.9,0.9-1.5c0.7-1.3,1.4-3.1,1.8-5.1c0.4-2,0.5-4,0.4-5.4
			c0-0.7-0.1-1.4-0.2-1.8c-0.1-0.4-0.1-0.7-0.1-0.7s0.2,0.2,0.4,0.5c0.3,0.3,0.6,0.9,0.9,1.6c0.7,1.4,1.2,3.8,0.7,6.4
			c-0.5,2.6-2,4.4-3.1,5.3c-0.6,0.5-1.1,0.8-1.5,1C129.7,281.9,129.5,282,129.5,282z"/>
		<path class="st367" d="M88.6,276.5c0,0-0.2,0-0.6-0.1c-0.4-0.1-0.9-0.3-1.4-0.7c-1.1-0.7-2.6-2.4-3-4.9c-0.4-2.4,0.3-4.6,1.1-5.8
			c0.4-0.6,0.8-1,1.1-1.3c0.3-0.3,0.5-0.4,0.5-0.4s-0.1,0.2-0.2,0.6c-0.1,0.4-0.3,0.9-0.4,1.6c-0.2,1.3-0.3,3.1,0,4.8
			c0.3,1.8,1,3.3,1.6,4.4c0.3,0.6,0.6,1,0.9,1.3C88.5,276.3,88.6,276.5,88.6,276.5z"/>
		<path class="st367" d="M101.4,279.5c0,0-0.3-0.5-0.5-1.2c-0.2-0.8-0.4-1.8-0.1-3c0.2-1.1,0.7-2,1.2-2.6c0.5-0.6,0.9-0.9,0.9-0.9
			s0.1,0.5,0.2,1.3c0.1,0.8,0.1,1.8-0.1,2.8c-0.2,1-0.6,1.9-0.9,2.6C101.7,279,101.4,279.5,101.4,279.5z"/>
		<path class="st367" d="M87.8,282.6c0,0-1.2,2-3.2,3s-4.1,0.8-4.1,0.8s1.2-2,3.2-3C85.7,282.3,87.8,282.6,87.8,282.6z"/>
		<path class="st367" d="M85.6,281.9c0,0-0.5,0.3-1.3,0.7c-0.8,0.3-2,0.6-3.3,0.5c-1.3-0.1-2.4-0.6-3.2-1c-0.8-0.4-1.2-0.9-1.2-0.9
			s0.5-0.2,1.4-0.4c0.8-0.2,2-0.3,3.2-0.2c1.2,0.1,2.3,0.4,3.1,0.7C85.1,281.7,85.6,281.9,85.6,281.9z"/>
		<path class="st367" d="M133.8,300.1c0,0-1.6-0.5-2.4-2s-0.6-3.4-0.6-3.4s1.6,0.5,2.4,2C134.1,298.3,133.8,300.1,133.8,300.1z"/>
		<path class="st367" d="M137.7,296.1c0,0-0.4,0.3-1.1,0.5c-0.7,0.2-1.7,0.4-2.7,0.1c-1-0.3-1.9-1-2.4-1.6c-0.5-0.6-0.7-1.1-0.7-1.1
			s0.5-0.1,1.2-0.1c0.7,0,1.6,0,2.5,0.3c0.9,0.3,1.7,0.7,2.3,1.1C137.3,295.8,137.7,296.1,137.7,296.1z"/>
		<path class="st367" d="M130.6,303.4c0,0-0.3-0.4-0.7-1c-0.4-0.6-0.7-1.6-0.8-2.7c-0.1-1.1,0.2-2.1,0.5-2.8
			c0.3-0.7,0.6-1.1,0.6-1.1s0.3,0.4,0.5,1.1c0.3,0.7,0.6,1.6,0.6,2.6c0.1,1-0.1,1.9-0.3,2.6C130.8,303,130.6,303.4,130.6,303.4z"/>
		<path class="st367" d="M100.6,306.7c0,0-0.4-2.2,0.4-4.2c0.8-2.1,2.4-3.3,2.4-3.3s0.4,2.2-0.4,4.2
			C102.3,305.5,100.6,306.7,100.6,306.7z"/>
		<path class="st367" d="M103.8,305.3c0,0-0.4-0.2-0.7-0.6c-0.4-0.4-0.8-1.2-0.9-2c-0.1-0.9,0.2-1.7,0.5-2.2
			c0.3-0.5,0.6-0.8,0.6-0.8s0.2,0.4,0.5,0.9c0.2,0.5,0.5,1.2,0.5,1.9c0.1,0.7-0.1,1.4-0.3,1.9C104,304.9,103.8,305.3,103.8,305.3z"
			/>
		<path class="st367" d="M132.4,245.5c0,0-0.4,1.9-1.6,2.9c-1.3,1-2.9,0.9-2.9,0.9s0.4-1.9,1.6-2.9
			C130.8,245.3,132.4,245.5,132.4,245.5z"/>
		<path class="st367" d="M133.3,249.1c0,0-1.3,1.3-2.8,1.3s-2.8-1.3-2.8-1.3s1.3-1.3,2.8-1.3S133.3,249.1,133.3,249.1z"/>
		<path class="st367" d="M89.5,277.2c0,0,0.2-0.5,0.7-1.2c0.4-0.7,1-1.6,1.9-2.3c0.8-0.7,1.7-1.2,2.4-1.6c0.7-0.3,1.2-0.5,1.2-0.5
			s-0.1,0.6-0.4,1.4c-0.3,0.8-0.9,1.8-1.8,2.6c-0.9,0.8-1.9,1.2-2.6,1.4C90,277.2,89.5,277.2,89.5,277.2z"/>
		<path class="st367" d="M89.1,275.5c0,0-0.4,0-1-0.2c-0.6-0.2-1.2-0.6-1.8-1.3c-0.5-0.7-0.7-1.5-0.8-2.2c-0.1-0.7,0-1.1,0-1.1
			s1.6,0.4,2.6,1.7C89,273.6,89.1,275.5,89.1,275.5z"/>
		<path class="st367" d="M101.8,278.4c0,0-0.9-1-0.7-1.9c0.2-0.9,1.4-1.2,1.4-1.2s0.9,1,0.7,1.9C103,278.1,101.8,278.4,101.8,278.4z
			"/>
	</g>
	<g>
		<polygon class="st367" points="124.9,442.2 93.6,442.2 84.5,382.7 134,382.7 		"/>
	</g>
</g>
<g>
	<g>
		<path class="st368" d="M435.9,289.2l-2.2,24.4c-0.2,2-0.3,4.1-0.8,5.9c-0.5,1.7-1.7,3.4-2.7,5.2l-4.3,7.5
			c-0.2-2.2-0.5-4.4-1.2-6.6c-0.8-2.8-2.3-5.3-3.6-7.7c-0.4-0.7-0.8-1.4-1.1-2.1c0.7-2,1.8-3.8,3.2-5.3c0.8-0.8,1.8-1.7,2.5-2.9
			c0.8-1.3,1-2.7,1.1-3.9c0.6-4.9,0.8-9.9,0.7-14.8l-2.5,0.1c0.3,4.8,0.3,9.7-0.1,14.5c-0.1,1.2-0.3,2.3-0.7,3.1
			c-0.5,0.9-1.3,1.7-2.2,2.6c-1.2,1.3-2.2,2.9-2.8,4.6c-1.5-3.6-2.3-7.3-2.7-11.2c-0.5-5.4-0.3-10.9-0.1-16.4l-2.5-0.1
			c-0.2,5.5-0.4,11.1,0.2,16.8c0.3,2.8,0.8,5.6,1.7,8.3c0.8,2.7,2,5.4,3.4,7.8c1.4,2.4,2.7,4.7,3.5,7.2c0.8,2.5,1.1,5.2,1.3,7.9
			c0.4,5.5,0.7,11,0.8,16.5c0.5,22.1-0.8,44.2,0.4,66.4l1.4-0.1c-0.9-22.1,0.5-44.2,0.2-66.4c-0.1-5.3-0.3-10.6-0.6-15.9l5.5-9.2
			l1.6-2.6c0.5-0.9,1.1-1.9,1.4-2.9c0.7-2.1,0.7-4.2,1-6.2l2.7-24.3L435.9,289.2z"/>
		<path id="XMLID_95_" class="st366" d="M397.5,263c-1.4,7.5,0.2,15.5,3.9,22s9.4,11.6,15.7,14.9c8.5,4.5,19.1,5.8,27.1,0.3
			c4.2-2.8,7.3-7.3,9.1-12.4c1.8-5,2.2-10.5,1.7-15.8c-1.2-11.5-7.3-22.6-16.6-28.2c-12-7.2-27-3.5-35.8,7.7
			C400,254.8,398.2,258.8,397.5,263z"/>
		<path class="st367" d="M408.1,279.5c0,0-0.6-0.3-1.3-1c-0.7-0.7-1.6-1.9-2.1-3.5c-0.5-1.6-0.4-3.2-0.1-4.3
			c0.2-1.1,0.6-1.7,0.6-1.7s0.2,0.7,0.5,1.6c0.3,1,0.7,2.2,1.1,3.5c0.4,1.3,0.7,2.6,0.9,3.6C408,278.8,408.1,279.5,408.1,279.5z"/>
		<path class="st367" d="M406.7,275.7c0,0-0.2-0.5-0.3-1.2c-0.1-0.8-0.1-1.8,0.3-2.8c0.4-1,1-1.8,1.5-2.2c0.5-0.5,1-0.7,1-0.7
			s0,0.5,0,1.3c0,0.7-0.1,1.7-0.5,2.6c-0.3,0.9-0.8,1.7-1.2,2.2C407,275.4,406.7,275.7,406.7,275.7z"/>
		<path class="st367" d="M443.2,284.3c0,0-1.7-1.9-2.6-4.7c-0.9-2.8-0.5-5.5-0.5-5.5s1.7,1.9,2.6,4.7
			C443.5,281.6,443.2,284.3,443.2,284.3z"/>
		<path class="st367" d="M442.1,282.8c0,0-0.1-0.6,0-1.6c0.1-1,0.3-2.3,1-3.6c0.6-1.3,1.5-2.2,2.2-2.8c0.7-0.6,1.2-0.9,1.2-0.9
			s-0.1,0.6-0.3,1.6c-0.2,0.9-0.6,2.1-1.2,3.3c-0.6,1.2-1.3,2.2-1.9,2.9C442.5,282.4,442.1,282.8,442.1,282.8z"/>
		<path class="st367" d="M441,281.3c0,0-0.5,0-1.1-0.3c-0.6-0.3-1.4-0.9-2-1.8c-0.5-0.9-0.7-2-0.7-2.8c0-0.8,0.2-1.3,0.2-1.3
			s0.4,0.3,0.8,0.8c0.5,0.5,1,1.1,1.5,1.9c0.5,0.8,0.7,1.6,0.9,2.3C440.9,280.8,441,281.3,441,281.3z"/>
		<path class="st367" d="M418.6,280.1c0,0-1.7-0.5-2.8-2c-1.1-1.6-1.1-3.6-1.1-3.6s1.7,0.5,2.8,2
			C418.6,278.1,418.6,280.1,418.6,280.1z"/>
		<path class="st367" d="M425.9,275.9c0,0-0.3-0.3-0.7-0.9c-0.4-0.6-0.7-1.5-0.8-2.6c0-1.1,0.3-2,0.6-2.6c0.3-0.6,0.7-1,0.7-1
			s0.2,0.4,0.4,1.1c0.2,0.7,0.4,1.5,0.5,2.4c0,0.9-0.2,1.8-0.3,2.4C426.1,275.5,425.9,275.9,425.9,275.9z"/>
		<path class="st367" d="M425.4,279.1c0,0-0.1-0.6,0.1-1.5c0.1-0.9,0.4-2.1,1.1-3.2c0.7-1.1,1.6-1.8,2.3-2.3
			c0.7-0.4,1.2-0.6,1.2-0.6s-0.1,0.6-0.4,1.4c-0.3,0.8-0.7,1.9-1.3,2.9c-0.6,1-1.4,1.8-1.9,2.4C425.8,278.7,425.4,279.1,425.4,279.1
			z"/>
		<path class="st367" d="M426.1,276.8c0,0-1.7-0.3-2.7-1.7c-1-1.4-1-3.3-1-3.3s1.7,0.3,2.7,1.7C426.1,274.8,426.1,276.8,426.1,276.8
			z"/>
		<path class="st367" d="M445.7,282c0,0,0.1-0.2,0.4-0.6c0.2-0.3,0.5-0.9,0.9-1.5c0.7-1.3,1.4-3.1,1.8-5.1c0.4-2,0.5-4,0.4-5.4
			c0-0.7-0.1-1.4-0.2-1.8c-0.1-0.4-0.1-0.7-0.1-0.7s0.2,0.2,0.4,0.5c0.3,0.3,0.6,0.9,0.9,1.6c0.7,1.4,1.2,3.8,0.7,6.4
			c-0.5,2.6-2,4.4-3.1,5.3c-0.6,0.5-1.1,0.8-1.5,1C445.9,281.9,445.7,282,445.7,282z"/>
		<path class="st367" d="M404.8,276.5c0,0-0.2,0-0.6-0.1c-0.4-0.1-0.9-0.3-1.4-0.7c-1.1-0.7-2.6-2.4-3-4.9c-0.4-2.4,0.3-4.6,1.1-5.8
			c0.4-0.6,0.8-1,1.1-1.3c0.3-0.3,0.5-0.4,0.5-0.4s-0.1,0.2-0.2,0.6c-0.1,0.4-0.3,0.9-0.4,1.6c-0.2,1.3-0.3,3.1,0,4.8
			c0.3,1.8,1,3.3,1.6,4.4c0.3,0.6,0.6,1,0.9,1.3C404.7,276.3,404.8,276.5,404.8,276.5z"/>
		<path class="st367" d="M417.7,279.5c0,0-0.3-0.5-0.5-1.2c-0.2-0.8-0.4-1.8-0.1-3c0.2-1.1,0.7-2,1.2-2.6c0.5-0.6,0.9-0.9,0.9-0.9
			s0.1,0.5,0.2,1.3c0.1,0.8,0.1,1.8-0.1,2.8c-0.2,1-0.6,1.9-0.9,2.6C418,279,417.7,279.5,417.7,279.5z"/>
		<path class="st367" d="M404.1,282.6c0,0-1.2,2-3.2,3s-4.1,0.8-4.1,0.8s1.2-2,3.2-3C402,282.3,404.1,282.6,404.1,282.6z"/>
		<path class="st367" d="M401.9,281.9c0,0-0.5,0.3-1.3,0.7c-0.8,0.3-2,0.6-3.3,0.5c-1.3-0.1-2.4-0.6-3.2-1c-0.8-0.4-1.2-0.9-1.2-0.9
			s0.5-0.2,1.4-0.4c0.8-0.2,2-0.3,3.2-0.2c1.2,0.1,2.3,0.4,3.1,0.7C401.4,281.7,401.9,281.9,401.9,281.9z"/>
		<path class="st367" d="M450.1,300.1c0,0-1.6-0.5-2.4-2s-0.6-3.4-0.6-3.4s1.6,0.5,2.4,2C450.3,298.3,450.1,300.1,450.1,300.1z"/>
		<path class="st367" d="M454,296.1c0,0-0.4,0.3-1.1,0.5c-0.7,0.2-1.7,0.4-2.7,0.1c-1-0.3-1.9-1-2.4-1.6c-0.5-0.6-0.7-1.1-0.7-1.1
			s0.5-0.1,1.2-0.1c0.7,0,1.6,0,2.5,0.3c0.9,0.3,1.7,0.7,2.3,1.1C453.6,295.8,454,296.1,454,296.1z"/>
		<path class="st367" d="M446.8,303.4c0,0-0.3-0.4-0.7-1c-0.4-0.6-0.7-1.6-0.8-2.7c-0.1-1.1,0.2-2.1,0.5-2.8
			c0.3-0.7,0.6-1.1,0.6-1.1s0.3,0.4,0.5,1.1c0.3,0.7,0.6,1.6,0.6,2.6c0.1,1-0.1,1.9-0.3,2.6C447,303,446.8,303.4,446.8,303.4z"/>
		<path class="st367" d="M416.9,306.7c0,0-0.4-2.2,0.4-4.2c0.8-2.1,2.4-3.3,2.4-3.3s0.4,2.2-0.4,4.2
			C418.5,305.5,416.9,306.7,416.9,306.7z"/>
		<path class="st367" d="M420.1,305.3c0,0-0.4-0.2-0.7-0.6c-0.4-0.4-0.8-1.2-0.9-2c-0.1-0.9,0.2-1.7,0.5-2.2
			c0.3-0.5,0.6-0.8,0.6-0.8s0.2,0.4,0.5,0.9c0.2,0.5,0.5,1.2,0.5,1.9c0.1,0.7-0.1,1.4-0.3,1.9C420.2,304.9,420.1,305.3,420.1,305.3z
			"/>
		<path class="st367" d="M448.7,245.5c0,0-0.4,1.9-1.6,2.9c-1.3,1-2.9,0.9-2.9,0.9s0.4-1.9,1.6-2.9
			C447,245.3,448.7,245.5,448.7,245.5z"/>
		<path class="st367" d="M449.6,249.1c0,0-1.3,1.3-2.8,1.3c-1.6,0-2.8-1.3-2.8-1.3s1.3-1.3,2.8-1.3
			C448.3,247.8,449.6,249.1,449.6,249.1z"/>
		<path class="st367" d="M405.7,277.2c0,0,0.2-0.5,0.7-1.2c0.4-0.7,1-1.6,1.9-2.3c0.8-0.7,1.7-1.2,2.4-1.6c0.7-0.3,1.2-0.5,1.2-0.5
			s-0.1,0.6-0.4,1.4c-0.3,0.8-0.9,1.8-1.8,2.6c-0.9,0.8-1.9,1.2-2.6,1.4C406.2,277.2,405.7,277.2,405.7,277.2z"/>
		<path class="st367" d="M405.4,275.5c0,0-0.4,0-1-0.2c-0.6-0.2-1.2-0.6-1.8-1.3c-0.5-0.7-0.7-1.5-0.8-2.2c-0.1-0.7,0-1.1,0-1.1
			s1.6,0.4,2.6,1.7C405.3,273.6,405.4,275.5,405.4,275.5z"/>
		<path class="st367" d="M418,278.4c0,0-0.9-1-0.7-1.9c0.2-0.9,1.4-1.2,1.4-1.2s0.9,1,0.7,1.9C419.3,278.1,418,278.4,418,278.4z"/>
	</g>
	<g>
		<polygon class="st367" points="441.1,442.2 409.9,442.2 400.8,382.7 450.2,382.7 		"/>
	</g>
</g>
<g>
	<text transform="matrix(0.8 -8.595542e-02 0.1068 0.9943 207.046 342.409)" class="st368 st387 st388">CERRADO</text>
</g>
<g>
	<path class="st367" d="M244.3,164.2c10.1-1.2,15.2-16.8,15.2-16.8h-30.3C229.1,147.4,234.2,165.4,244.3,164.2z"/>
	<path class="st367" d="M276.5,164.2c10.1-1.2,15.2-16.8,15.2-16.8h-30.3C261.4,147.4,266.4,165.4,276.5,164.2z"/>
	<path class="st367" d="M212,164.2c10.1-1.2,15.2-16.8,15.2-16.8h-30.3C196.8,147.4,201.9,165.4,212,164.2z"/>
	<path class="st367" d="M293.7,147.4c0,0,5,18,15.2,16.8c10.1-1.2,15.2-16.8,15.2-16.8H293.7z"/>
	<path class="st367" d="M179.7,164.2c10.1-1.2,15.2-16.8,15.2-16.8h-30.3C164.6,147.4,169.6,165.4,179.7,164.2z"/>
	<path class="st367" d="M147.4,164.2c10.1-1.2,15.2-16.8,15.2-16.8h-30.3C132.3,147.4,137.3,165.4,147.4,164.2z"/>
</g>
<g transform="matrix(1.23687,0.0807158,-0.0375234,1.23969,-4.41639,35.4298)">
	<g transform="matrix(0.806899,-0.052537,0.0244235,0.805064,16.1882,-22.929)">
		<path class="st38" d="M345.9,108.7c-10.7-5.5-19-2.8-21.5-1.7c-7.6,3.5-13.3,11-14.5,19.3c-1,6.5,0,12.4-3.1,18.5
			c-1.1,2.2-2.9,3.7-4.9,5.1c-1.1,0.8-2.8,1.4-3.1,2.9c-0.5,2.7,2.6,6.1,4.2,8.1c0.5,0.6,1.5,2,2.4,1.8c1.9-0.5,3.2-2.3,4.4-3.7
			c0.2-0.2,1.1-1.8,1.5-1.9c0.1,0-0.9,2.9-1,3.1c-1.2,2.8-3.4,4-1.2,6.7c1.1,1.3,4,5.6,6.2,4.4c1.4-0.7,2.4-2.1,3.3-3.3
			c0.3-0.4,0.6-0.9,0.9-1.3c0.2-0.3,0.3-1.1,0.5-0.8c0.3,0.2-0.7,2.6-0.8,3c-1.1,2.7-1.9,3.4,1,5.1c0.8,0.4,1.6,0.8,2.4,1.1
			c1,0.4,2,0.7,3.1,0.9c4.6,1,10.1,1.1,14.8,0.3c1.2-0.2,3.6-0.2,4.3-1.4c1.2-2.1,0.6-5.2,0.4-7.5c0,0-0.3-2.1-0.1-2.1
			c0.4-0.1,1.6,1.6,1.9,1.8c1.2,1.5,2.4,4.5,4.7,4.3c4-0.2,7.8-3.3,10.7-5.7c0.5-0.4,3-2,3-2.6c0-0.6-3.1-2.3-3.5-2.7
			c-2.1-1.8-3.3-4.1-3.5-6.8c-0.5-4.8,0.5-9.7,0.4-14.6c-0.1-6.8-1.8-13.9-4.6-20.2C352.2,115.2,349.7,110.7,345.9,108.7z"/>
	</g>
	<g transform="matrix(0.806899,-0.052537,0.0244235,0.805064,16.36,-24.2465)">
		<path class="st38" d="M311.1,125c1.5,0.3,0.4,4.9,0.2,7.7c-0.8,8.4-5.3,16-13.4,19.4c0,0-2.5-0.7,0.2-1.9
			c5.7-2.7,10.1-7.7,11.2-14c0.6-3.5,0.7-7,1-10.6C310.1,125.8,310.1,124.9,311.1,125z"/>
	</g>
	<g transform="matrix(0.806899,-0.052537,0.0244235,0.805064,16.36,-24.2465)">
		<path class="st38" d="M354.9,125.8c1.1,0.2,0.9,1.1,1.1,1.8c2.4,7.8,1.2,16.3,3,24.8c0.7,3.3,2.6,6.7,6.1,7.7c0,0,0.5,0.2,0.6,0.6
			c0.2,0.7,0,1.3-1.4,0.9c-5.1-1.7-7-8-7.4-12.7c-0.4-4.9-0.1-9.9-0.9-14.7c-0.4-2.5-1.1-4.9-1.9-7.2
			C354,126.9,353.8,125.8,354.9,125.8z"/>
	</g>
	<g transform="matrix(1.08052,-1.38778e-17,6.93889e-18,1.06999,-16.3918,-5.3439)">
		<path class="st39" d="M259.8,108.6c0.1-0.3,0.1-0.6,0.2-0.9c1.6-4.9,18.3-10.3,18.1-11.8c0-0.2,0.9-8,0.8-8.3
			c-1.9-0.4-5.9-3.8-7.1-6.9c-3.2-7.5-2.9-12.8,0-21.6c3.5-10.6,14.1-7.5,16.6-6.1c4,2.3,5.3,6.7,5.4,9.8c0.2,14.4-5.1,23-8.3,24.6
			c0,0,0.1,4.2,1,8.3c2.7,2,6.8,1.9,9.5,4.6c2.7,1.6,6.2,4.1,6.9,6.5l-5.5,20.2c-2.8,7.2-5.2,14.5-3.7,17.4
			c0.1,0.2,11.7,23.5,11.8,23.7c12.3,27.9,0.2,79-0.8,89.5c-2.3,25.1-3.7,62.9-5.5,77.5c-0.5,3.7-1.2,8.5-0.3,13
			c-0.2,1.1-2.5,12.6-2.2,10.2c0,0-5.4-2.8-4.7-9.7c0.6-2.7,1.2-6.5,1.1-10.1c-0.1-4.2-1-8.1-1.4-11.3c-2.1-14.9-14.1-32.9-4-71.2
			c0.1-0.4-9.1-66.2-9.8-65.9c-4.9,2.1-18,47.1-19.9,52c-0.3,0.7-2.9,7.4-2.1,8.2c4.7,2,8.3,8,11.2,13c6.2,10.8,7.9,26.7,9.4,38.9
			c0.6,4.9,1.9,10.4,3.2,15.2c1.1,3.8,2.5,6.1,2.1,7.4c-0.8,10.9-3.9,4.3-3.9,4.3c0.1-0.3-9.2-24.2-20.5-41.8
			c-2.4-3.8-19.9-26.3-21.3-30.4c-2.6-7.9,0.4-39.6,12.2-71.1c5.7-15.2,17.4-33.6,18.8-37.1c1.2-3-1.3-11.2-3.7-19.6
			c0,0-6.1-12.3-4.2-17.9C259.2,110.4,259.5,109.5,259.8,108.6z"/>
		<g>
			<g>
				<g transform="matrix(0.925484,0,0,0.934587,15.1703,4.99434)">
					<g>
						<defs>
							<path id="SVGID_83_" d="M271.5,151.9c-12.6,20.2-21.7,42.6-30.2,64.8c-7.5,19.8-13.1,40.8-4.9,61.4
								c3.7,9.2,8.9,18.7,15.4,26.2c4.2,4.9,9.4,8.9,13.6,13.9c3,3.6,5.9,7.3,8.7,11c1.2,1.6,2.1,4.1,3.8,5.2
								c5.3,3.4,11.2-3.1,15.7,0.3c8,6.1,0,17.7,2.9,26c1.3,3.8,10.8,5,13.5,2.3c5.1-5.1,5.7-13.3,6.5-20
								c1.5-12.1,2.8-24.3,2.7-36.5c-0.1-11.9,1.4-23.7,1.7-35.6c0.2-8.8,1.1-17.5,1.7-26.3c1-14.8,2.3-31.9,0-46.7
								c-1.5-9.5-5.5-19.7-9.3-28.5c-3-6.8-6-17.6-13.2-21.3c-7.1-3.7-13.3-1.7-20.6-0.8L271.5,151.9z"/>
						</defs>
						<clipPath id="SVGID_6_">
							<use xlink:href="#SVGID_83_"  style="overflow:visible;"/>
						</clipPath>
					</g>
				</g>
			</g>
		</g>
	</g>
	<g transform="matrix(1,0,0,1.13978,0,-11.5363)">
		<path class="st38" d="M285.8,50.4c0,0-11.1,7.4-10.9,8.3c0.4,2.7,2.1,7.3,4.8,8.4c0.8,0.3,2.5,0.9,3.2,0.2c0.5-0.5,1-1,1.2-1.7
			c0.1-0.3,0-1,0-1s0,0.7,0.1,1c0.2,0.6,0.3,1.2,0.6,1.8c0.9,1.8,3.1,4.6,5.5,4.1c1.3-0.3,1.3-2.7,1.1-3.7c0-0.1-0.3-1.8-0.3-1.7
			c-0.2,0.2,0.3,1.1,0.4,1.3c0.5,1.3,3.1,4.2,5.2,5.3c2.1,1.2,5.8,2.6,7.5,1.6c3-1.9,1.9-7.4,1.2-10.2c-0.4-1.6-0.5-3.5-1.2-5
			c-2.1-4.2-3.7-5.9-8.1-7.6C294.7,51.1,287,50.4,285.8,50.4z"/>
	</g>
</g>
<path class="st378" d="M356.3,524.7c-2.1-1.1-4.1-7.7-4.6-9.4c-0.4,1.9-0.7,3.7-0.8,4.9c-0.3,3.4,5.8,10,6.6,10.4
	c0.7,0.3,5.6-7.8,3.5-15.3C360.2,517.6,358.8,526,356.3,524.7z"/>
<path class="st137" d="M326.3,247.9L326.3,247.9L326.3,247.9c-2.1,4.5-18.4,27.9-26.6,47.5c-17,40.8-22.3,82.6-19.1,93.2
	c1.7,5.6,24.2,37,27.3,42.2c7.6,12.9,13.3,25.4,17,34.4l9.7-1.9c-0.7-3.7-1.3-7.4-1.6-10.9c-1.5-16.3-3.2-37.5-11-52.4
	c-3.6-6.9-8.2-15.1-14.4-18.2c-1-1.1,2.8-9.8,3.2-10.7c2.7-6.4,22.1-64.9,28.7-67.3c0.9-0.3,10.6,87.7,10.4,88.3
	c-15,50,0.3,74.9,2.5,94.8c0.5,4.5,1.3,9.9,1.4,15.1l7.8-0.5c0.1-1.1,0.3-2.3,0.5-3.4c3-19.2,6.4-69.2,10.5-102.3
	c1.7-13.9,19.9-80.6,4.7-118.6c0-0.3-14.6-32.1-14.8-32.4c0,0,0-0.1,0-0.1l-1.1-1.5L326.3,247.9z"/>
<path class="st378" d="M333.5,488.2c2.1,4.4,4,7.7,4.7,7.8c1.5,0.2,1.6-12.1,1.7-15.9c0.1-3.8-0.2-5.3,2.8-3.5
	c1.3,0.8-1.5-3.3-4.3-5.5c-1.4-1.2-2.5-2-3.1-2.9l0,0c0,0,0.1,3.5,1.2,5.8c1.1,2.4,0.6,11.2,0.3,13.4
	C336.6,489.4,335,489.5,333.5,488.2z"/>
<path class="st389" d="M368,222l8.2-26.4c-0.8-3.2-5.4-6.8-9-9.2c-2.8-3.1-6.8-3.8-10.1-5.5l0,0c0,0-1.8,18.4-10.7,18.6
	c-8.9,0.2-6.1-18.6-6.1-18.6v0c-6.2,2.8-19.7,7.2-21.5,12.1c-0.1,0.4-0.3,0.7-0.4,1.1c-0.5,1.1-0.9,2.4-1.2,3.2
	c-2.7,7.3,4.9,24.2,4.9,24.2c2.9,11.4,5.9,22.5,4.2,26.4l34.9-4.7c0,0,0.2-0.4,0.7-1.1C361.8,237.4,364.7,229.6,368,222z"/>
<path class="st377" d="M320.1,191.1c0,0-12.3,17-15.2,23.4s-14.8,19.5-16.2,23.7c-1.4,4.1,0.5,12,9.8,9.8c8.4-2,27.5-53.6,27.5-53.6
	L320.1,191.1z"/>
<path class="st377" d="M375.7,194.4c0,0,7.3,15.8,10.2,22.2c2.9,6.4,14.9,21.8,14.9,26.6s-1.1,9.5-10.4,7.3
	c-8.4-2-36.4-46.9-36.4-46.9L375.7,194.4z"/>
<path class="st390" d="M305.5,205.6l14.5-4.7c5,0,48.1-0.5,62.5,1l3.9,4.4C386.4,206.3,318.9,211.4,305.5,205.6z"/>
<path class="st391" d="M386.4,206.3c0.4,1.1,0.4,2.5,0.4,3.5v1.8v1.4l-0.4,4.6c-0.4,3.2-0.4,6.3-1.3,9.5c-1.3,6.3,0,12.7-0.8,19
	c-0.4,6.3-1.3,12.7-1.7,19s-1.7,12.7-2.5,19l-0.4,2.8l-3.4-0.4c-5.9-0.7-12.3-1.4-18.2-2.1l-18.2-2.1c-5.9-0.7-12.3-0.7-18.2-1.1
	c-5.9-0.4-12.3-0.7-18.2-1.1h-1.7v-1.8l2.1-17.6c0.4-2.8,0.4-6,0.8-8.8c0-0.7,0-1.4,0-2.1v-2.1c0-1.4,0-2.8,0-4.6l0.4-17.6
	c0-6,0.4-12,0.4-17.6v-2.5h3.4c3.4,0,6.4,0,9.7,0c3.4,0,6.4,0.4,9.7,0.4h19.5c3.4,0,6.4,0.4,9.7,0.4c1.7,0,3.4,0,4.7,0
	c1.7,0,3.4,0,4.7,0L386.4,206.3z"/>
<path class="st9" d="M292.4,244c0,0.1,0.1,0.1,0.1,0.2c0.9,1.7,3.1,2.4,4.7,3.2c1.8,0.9,3.7,1.8,5.7,2.3c3.7,1.1,11.8,1.9,12.8,0.1
	c0.3-0.5-6.9-1.4-6.9-1.4s8.6,0.4,9.2-0.7c0.6-1-8.5-1.8-8.5-1.8s10,0.8,10.6-0.6c0.6-1.5-9.5-1.8-9.5-1.8s7.6,0.3,7.5-0.6
	c-0.1-1.1-4.6-1.3-8.2-1.8c-3.6-0.5-4.8-1.4-4.7-2c0-0.6,3.7-2.5,5.1-3.2c1.4-0.8,1.5-2.1,0-2.1c-1.6,0-4,1.3-5.7,1.5
	c-1.7,0.1-4.5-0.3-7.2,0.7c-1.6,0.6-3.1,0.5-4.1,2c-0.5,0.7-0.9,1.4-1.1,2.3c-0.2,0.6-0.2,1.2-0.1,1.8
	C292,242.6,292.1,243.3,292.4,244z"/>
<path class="st9" d="M395.2,247.2c0,0.1-0.1,0.1-0.1,0.2c-0.9,1.7-3.1,2.4-4.7,3.2c-1.8,0.9-3.7,1.8-5.7,2.3
	c-3.7,1.1-11.8,1.9-12.8,0.1c-0.3-0.5,6.9-1.4,6.9-1.4s-8.6,0.4-9.2-0.7c-0.6-1,8.5-1.8,8.5-1.8s-10,0.8-10.6-0.6
	c-0.6-1.5,9.5-1.8,9.5-1.8s-7.6,0.3-7.5-0.6c0.1-1.1,4.6-1.3,8.2-1.8c3.6-0.5,4.8-1.4,4.7-2c0-0.6-3.7-2.5-5.1-3.2
	c-1.4-0.8-1.5-2.1,0-2.1c1.6,0,4,1.3,5.7,1.5s4.5-0.3,7.2,0.7c1.6,0.6,3.1,0.5,4.1,2c0.5,0.7,0.9,1.4,1.1,2.3
	c0.2,0.6,0.2,1.2,0.1,1.8C395.6,245.9,395.5,246.5,395.2,247.2z"/>
<path class="st392" d="M337.5,206l-3.8,76l14.1,1.4l5.3-77.3C353.1,206.2,346.6,205.6,337.5,206z"/>
</svg>
