<?xml version="1.0" encoding="utf-8"?>
<!-- Generator: Adobe Illustrator 23.0.3, SVG Export Plug-In . SVG Version: 6.00 Build 0)  -->
<svg version="1.1" id="Layer_1" xmlns="http://www.w3.org/2000/svg" xmlns:xlink="http://www.w3.org/1999/xlink" x="0px" y="0px"
	 viewBox="0 0 287.4 115" style="enable-background:new 0 0 287.4 115;" xml:space="preserve">
<style type="text/css">
	.st0{clip-path:url(#SVGID_2_);fill:#F5E6E7;}
	.st1{clip-path:url(#SVGID_2_);}
	.st2{fill:none;stroke:#FEFEFE;}
	.st3{opacity:0.3;clip-path:url(#SVGID_2_);fill:#F4C4C9;enable-background:new    ;}
	.st4{clip-path:url(#SVGID_2_);fill:none;stroke:#FEFEFE;}
	.st5{clip-path:url(#SVGID_2_);fill:#F4C4C9;fill-opacity:0.7;}
	.st6{fill:#F2F2F2;}
	.st7{fill:#E6E6E6;}
	.st8{fill:#FFFFFF;}
	.st9{fill:#FFE6EC;}
	.st10{fill:#172D49;}
	.st11{fill:#FAB6C8;}
	.st12{fill:#FFCDD9;}
	.st13{fill:#FFA6BC;}
	.st14{fill:#E43B76;}
	.st15{fill:#CC2963;}
	.st16{fill:#F478AA;}
	.st17{fill:none;stroke:#CC2963;stroke-width:2;stroke-linecap:round;stroke-linejoin:round;stroke-miterlimit:10;}
	.st18{fill:#203550;}
	.st19{fill:#EDF5FF;}
	.st20{fill:#FCEFF0;}
	.st21{opacity:0.3;fill:#F4C4C9;enable-background:new    ;}
	.st22{fill:#F4C4C9;fill-opacity:0.7;}
	.st23{opacity:0.3;enable-background:new    ;}
	.st24{fill:#F4C4C9;}
	.st25{fill:#5B9CC9;}
	.st26{fill:#71B5E4;}
	.st27{fill:#FEFEFE;}
	.st28{fill:#71C9B4;}
	.st29{fill:#FFE194;}
	.st30{fill-rule:evenodd;clip-rule:evenodd;fill:none;stroke:#FEFEFE;}
	.st31{fill-rule:evenodd;clip-rule:evenodd;fill:none;stroke:#FEFEFE;stroke-miterlimit:10;}
	.st32{fill:#EF8087;}
	.st33{fill:#ABCC72;}
	.st34{fill:#E23B5B;}
	.st35{fill:#F67F9B;}
	.st36{fill-rule:evenodd;clip-rule:evenodd;fill:#E25F1A;}
	.st37{fill-rule:evenodd;clip-rule:evenodd;fill:#172D49;}
	.st38{fill-rule:evenodd;clip-rule:evenodd;fill:#FEFEFE;}
	.st39{fill-rule:evenodd;clip-rule:evenodd;fill:#F7BFB6;}
	.st40{clip-path:url(#SVGID_4_);}
	.st41{fill-rule:evenodd;clip-rule:evenodd;fill:#FFFFFF;}
	.st42{fill-rule:evenodd;clip-rule:evenodd;fill:#ED767E;}
	.st43{fill-rule:evenodd;clip-rule:evenodd;fill:#276B87;}
	.st44{clip-path:url(#SVGID_6_);}
	.st45{fill-rule:evenodd;clip-rule:evenodd;fill:#204861;}
	.st46{clip-path:url(#SVGID_8_);}
	.st47{clip-path:url(#SVGID_10_);}
	.st48{clip-path:url(#SVGID_12_);}
	.st49{fill-rule:evenodd;clip-rule:evenodd;fill:#F49804;}
	.st50{clip-path:url(#SVGID_14_);}
	.st51{fill:#EBEEED;}
	.st52{clip-path:url(#SVGID_16_);}
	.st53{clip-path:url(#SVGID_18_);}
	.st54{clip-path:url(#SVGID_20_);}
	.st55{fill-rule:evenodd;clip-rule:evenodd;fill:#009B8E;}
	.st56{fill-rule:evenodd;clip-rule:evenodd;fill:#E43B76;}
	.st57{clip-path:url(#SVGID_22_);}
	.st58{clip-path:url(#SVGID_24_);}
	.st59{fill:#4BADB3;}
	.st60{fill:#F49804;}
	.st61{fill:#CEE7E8;}
	.st62{opacity:0.6;fill:#CEE7E8;}
	.st63{opacity:0.35;fill:#9EDBDE;}
	.st64{opacity:0.66;fill:#9EDBDE;}
	.st65{fill:#9EDBDE;}
	.st66{fill:#BDE3E5;}
	.st67{fill:#AB4764;}
	.st68{fill:#CCE7FC;}
	.st69{fill:#E0F0FC;}
	.st70{fill:#76ADB0;}
	.st71{fill:#89C9CC;}
	.st72{fill:none;stroke:#56ABB0;stroke-miterlimit:10;}
	.st73{fill:#D1ECED;}
	.st74{fill:#F7BA90;}
	.st75{fill:#FFD97D;}
	.st76{fill:#93E2CE;}
	.st77{fill:#182D49;}
	.st78{fill:#FFE178;}
	.st79{fill:#FE6A84;}
	.st80{fill:#EE7E9A;}
	.st81{fill:none;stroke:#FFFFFF;stroke-miterlimit:10;}
	.st82{opacity:0.6;fill:#9EDBDE;}
	.st83{opacity:0.5;}
	.st84{fill:none;}
	.st85{fill:#E73C8D;}
	.st86{fill:#FAD65D;}
	.st87{fill:#FDF3F1;}
	.st88{fill:#FF70A5;}
	.st89{fill:#B7E5E8;}
	.st90{fill:#EBF2F2;}
	.st91{fill:none;stroke:#BDE3E5;stroke-width:2;stroke-miterlimit:10;}
	.st92{fill:url(#SVGID_26_);}
	.st93{fill:none;stroke:#FFFFFF;stroke-width:2;stroke-linecap:round;stroke-linejoin:round;stroke-miterlimit:10;}
	.st94{opacity:9.000000e-02;fill:#695A7A;}
	.st95{opacity:6.000000e-02;fill:#695A7A;}
	.st96{fill:none;stroke:#C6C4CE;stroke-miterlimit:10;}
	.st97{fill:#C6C4CE;}
	.st98{fill:#69627E;}
	.st99{fill:#2E3253;}
	.st100{opacity:0.15;fill:#69627E;}
	.st101{opacity:0.7;fill:none;stroke:#2E3253;stroke-miterlimit:10;}
	.st102{fill:#868096;}
	.st103{opacity:0.23;fill:#C6C4CE;}
	.st104{opacity:0.55;fill:none;stroke:#2E3253;stroke-miterlimit:10;}
	.st105{fill:#8E5A7A;}
	.st106{fill:#FAA244;}
	.st107{fill:#E0E3ED;}
	.st108{fill:#D3D1D9;}
	.st109{fill:none;stroke:#4E5275;stroke-miterlimit:10;}
	.st110{fill:#8F5B7B;}
	.st111{fill:#DE8E87;}
	.st112{fill:#F0C1BC;}
	.st113{fill:none;stroke:#2E3253;stroke-miterlimit:10;}
	.st114{fill:#1D9F9D;}
	.st115{fill:#0E7C74;}
	.st116{fill:#259E78;}
	.st117{fill:#3FC7A1;}
	.st118{fill:#D4D5E6;}
	.st119{fill:#40B1BD;}
	.st120{opacity:0.5;fill:#2E3253;}
	.st121{fill:#3C9B95;}
	.st122{fill:#2EC6B7;}
	.st123{fill:#6D2953;}
	.st124{fill:#4BBCB1;}
	.st125{fill:#009BA8;}
	.st126{fill:#3DC8A1;}
	.st127{opacity:0.45;fill:url(#SVGID_28_);}
	.st128{opacity:0.7;}
	.st129{opacity:0.7;fill:none;stroke:#C6C4CE;stroke-miterlimit:10;}
	.st130{opacity:0.14;fill:#FFFFFF;}
	.st131{opacity:9.000000e-02;}
	.st132{fill:#695A7A;}
	.st133{fill:none;stroke:#8E5A7A;stroke-width:0.5;stroke-miterlimit:10;}
	.st134{fill:none;stroke:#8E5A7A;stroke-miterlimit:10;}
	.st135{fill:#302D9C;}
	.st136{fill:#3D4278;}
	.st137{clip-path:url(#SVGID_32_);}
	.st138{fill:#C73367;}
	.st139{fill:#7B7FD6;}
	.st140{fill:#72C0C4;}
	.st141{fill:#6E72BF;}
	.st142{clip-path:url(#SVGID_36_);}
	.st143{opacity:0.3;fill:#695A7A;}
	.st144{fill:#ED767E;}
	.st145{clip-path:url(#SVGID_40_);}
	.st146{fill:#F2979D;}
	.st147{fill:none;stroke:#695A7A;stroke-miterlimit:10;}
	.st148{fill:#383D75;}
	.st149{fill:none;stroke:#9EDBDE;stroke-width:3;stroke-miterlimit:10;}
	.st150{clip-path:url(#SVGID_44_);}
	.st151{opacity:0.36;fill:#695A7A;}
	.st152{fill:none;stroke:#259E78;stroke-miterlimit:10;}
	.st153{fill:#92879F;}
	.st154{fill:none;stroke:#FEFEFE;stroke-miterlimit:10;}
	.st155{fill:#ECB2AC;}
	.st156{fill:#D0CBD5;}
	.st157{fill:none;stroke:#B6AFBF;stroke-miterlimit:10;}
	.st158{fill:#6A5A7A;}
	.st159{fill:#B4AABD;}
	.st160{fill:#8F849C;}
	.st161{fill:#827391;}
	.st162{clip-path:url(#SVGID_48_);}
	.st163{fill:#1D9E9C;}
	.st164{fill:#4D5286;}
	.st165{fill:#E64783;}
	.st166{fill:none;stroke:#4D5286;stroke-width:3;stroke-miterlimit:10;}
	.st167{clip-path:url(#SVGID_50_);}
	.st168{opacity:4.000000e-02;fill:#695A7A;}
	.st169{opacity:0.12;fill:#695A7A;}
	.st170{fill:none;stroke:#C6C4CE;stroke-width:3;stroke-miterlimit:10;}
	.st171{fill:none;stroke:#1D9F9D;stroke-miterlimit:10;}
	.st172{opacity:7.000000e-02;fill:none;stroke:#695A7A;stroke-miterlimit:10;}
	.st173{opacity:4.000000e-02;fill:#FFFFFF;}
	.st174{opacity:7.000000e-02;fill:#FFFFFF;}
	.st175{fill:#B6AFBF;}
	.st176{clip-path:url(#SVGID_52_);}
	.st177{clip-path:url(#SVGID_54_);}
	.st178{opacity:0.3;fill:#A3D0C7;}
	.st179{opacity:0.37;fill:#A3D0C7;}
	.st180{fill:#EAACA5;}
	.st181{fill:none;stroke:#1D9E9C;stroke-miterlimit:10;}
	.st182{fill:none;stroke:#7A2B36;stroke-miterlimit:10;}
	.st183{fill:none;stroke:#0E7C74;stroke-width:1.7183;stroke-miterlimit:10;}
	.st184{fill:#D2EFFF;}
	.st185{fill:none;stroke:#D2EFFF;stroke-miterlimit:10;}
	.st186{fill:#F478AA;stroke:#F478AA;stroke-linejoin:round;stroke-miterlimit:10;}
	.st187{fill:#EA5C9D;}
	.st188{fill:#162C49;}
	.st189{fill:#E43B76;stroke:#E43B76;stroke-linecap:round;stroke-linejoin:round;stroke-miterlimit:10;}
	.st190{clip-path:url(#SVGID_56_);fill:#D2EFFF;}
	.st191{clip-path:url(#SVGID_56_);fill:#FFFFFF;}
	.st192{clip-path:url(#SVGID_56_);}
	.st193{fill:#59BCA4;}
	.st194{fill:none;stroke:#FDF6F1;stroke-miterlimit:10;}
	.st195{fill:#FDF6F1;}
	.st196{fill:#71B6E5;}
	.st197{fill:url(#SVGID_57_);}
	.st198{fill:#FFDEF0;}
	.st199{fill:#D7ECFC;}
	.st200{fill:#A5E5E8;}
	.st201{fill:#FF385C;}
	.st202{fill:#FF79AC;}
	.st203{fill:#6FA6D5;}
	.st204{fill:#2A679C;}
	.st205{fill:#C4DBF0;}
	.st206{fill:#BBD2E8;}
	.st207{fill:none;stroke:#2A679C;stroke-width:3;stroke-linecap:round;stroke-linejoin:round;stroke-miterlimit:10;}
	.st208{fill:#9BC2E6;}
	.st209{fill:#FCF1CF;}
	.st210{fill:#FCE6A1;}
	.st211{clip-path:url(#Fill-1_7_);}
	.st212{fill:#FFE0E3;}
	.st213{fill:#FFC400;}
	.st214{fill:#FFF0F1;}
	.st215{fill:#CFE9FF;}
	.st216{fill:#FFC7CB;}
	.st217{fill:none;stroke:#FFD9DC;stroke-miterlimit:10;}
	.st218{fill:none;stroke:#FF385C;stroke-width:2;stroke-miterlimit:10;}
	.st219{fill-rule:evenodd;clip-rule:evenodd;fill:#FCF1CF;}
	.st220{fill:#F9E29C;}
	.st221{fill:#B6E3D6;}
	.st222{fill:#5497C4;}
	.st223{fill:#3977A1;}
	.st224{fill-rule:evenodd;clip-rule:evenodd;fill:#ABCC72;}
	.st225{fill:none;stroke:#3977A1;stroke-width:3;stroke-miterlimit:10;}
	.st226{fill:#FBE1E2;}
	.st227{fill:#E43C76;}
	.st228{fill:#FAD8CC;}
	.st229{fill:#ECDAC9;}
	.st230{fill:#FDEEEB;}
	.st231{fill:none;stroke:#E43C76;}
	.st232{fill:#E9E9E9;}
	.st233{fill:#3B9CD2;}
	.st234{fill:none;stroke:#F4C4C9;stroke-width:2;}
	.st235{fill:#E1EFF1;}
	.st236{fill:#D0E2E7;}
	.st237{fill:#B7D1D7;}
	.st238{fill:#F7F9F9;}
	.st239{fill:#F8C7B5;}
	.st240{fill:none;stroke:#FBE1E2;}
	.st241{fill:none;stroke:#FBE1E2;stroke-width:2;}
	.st242{fill:#9786B3;}
	.st243{fill:#83749F;}
	.st244{fill:#6B5F89;}
	.st245{fill:#83CCD9;}
	.st246{fill:#EE7B7D;}
	.st247{fill:#F8BA7A;}
	.st248{fill:#A7CC79;}
	.st249{fill:#DA717C;}
	.st250{fill:#C56170;}
	.st251{fill:#9685BD;}
	.st252{fill:#DDECFC;}
	.st253{fill:none;stroke:#FFFFFF;stroke-width:4.2057;stroke-linecap:round;stroke-linejoin:round;stroke-miterlimit:10;}
	.st254{fill:#A7E3E8;}
	.st255{fill:none;stroke:#FFFFFF;stroke-width:3.1542;stroke-linecap:round;stroke-linejoin:round;stroke-miterlimit:10;}
	.st256{fill:none;stroke:#F478AA;stroke-width:2;stroke-miterlimit:10;}
	.st257{fill:none;stroke:#A7E3E8;stroke-width:3;stroke-miterlimit:10;}
	.st258{fill:none;stroke:#A7E3E8;stroke-width:2;stroke-linecap:round;stroke-linejoin:round;stroke-miterlimit:10;}
	.st259{fill:none;stroke:#FFFFFF;stroke-width:2;stroke-linecap:round;stroke-linejoin:round;}
	.st260{fill:#DDECFC;stroke:#FFFFFF;stroke-width:2;}
	.st261{opacity:0.75;fill:#FCF3EF;}
	.st262{fill:#A0D0DE;}
	.st263{fill:#77ADBD;}
	.st264{fill:#F0E2E3;}
	.st265{fill:#568B9C;}
	.st266{fill:#E63976;}
	.st267{fill:none;stroke:#77ADBD;stroke-width:5;stroke-linecap:round;stroke-linejoin:round;stroke-miterlimit:10;}
	.st268{fill:#E7487D;}
	.st269{fill:#EA7DA5;}
	.st270{fill:#EE5A92;}
	.st271{fill:#F28EB7;}
	.st272{fill:#FBEEED;}
	.st273{fill:#7A2B36;}
	.st274{fill-rule:evenodd;clip-rule:evenodd;fill:#182D49;}
	.st275{fill-rule:evenodd;clip-rule:evenodd;fill:#7D8FFC;}
	.st276{fill-rule:evenodd;clip-rule:evenodd;fill:#FFA79B;}
	.st277{fill-rule:evenodd;clip-rule:evenodd;fill:url(#SVGID_58_);}
	.st278{fill-rule:evenodd;clip-rule:evenodd;fill:url(#SVGID_59_);}
	.st279{fill-rule:evenodd;clip-rule:evenodd;fill:url(#SVGID_60_);}
	.st280{fill-rule:evenodd;clip-rule:evenodd;fill:#00111A;}
	.st281{fill-rule:evenodd;clip-rule:evenodd;fill:#8FD2FF;}
	.st282{fill:none;stroke:#FFFDFF;stroke-width:8.7882;stroke-linecap:square;stroke-linejoin:bevel;stroke-miterlimit:10;}
	.st283{clip-path:url(#SVGID_61_);fill:#E3E3E5;}
	.st284{opacity:0.3;clip-path:url(#SVGID_62_);fill:#949494;enable-background:new    ;}
	.st285{clip-path:url(#SVGID_63_);fill:none;stroke:#FFFDFF;stroke-width:8.7882;stroke-linecap:square;stroke-miterlimit:10;}
	.st286{clip-path:url(#SVGID_64_);fill:none;stroke:#FFFDFF;stroke-width:8.7882;stroke-linecap:square;stroke-miterlimit:10;}
	.st287{clip-path:url(#SVGID_65_);fill:none;stroke:#FFFDFF;stroke-width:8.7882;stroke-linecap:square;stroke-miterlimit:10;}
	.st288{clip-path:url(#SVGID_66_);fill:none;stroke:#FFFDFF;stroke-width:8.7882;stroke-linecap:square;stroke-miterlimit:10;}
	.st289{clip-path:url(#SVGID_67_);fill:#CAD658;stroke:#FFFDFF;stroke-width:7;stroke-miterlimit:10;}
	.st290{opacity:0.3;clip-path:url(#SVGID_68_);fill:#949494;enable-background:new    ;}
	.st291{opacity:0.3;clip-path:url(#SVGID_69_);fill:#949494;enable-background:new    ;}
	.st292{opacity:0.3;clip-path:url(#SVGID_70_);fill:#606060;enable-background:new    ;}
	.st293{clip-path:url(#SVGID_71_);}
	.st294{fill:#F8F6F4;}
	.st295{clip-path:url(#SVGID_72_);fill:none;}
	.st296{clip-path:url(#SVGID_74_);}
	.st297{opacity:4.000000e-02;}
	.st298{opacity:6.000000e-02;}
	.st299{opacity:0.2;}
	.st300{fill:#008E91;}
	.st301{opacity:0.12;}
	.st302{clip-path:url(#SVGID_76_);}
	.st303{fill:#F0B64C;}
	.st304{fill:none;stroke:#9A722A;stroke-width:3;stroke-linecap:round;stroke-linejoin:round;stroke-miterlimit:10;}
	.st305{fill:#9A722A;}
	.st306{opacity:0.91;fill:#D0CBD5;}
	.st307{fill:none;stroke:#6A5A7A;stroke-miterlimit:10;}
	.st308{clip-path:url(#SVGID_78_);}
	.st309{clip-path:url(#SVGID_80_);}
	.st310{fill:none;stroke:#4D5286;stroke-width:4;stroke-miterlimit:10;}
	.st311{opacity:0.39;fill:#F0C1BC;}
	.st312{fill:#F9E5E3;}
	.st313{fill:none;stroke:#ECB2AC;stroke-miterlimit:10;}
	.st314{opacity:0.39;fill:#FFFFFF;}
	.st315{opacity:0.62;fill:#F0C1BC;}
	.st316{fill:#E33174;}
	.st317{fill:#AAA0B4;}
	.st318{opacity:0.5;fill:#827391;}
	.st319{fill:none;stroke:#6A5A7A;stroke-linecap:round;stroke-linejoin:round;stroke-miterlimit:10;}
	.st320{opacity:0.4;fill:#827391;}
	.st321{fill:none;stroke:#D7D2DA;stroke-linecap:round;stroke-linejoin:round;stroke-miterlimit:10;}
	.st322{opacity:0.77;fill:#B4AABD;}
	.st323{fill:none;stroke:#FFFFFF;stroke-linecap:round;stroke-linejoin:round;stroke-miterlimit:10;}
	.st324{fill:#D6D5DC;}
	.st325{fill:#14183E;}
	.st326{fill:#D7D2DA;}
	.st327{opacity:0.13;fill:#6A5A7A;}
	.st328{fill:#116C6F;}
	.st329{fill:none;stroke:#0E7C74;stroke-width:2;stroke-linecap:round;stroke-linejoin:round;stroke-miterlimit:10;}
	.st330{fill:#F5D8D5;}
	.st331{fill:#EBA49B;}
	.st332{fill:none;stroke:#F5D8D5;stroke-width:3;stroke-miterlimit:10;}
	.st333{fill:#434865;}
	.st334{opacity:4.000000e-02;fill:none;stroke:#FFFFF0;stroke-width:2;stroke-miterlimit:10;}
	.st335{opacity:4.000000e-02;fill:#FFFFF0;}
	.st336{fill:#005D6C;}
	.st337{fill:#DEDEE0;}
	.st338{fill:#91B5CC;}
	.st339{fill:#B5B5B9;}
	.st340{fill:#E76E60;}
	.st341{fill:#DB6270;}
	.st342{fill:#575B76;}
	.st343{fill:none;stroke:#434865;stroke-width:2;stroke-miterlimit:10;}
	.st344{fill:none;stroke:#2E3253;stroke-width:2;stroke-miterlimit:10;}
	.st345{fill:none;stroke:#8E5A7A;stroke-width:3;stroke-miterlimit:10;}
	.st346{fill:#0E7C74;stroke:#1D9E9C;stroke-width:2;stroke-linecap:round;stroke-linejoin:round;stroke-miterlimit:10;}
	.st347{opacity:0.46;fill:#FFFFFF;}
	.st348{fill:none;stroke:#69627E;stroke-width:2;stroke-linecap:round;stroke-linejoin:round;stroke-miterlimit:10;}
	.st349{fill:none;stroke:#2E3253;stroke-width:2;stroke-linejoin:round;stroke-miterlimit:10;}
	.st350{fill:none;stroke:#2E3253;stroke-width:1.5;stroke-linecap:round;stroke-linejoin:round;stroke-miterlimit:10;}
	.st351{fill:none;stroke:#2E3253;stroke-width:2;stroke-linecap:round;stroke-linejoin:round;stroke-miterlimit:10;}
	.st352{fill:#464E6E;}
	.st353{opacity:7.000000e-02;fill:#FFFFF0;}
	.st354{fill:#EDB6B0;}
	.st355{fill:#EB8B8B;}
	.st356{opacity:0.36;fill:none;stroke:#FFFFF0;stroke-width:2;stroke-miterlimit:10;}
	.st357{fill:#EBADA6;}
	.st358{fill:#3A3F5C;}
	.st359{fill:#3C4263;}
	.st360{fill:#24284A;}
	.st361{fill-rule:evenodd;clip-rule:evenodd;fill:#1D9E9C;}
	.st362{fill:#E4EDF8;}
	.st363{fill:none;stroke:#C8DBF4;stroke-miterlimit:10;}
	.st364{opacity:0.54;fill:#9DC3F3;}
	.st365{fill:#D4E4F8;}
	.st366{fill:#C8DBF4;}
	.st367{fill:#9FC1F4;}
	.st368{opacity:0.3;fill:#9FC1F4;}
	.st369{fill:#02707C;}
	.st370{fill:#501E4D;}
	.st371{fill:#5E5853;}
	.st372{fill:#9DC3F3;}
	.st373{fill:#FFB27D;}
	.st374{fill:#DD732C;}
	.st375{fill:#993D86;}
	.st376{fill:#FFCCCC;}
	.st377{fill:#E77787;}
	.st378{fill:#FF894B;}
	.st379{fill:none;stroke:#FFFFFF;stroke-width:0.5;stroke-miterlimit:10;}
	.st380{opacity:0.35;}
	.st381{filter:url(#Adobe_OpacityMaskFilter);}
	.st382{filter:url(#Adobe_OpacityMaskFilter_1_);}
	.st383{mask:url(#SVGID_81_);fill:url(#SVGID_82_);}
	.st384{opacity:0.4;fill:#FFFFFF;}
	.st385{opacity:0.4;fill:#FFF7CC;}
	.st386{fill-rule:evenodd;clip-rule:evenodd;fill:#FFCCCC;}
	.st387{fill:#BA7529;}
	.st388{fill:#E09D51;}
	.st389{fill:#D9903F;}
	.st390{opacity:0.3;fill:#FFFFFF;enable-background:new    ;}
	.st391{fill:none;stroke:#FEFEFE;stroke-linecap:round;stroke-linejoin:round;}
	.st392{opacity:0.3;fill:#F1B4BB;enable-background:new    ;}
</style>
<g>
	<path id="Fill-9_4_" class="st21" d="M116,32.1c0-2.4,1.9-4.3,4.3-4.3h83.5c2.4,0,4.3,1.9,4.3,4.3v40c0,2.4-1.9,4.3-4.3,4.3h-83.5
		c-2.4,0-4.3-1.9-4.3-4.3V32.1z"/>
	<g>
		<g>
			<g>
				<path class="st2" d="M178.1,46.9c0.4,1.7,0.3,3,0,4.1h-6.9c-0.3-1.1-0.5-2.4-0.1-4.1c0.3-1.1,1.8-3.7,3.5-3.8
					C176.3,43.2,177.8,45.7,178.1,46.9z"/>
				<path class="st22" d="M178,52.1h-3.5h-3.5h-0.4c0,4.7,4.9,6.5,2.7,8.7c0,0.1-2.7,0.3-2.7,1.7c0,0.2,0.2,0.3,0.5,0.3h2.2h1.2h1.2
					h2.2c0.3,0,0.5-0.1,0.5-0.3c0-1.3-2.7-1.7-2.7-1.7c-2.2-2.3,2.7-4.1,2.7-8.7H178z"/>
			</g>
			<g>
				<path class="st2" d="M187,46.9c0.4,1.7,0.3,3,0,4.1h-6.9c-0.3-1.1-0.5-2.4-0.1-4.1c0.3-1.1,1.8-3.7,3.5-3.8
					C185.3,43.1,186.7,45.7,187,46.9z"/>
				<path class="st22" d="M186.9,52.1h-3.5H180h-0.4c0,4.7,4.9,6.5,2.7,8.7c0,0.1-2.7,0.3-2.7,1.7c0,0.2,0.2,0.3,0.5,0.3h2.2h1.2
					h1.2h2.2c0.3,0,0.5-0.1,0.5-0.3c0-1.3-2.7-1.7-2.7-1.7c-2.2-2.3,2.7-4.1,2.7-8.7H186.9z"/>
			</g>
			<g>
				<path class="st2" d="M195.9,46.9c0.4,1.7,0.3,3,0,4.1H189c-0.3-1.1-0.5-2.4-0.1-4.1c0.3-1.1,1.8-3.7,3.5-3.8
					C194.2,43.1,195.7,45.7,195.9,46.9z"/>
				<path class="st22" d="M195.9,52.1h-3.5H189h-0.4c0,4.7,4.9,6.5,2.7,8.7c0,0.1-2.7,0.3-2.7,1.7c0,0.2,0.2,0.3,0.5,0.3h2.2h1.2
					h1.2h2.2c0.3,0,0.5-0.1,0.5-0.3c0-1.3-2.7-1.7-2.7-1.7c-2.2-2.3,2.7-4.1,2.7-8.7H195.9z"/>
			</g>
		</g>
		<g class="st23">
			<g>
				<path class="st24" d="M163.2,46.8h-29.8c-0.7,0-1.2-0.5-1.2-1.2l0,0c0-0.7,0.5-1.2,1.2-1.2h29.8c0.7,0,1.2,0.5,1.2,1.2l0,0
					C164.5,46.3,163.9,46.8,163.2,46.8z"/>
				<path class="st24" d="M153.1,55.2c0.2-0.1,0.4-0.4,0.4-0.7c0-0.3-0.2-0.6-0.5-0.7c2.1-0.5,2.5-1.5,2.5-2.6
					c0-1.4-0.5-2.2-2.7-2.7c0.3,0,0.6-0.4,0.6-0.8c0-0.4-0.3-0.8-0.7-0.8h-8.6c-0.4,0-0.7,0.3-0.7,0.8c0,0.4,0.3,0.8,0.6,0.8
					c-2.1,0.4-2.6,1.3-2.6,2.7c0,1.1,0.6,2.1,2.6,2.6c-0.4,0-0.7,0.4-0.7,0.8c0,0.3,0.2,0.6,0.4,0.7c-1.9,0.4-2.3,1.3-2.3,2.6
					c0,1.7,1.4,3,7,3c6.1,0,7-1.4,7-3C155.6,56.5,155.1,55.6,153.1,55.2z"/>
				<path class="st24" d="M157.4,63.3H140c-0.7,0-1.2-0.5-1.2-1.2l0,0c0-0.7,0.5-1.2,1.2-1.2h17.4c0.7,0,1.2,0.5,1.2,1.2l0,0
					C158.6,62.8,158.1,63.3,157.4,63.3z"/>
				<path class="st24" d="M160.4,32.1h-23c-0.7,0-1.2-0.5-1.2-1.2l0,0c0-0.7,0.5-1.2,1.2-1.2h23c0.7,0,1.2,0.5,1.2,1.2l0,0
					C161.6,31.6,161,32.1,160.4,32.1z"/>
				<rect x="147.5" y="32" class="st24" width="2.2" height="12.1"/>
				<g>
					<g>
						<path class="st24" d="M133.1,39.1l1.8,5.1c0,0,0.8,0.9,3.6,0.8c2.8-0.1,3.3-0.9,3.3-0.9l1.4-5c0,0-1.3,1.3-4.8,1.5
							C134.7,40.5,133.1,39.1,133.1,39.1z"/>
						<path class="st24" d="M138.1,34c0,0.9,1,1.8,1.5,1.7c0.7,0,1.5,0.3,2.1,1.3c1.5,0.3,1.9,1.1,1.8,1.5c-0.1,0.4-0.8,1.7-5.1,2
							c-4.3,0.2-5.4-1.5-5.5-1.9c0-0.4,0.5-1.1,1.8-1c0.5-0.9,0.8-1.2,1.7-1.3C137,36.1,136.8,34.5,138.1,34z"/>
						<path class="st24" d="M135.9,38.1c0,0,2.1,1,4.1,0"/>
					</g>
					<line class="st24" x1="135.1" y1="41" x2="135.8" y2="43.8"/>
					<line class="st24" x1="136.8" y1="41.3" x2="137.1" y2="44.1"/>
					<line class="st24" x1="139.9" y1="41.3" x2="139.7" y2="43.9"/>
					<line class="st24" x1="141.4" y1="40.8" x2="141" y2="43.7"/>
				</g>
				<g>
					<g>
						<path class="st24" d="M154,38.8l1.8,5.1c0,0,0.8,0.9,3.6,0.8c2.8-0.1,3.3-0.9,3.3-0.9l1.4-5c0,0-1.3,1.3-4.8,1.5
							C155.7,40.3,154,38.8,154,38.8z"/>
						<path class="st24" d="M159,33.8c0,0.9,1,1.8,1.5,1.7c0.7,0,1.5,0.3,2.1,1.3c1.5,0.3,1.9,1.1,1.8,1.5s-0.8,1.7-5.1,2
							c-4.3,0.2-5.4-1.5-5.5-1.9c0-0.4,0.5-1.1,1.8-1c0.5-0.9,0.8-1.2,1.7-1.3C157.9,35.9,157.8,34.2,159,33.8z"/>
						<path class="st24" d="M156.9,37.9c0,0,2.1,1,4.1,0"/>
					</g>
					<line class="st24" x1="156" y1="40.8" x2="156.7" y2="43.6"/>
					<line class="st24" x1="157.7" y1="41.1" x2="158" y2="43.8"/>
					<line class="st24" x1="160.8" y1="41.1" x2="160.6" y2="43.7"/>
					<line class="st24" x1="162.4" y1="40.6" x2="161.9" y2="43.5"/>
				</g>
				<g>
					<g>
						<path class="st24" d="M143.7,39.1l1.8,5.1c0,0,0.8,0.9,3.6,0.8c2.8-0.1,3.3-0.9,3.3-0.9l1.4-5c0,0-1.3,1.3-4.8,1.5
							C145.4,40.5,143.7,39.1,143.7,39.1z"/>
						<path class="st24" d="M148.8,34c0,0.9,1,1.8,1.5,1.7c0.7,0,1.5,0.3,2.1,1.3c1.5,0.3,1.9,1.1,1.8,1.5c-0.1,0.4-0.8,1.7-5.1,2
							c-4.3,0.2-5.4-1.5-5.5-1.9c0-0.4,0.5-1.1,1.8-1c0.5-0.9,0.8-1.2,1.7-1.3C147.7,36.1,147.5,34.5,148.8,34z"/>
						<path class="st24" d="M146.7,38.1c0,0,2.1,1,4.1,0"/>
					</g>
					<line class="st24" x1="145.8" y1="41" x2="146.5" y2="43.8"/>
					<line class="st24" x1="147.5" y1="41.3" x2="147.8" y2="44.1"/>
					<line class="st24" x1="150.6" y1="41.3" x2="150.4" y2="43.9"/>
					<line class="st24" x1="152.1" y1="40.8" x2="151.7" y2="43.7"/>
				</g>
				<g>
					<path class="st24" d="M148.7,36.1c-0.1-0.2,0-0.8-0.7-0.7c-0.7,0-0.8,1.1-0.6,1.7c0.2,0.5,1.5,0.6,1.8,0
						C149.5,36.6,148.8,36.3,148.7,36.1z"/>
					<path class="st24" d="M148.7,36.1c0.2,0.2,1.4-0.7,0.7-1.9"/>
				</g>
				<g>
					<path class="st24" d="M159.3,35.8c-0.1-0.2,0-0.8-0.7-0.7s-0.8,1.1-0.6,1.7c0.2,0.5,1.5,0.6,1.8,0
						C160.1,36.2,159.4,36,159.3,35.8z"/>
					<path class="st24" d="M159.3,35.8c0.2,0.2,1.4-0.7,0.7-1.9"/>
				</g>
				<g>
					<g>
						<g>
							<path class="st24" d="M139,25l1.8,5.1c0,0,0.8,0.9,3.6,0.8c2.8-0.1,3.3-0.9,3.3-0.9l1.4-5c0,0-1.3,1.3-4.8,1.5
								C140.6,26.4,139,25,139,25z"/>
							<path class="st24" d="M144,19.9c0,0.9,1,1.8,1.5,1.7c0.7,0,1.5,0.3,2.1,1.3c1.5,0.3,1.9,1.1,1.8,1.5c-0.1,0.4-0.8,1.7-5.1,2
								c-4.3,0.2-5.4-1.5-5.5-1.9c0-0.4,0.5-1.1,1.8-1c0.5-0.9,0.8-1.2,1.7-1.3C142.9,22,142.7,20.4,144,19.9z"/>
							<path class="st24" d="M141.9,24c0,0,2.1,1,4.1,0"/>
						</g>
						<line class="st24" x1="141" y1="26.9" x2="141.7" y2="29.6"/>
						<line class="st24" x1="142.7" y1="27.2" x2="143" y2="29.9"/>
						<line class="st24" x1="145.8" y1="27.2" x2="145.7" y2="29.8"/>
						<line class="st24" x1="147.3" y1="26.7" x2="146.9" y2="29.6"/>
					</g>
					<g>
						<path class="st24" d="M144.3,21.6c-0.1-0.2,0-0.8-0.7-0.7c-0.7,0-0.8,1.1-0.6,1.7c0.2,0.5,1.5,0.6,1.8,0
							S144.4,21.8,144.3,21.6z"/>
						<path class="st24" d="M144.3,21.6c0.2,0.2,1.4-0.7,0.7-1.9"/>
					</g>
				</g>
				<g>
					<path class="st24" d="M138.4,36c-0.1-0.2,0-0.8-0.7-0.7s-0.8,1.1-0.6,1.7c0.2,0.5,1.5,0.6,1.8,0
						C139.3,36.4,138.6,36.1,138.4,36z"/>
					<path class="st24" d="M138.4,36c0.2,0.2,1.4-0.7,0.7-1.9"/>
				</g>
			</g>
			<g>
				<g>
					<path class="st24" d="M160.3,25.2l-1.8,5.1c0,0-0.8,0.9-3.6,0.8c-2.8-0.1-3.3-0.9-3.3-0.9l-1.4-5c0,0,1.3,1.3,4.8,1.5
						C158.6,26.7,160.3,25.2,160.3,25.2z"/>
					<path class="st24" d="M155.2,20.2c0,0.9-1,1.8-1.5,1.7c-0.7,0-1.5,0.3-2.1,1.3c-1.5,0.3-1.9,1.1-1.8,1.5c0.1,0.4,0.8,1.7,5.1,2
						c4.3,0.2,5.4-1.5,5.5-1.9c0-0.4-0.5-1.1-1.8-1c-0.5-0.9-0.8-1.2-1.7-1.3C156.3,22.3,156.5,20.6,155.2,20.2z"/>
					<path class="st24" d="M157.4,24.3c0,0-2.1,1-4.1,0"/>
				</g>
				<path class="st24" d="M155.9,21.9c-0.1-0.2,0-0.8-0.7-0.7c-0.7,0-0.8,1.1-0.6,1.7c0.2,0.5,1.5,0.6,1.8,0
					C156.7,22.3,156,22.1,155.9,21.9z"/>
				<path class="st24" d="M155.9,21.9c0.2,0.2,1.4-0.7,0.7-1.9"/>
				<line class="st24" x1="158.3" y1="27.2" x2="157.6" y2="29.9"/>
				<line class="st24" x1="156.6" y1="27.5" x2="156.3" y2="30.2"/>
				<line class="st24" x1="153.4" y1="27.5" x2="153.6" y2="30"/>
				<line class="st24" x1="152" y1="27" x2="152.4" y2="29.8"/>
			</g>
		</g>
		<path id="Fill-55_23_" class="st22" d="M201,66.1c0,0.8-0.5,1.5-1.2,1.5h-67.2c-0.7,0-1.2-0.6-1.2-1.5s0.5-1.5,1.2-1.5h67.2
			C200.4,64.6,201,65.2,201,66.1"/>
	</g>
	<g>
		<g>
			<path id="Fill-3_5_" class="st21" d="M84.8,54.2c0,2.4-1,4.3-2.2,4.3H2.2C1,58.5,0,56.6,0,54.2V4.3C0,1.9,1,0,2.2,0h80.3
				c1.2,0,2.2,1.9,2.2,4.3V54.2z"/>
			<path id="Stroke-51_13_" class="st2" d="M67.6,38h-4.9c-2.1,0-3.4-1.3-3.4-3.4v-8.5H71v8.5C71,36.7,69.6,38,67.6,38z"/>
			<path id="Stroke-52_15_" class="st2" d="M69.6,23.2c0.1-0.1,0.1-0.3,0.1-0.4c0-0.8-1.2-1.4-3-1.7c0-0.1,0.1-0.2,0.1-0.4
				c0-0.7-0.7-1.2-1.6-1.2c-0.9,0-1.6,0.6-1.6,1.2c0,0.1,0,0.2,0.1,0.4c-1.7,0.3-3,0.9-3,1.7c0,0.1,0,0.2,0.1,0.3
				c-1.2,0.8-2,1.8-2,3h12.6C71.4,25,70.7,24,69.6,23.2z"/>
			<polygon id="Stroke-53_9_" class="st2" points="60.3,34.1 69.7,34.1 69.7,29.4 60.3,29.4 			"/>
			<path id="Fill-55_21_" class="st22" d="M79.6,41.6c0,1.4-0.5,2.6-1.2,2.6H11.6c-0.7,0-1.2-1.2-1.2-2.6c0-1.4,0.5-2.6,1.2-2.6
				h66.8C79,39,79.6,40.1,79.6,41.6"/>
			<g>
				<path class="st30" d="M42.7,18.9h12.8v17.8c0,0.4-0.4,0.8-0.8,0.8H43.6c-0.5,0-0.9-0.4-0.9-0.8V18.9z"/>
				<path class="st31" d="M55.7,18.5h-0.3c-1.4-1.3-3.4-2.1-5.7-2.3v-0.4c0.3-0.2,0.5-0.5,0.5-0.9c0-0.6-0.5-1.1-1.1-1.1
					c-0.6,0-1.1,0.5-1.1,1.1c0,0.4,0.2,0.7,0.5,0.9v0.4c-2.3,0.1-4.3,1-5.7,2.3h-0.3c-0.1,0-0.2,0.1-0.2,0.2s0.1,0.2,0.2,0.2h13.3
					c0.1,0,0.2-0.1,0.2-0.2S55.9,18.5,55.7,18.5z"/>
				<path class="st30" d="M48.1,24.7c-0.9,0-1.3-0.3-2-0.4c-1.2-0.1-1.6,1.2-1.1,1.6c-0.5,0.1-0.9,0.6-0.9,1.1c0,0.5,0.4,1,0.9,1.1
					c-0.5,0.4-0.1,1.7,1.1,1.6c0.7-0.1,1.2-0.4,2-0.4c0.6,0,0.8,0.3,1,0.8c0.2-0.5,0.4-0.8,1-0.8c0.9,0,1.3,0.3,2,0.4
					c1.2,0.1,1.6-1.2,1.1-1.6c0.5-0.1,0.9-0.6,0.9-1.1c0-0.5-0.4-1-0.9-1.1c0.5-0.4,0.1-1.7-1.1-1.6c-0.7,0.1-1.2,0.4-2,0.4
					c-0.4,0-0.7-0.1-0.9-0.4c-0.1-0.1-0.1-0.2-0.2-0.3C48.9,24.4,48.7,24.7,48.1,24.7z"/>
			</g>
			<g>
				<path class="st30" d="M24.3,18.9h12.8v17.8c0,0.4-0.4,0.8-0.8,0.8H25.2c-0.5,0-0.9-0.4-0.9-0.8V18.9z"/>
				<path class="st31" d="M37.4,18.5h-0.3c-1.4-1.3-3.4-2.1-5.7-2.3v-0.4c0.3-0.2,0.5-0.5,0.5-0.9c0-0.6-0.5-1.1-1.1-1.1
					c-0.6,0-1.1,0.5-1.1,1.1c0,0.4,0.2,0.7,0.5,0.9v0.4c-2.3,0.1-4.3,1-5.7,2.3h-0.3c-0.1,0-0.2,0.1-0.2,0.2s0.1,0.2,0.2,0.2h13.3
					c0.1,0,0.2-0.1,0.2-0.2S37.5,18.5,37.4,18.5z"/>
				<path class="st30" d="M29.7,24.7c-0.9,0-1.3-0.3-2-0.4c-1.2-0.1-1.6,1.2-1.1,1.6c-0.5,0.1-0.9,0.6-0.9,1.1c0,0.5,0.4,1,0.9,1.1
					c-0.5,0.4-0.1,1.7,1.1,1.6c0.7-0.1,1.2-0.4,2-0.4c0.6,0,0.8,0.3,1,0.8c0.2-0.5,0.4-0.8,1-0.8c0.9,0,1.3,0.3,2,0.4
					c1.2,0.1,1.6-1.2,1.1-1.6c0.5-0.1,0.9-0.6,0.9-1.1c0-0.5-0.4-1-0.9-1.1c0.5-0.4,0.1-1.7-1.1-1.6c-0.7,0.1-1.2,0.4-2,0.4
					c-0.4,0-0.7-0.1-0.9-0.4c-0.1-0.1-0.1-0.2-0.2-0.3C30.5,24.4,30.3,24.7,29.7,24.7z"/>
			</g>
		</g>
		<path id="Fill-55_5_" class="st22" d="M108.2,77.6c0,1.1-0.5,1.9-1.2,1.9H38.3c-0.7,0-1.2-0.9-1.2-1.9s0.5-1.9,1.2-1.9H107
			C107.7,75.7,108.2,76.5,108.2,77.6"/>
		<g>
			<path class="st2" d="M79.7,57.1H49c-0.6,0-1.1-0.5-1.1-1.1v-1.1c0-0.6,0.5-1.1,1.1-1.1h30.6c0.6,0,1.1,0.5,1.1,1.1V56
				C80.8,56.6,80.3,57.1,79.7,57.1z"/>
			<path class="st2" d="M79.7,67.5H49c-0.6,0-1.1-0.5-1.1-1.1v-1.1c0-0.6,0.5-1.1,1.1-1.1h30.6c0.6,0,1.1,0.5,1.1,1.1v1.1
				C80.8,67,80.3,67.5,79.7,67.5z"/>
			<g>
				<path class="st2" d="M55.1,49.7c0,0.7,0.6,1.3,0.9,1.3c0.5,0,1,0.2,1.3,1c1,0.3,1.2,0.8,1.1,1.1c-0.1,0.3,0,0.7-3.2,0.7
					c-3.5,0-3.4-0.3-3.5-0.7c0-0.3,0.3-0.9,1.1-0.8c0.3-0.7,0.5-0.9,1-1C54.3,51.3,54.3,50,55.1,49.7z"/>
			</g>
			<g>
				<path class="st2" d="M64.8,49.7c0,0.7,0.6,1.3,0.9,1.3c0.5,0,1,0.2,1.3,1c1,0.3,1.2,0.8,1.1,1.1c-0.1,0.3,0,0.7-3.2,0.7
					c-3.5,0-3.4-0.3-3.5-0.7c0-0.3,0.3-0.9,1.1-0.8c0.3-0.7,0.5-0.9,1-1C64.1,51.3,64,50,64.8,49.7z"/>
			</g>
			<g>
				<path class="st2" d="M74.4,49.7c0,0.7,0.6,1.3,0.9,1.3c0.5,0,1,0.2,1.3,1c1,0.3,1.2,0.8,1.1,1.1c-0.1,0.3,0,0.7-3.2,0.7
					c-3.5,0-3.4-0.3-3.5-0.7c0-0.3,0.3-0.9,1.1-0.8c0.3-0.7,0.5-0.9,1-1C73.7,51.3,73.6,50,74.4,49.7z"/>
			</g>
			<path class="st2" d="M78.6,57.1H50.1c-1.2,0-2.2,1-2.2,2.2V62c0,1.2,1,2.2,2.2,2.2h28.5c1.2,0,2.2-1,2.2-2.2v-2.7
				C80.8,58.1,79.8,57.1,78.6,57.1z M52.8,61.9c-0.6,0-1.1-0.5-1.1-1.1s0.5-1.1,1.1-1.1c0.6,0,1.1,0.5,1.1,1.1S53.4,61.9,52.8,61.9z
				 M57.5,61.9c-0.6,0-1.1-0.5-1.1-1.1s0.5-1.1,1.1-1.1s1.1,0.5,1.1,1.1S58.1,61.9,57.5,61.9z M62,61.9c-0.6,0-1.1-0.5-1.1-1.1
				s0.5-1.1,1.1-1.1c0.6,0,1.1,0.5,1.1,1.1S62.6,61.9,62,61.9z M66.7,61.9c-0.6,0-1.1-0.5-1.1-1.1s0.5-1.1,1.1-1.1
				c0.6,0,1.1,0.5,1.1,1.1S67.4,61.9,66.7,61.9z M71.3,61.9c-0.6,0-1.1-0.5-1.1-1.1s0.5-1.1,1.1-1.1c0.6,0,1.1,0.5,1.1,1.1
				S71.9,61.9,71.3,61.9z M76,61.9c-0.6,0-1.1-0.5-1.1-1.1s0.5-1.1,1.1-1.1c0.6,0,1.1,0.5,1.1,1.1S76.6,61.9,76,61.9z"/>
			<path class="st2" d="M78.6,67.5H50.1c-1.2,0-2.2,1-2.2,2.2v2.7c0,1.2,1,2.2,2.2,2.2h28.5c1.2,0,2.2-1,2.2-2.2v-2.7
				C80.8,68.5,79.8,67.5,78.6,67.5z M52.8,72.2c-0.6,0-1.1-0.5-1.1-1.1c0-0.6,0.5-1.1,1.1-1.1c0.6,0,1.1,0.5,1.1,1.1
				C53.9,71.7,53.4,72.2,52.8,72.2z M57.5,72.2c-0.6,0-1.1-0.5-1.1-1.1c0-0.6,0.5-1.1,1.1-1.1s1.1,0.5,1.1,1.1
				C58.6,71.7,58.1,72.2,57.5,72.2z M62,72.2c-0.6,0-1.1-0.5-1.1-1.1c0-0.6,0.5-1.1,1.1-1.1c0.6,0,1.1,0.5,1.1,1.1
				C63.1,71.7,62.6,72.2,62,72.2z M66.7,72.2c-0.6,0-1.1-0.5-1.1-1.1c0-0.6,0.5-1.1,1.1-1.1c0.6,0,1.1,0.5,1.1,1.1
				C67.9,71.7,67.4,72.2,66.7,72.2z M71.3,72.2c-0.6,0-1.1-0.5-1.1-1.1c0-0.6,0.5-1.1,1.1-1.1c0.6,0,1.1,0.5,1.1,1.1
				C72.4,71.7,71.9,72.2,71.3,72.2z M76,72.2c-0.6,0-1.1-0.5-1.1-1.1c0-0.6,0.5-1.1,1.1-1.1c0.6,0,1.1,0.5,1.1,1.1
				C77.1,71.7,76.6,72.2,76,72.2z"/>
		</g>
		<path class="st21" d="M104.9,82.6h-1.1c-0.6,0-1.1-0.5-1.1-1.1v-3c0-0.6,0.5-1.1,1.1-1.1h1.1c0.6,0,1.1,0.5,1.1,1.1v3
			C106,82.1,105.5,82.6,104.9,82.6z"/>
		<path class="st21" d="M41.9,82.6h-1.1c-0.6,0-1.1-0.5-1.1-1.1v-3c0-0.6,0.5-1.1,1.1-1.1h1.1c0.6,0,1.1,0.5,1.1,1.1v3
			C43,82.1,42.5,82.6,41.9,82.6z"/>
		<g>
			<path id="Stroke-51_12_" class="st2" d="M96.3,74.8H92c-1.8,0-2.9-1.1-2.9-2.9v-7.4h10.1v7.4C99.2,73.7,98.1,74.8,96.3,74.8z"/>
			<path id="Stroke-52_11_" class="st2" d="M98,62c0.1-0.1,0.1-0.2,0.1-0.3c0-0.7-1.1-1.3-2.6-1.5c0-0.1,0.1-0.2,0.1-0.3
				c0-0.6-0.6-1.1-1.4-1.1c-0.8,0-1.4,0.5-1.4,1.1c0,0.1,0,0.2,0.1,0.3c-1.5,0.2-2.6,0.8-2.6,1.5c0,0.1,0,0.2,0.1,0.3
				c-1,0.7-1.7,1.6-1.7,2.6h10.9C99.6,63.6,99,62.7,98,62z"/>
		</g>
		<g>
			<path class="st2" d="M98.2,58.7c-0.2-0.3,0-1.1-0.9-1c-0.9,0.1-1.1,1.5-0.8,2.2c0.3,0.7,2,0.8,2.4,0.1
				C99.4,59.3,98.4,59,98.2,58.7z"/>
			<path class="st2" d="M98.2,58.7c0.3,0.3,1.9-1,1-2.5"/>
		</g>
	</g>
	<g>
		<g>
			<path class="st21" d="M280.8,79.7c0-6.1-0.9-13.1-5.6-20c-3-4.4-3.2-8-3-12.3c0.2-4.4,7.2-13.7,7.6-18.5c0.4-4.8-4.4-4.8-8.6-6.3
				s-3.5-5.6-3.5-5.6h-2.1v-4.2h-3.1v4.2h-2.2c0,0,0.7,4.1-3.5,5.6c-4.2,1.5-9,1.5-8.6,6.3s7.5,14.2,7.6,18.5
				c0.2,4.4,0.1,8.1-3,12.3c-4.4,6-5.6,13.9-5.6,20h15.2V115h3.1V79.7H280.8L280.8,79.7z"/>
			<g>
				<g>
					<path class="st2" d="M273.4,50.6c0,0-0.2-2.7,0.4-6.2c0.5-2.6,5.7-4.5,4.5-10.9c0,0-4-4.9-3.2-9.8l-3.2-0.9
						c0,0-0.8,6.1-2.1,6.5s-5.8,0.6-5.8,0.6s-4.5-0.1-5.8-0.6c-1.3-0.4-2.1-6.5-2.1-6.5l-3.2,0.9c0.8,4.9-3.2,9.8-3.2,9.8
						c-1.1,6.4,4,8.2,4.5,10.9c0.6,3.4,0.4,6.2,0.4,6.2c-13.7,11.3-14,33-14,33h23.3l0,0h23.3C287.4,83.7,287.1,61.9,273.4,50.6z"/>
					<path class="st24" d="M273.4,50.5c0-0.3-0.1-2.7,0.4-5.8h-19.3c0.5,3,0.4,5.4,0.4,5.8H273.4z"/>
				</g>
				<g>
					<path class="st21" d="M246.6,83.7c0,0-1-19,10.8-33.1h0.7c0,0-8.8,13.3-7.6,33.1H246.6z"/>
					<path class="st21" d="M281.7,83.7c0,0,1-19-10.8-33.1h-0.7c0,0,8.8,13.3,7.6,33.1H281.7z"/>
				</g>
			</g>
		</g>
	</g>
</g>
</svg>
