<?xml version="1.0" encoding="UTF-8"?>
<svg width="60px" height="60px" viewBox="0 0 60 60" version="1.1" xmlns="http://www.w3.org/2000/svg" xmlns:xlink="http://www.w3.org/1999/xlink">
    <!-- Generator: Sketch 48.1 (47250) - http://www.bohemiancoding.com/sketch -->
    <title>icon_users</title>
    <desc>Created with Sketch.</desc>
    <defs></defs>
    <g id="Market:-Home" stroke="none" stroke-width="1" fill="none" fill-rule="evenodd" transform="translate(-351.000000, -2322.000000)">
        <g id="Features" transform="translate(-126.000000, 2123.000000)" fill="#E63976" fill-rule="nonzero">
            <g id="icon_users" transform="translate(477.000000, 199.000000)">
                <path d="M54,38.4 C52.254,38.4 50.6928,39.1632 49.596,40.3572 L39.8112,34.4868 C40.44,33.1188 40.8,31.602 40.8,30 C40.8,27.4536 39.9096,25.116 38.43,23.2668 L44.178,17.5176 C45.5808,18.5688 47.3172,19.2 49.2,19.2 C53.8308,19.2 57.6,15.432 57.6,10.8 C57.6,6.168 53.8308,2.4 49.2,2.4 C44.5692,2.4 40.8,6.168 40.8,10.8 C40.8,12.684 41.43,14.4192 42.4812,15.8208 L36.7332,21.57 C34.8852,20.0904 32.5464,19.2 30.0012,19.2 C27.4548,19.2 25.116,20.0904 23.268,21.5712 L11.0004,9.3036 C11.6292,8.3544 12,7.2216 12,6 C12,2.6916 9.3084,0 6,0 C2.6916,0 0,2.6916 0,6 C0,9.3084 2.6916,12 6,12 C7.2216,12 8.3544,11.6292 9.3036,11.0004 L21.5712,23.268 C20.0928,25.116 19.2012,27.4548 19.2012,30 C19.2012,33.3096 20.7012,36.2736 23.0532,38.256 L21.9444,39.9204 C20.7072,41.778 19.6716,43.3296 19.2072,44.0256 C18.1128,43.5024 16.8924,43.2 15.6,43.2 C10.968,43.2 7.2,46.9692 7.2,51.6 C7.2,56.2308 10.968,60 15.6,60 C20.232,60 24,56.2308 24,51.6 C24,49.1076 22.902,46.872 21.1716,45.3312 C21.6936,44.622 22.512,43.3956 23.9412,41.2512 L25.05,39.5868 C26.5356,40.3572 28.2168,40.8 30.0012,40.8 C33.4944,40.8 36.5976,39.1248 38.5728,36.5424 L48.3636,42.4176 C48.1428,43.0404 48,43.7016 48,44.4 C48,47.7084 50.6916,50.4 54,50.4 C57.3084,50.4 60,47.7084 60,44.4 C60,41.0916 57.3084,38.4 54,38.4 Z M21.6,51.6 C21.6,54.9084 18.9084,57.6 15.6,57.6 C12.2916,57.6 9.6,54.9084 9.6,51.6 C9.6,48.2916 12.2916,45.6 15.6,45.6 C18.9084,45.6 21.6,48.2916 21.6,51.6 Z M49.2,4.8 C52.5084,4.8 55.2,7.4916 55.2,10.8 C55.2,14.1084 52.5084,16.8 49.2,16.8 C45.8916,16.8 43.2,14.1084 43.2,10.8 C43.2,7.4916 45.8916,4.8 49.2,4.8 Z M2.4,6 C2.4,4.0152 4.0152,2.4 6,2.4 C7.9848,2.4 9.6,4.0152 9.6,6 C9.6,7.9848 7.9848,9.6 6,9.6 C4.0152,9.6 2.4,7.9848 2.4,6 Z M30.0012,38.4 C25.3692,38.4 21.6012,34.6308 21.6012,30 C21.6012,25.3692 25.3692,21.6 30.0012,21.6 C34.632,21.6 38.4,25.368 38.4,30 C38.4,34.6308 34.632,38.4 30.0012,38.4 Z M54,48 C52.0152,48 50.4,46.3848 50.4,44.4 C50.4,42.4152 52.0152,40.8 54,40.8 C55.9848,40.8 57.6,42.4152 57.6,44.4 C57.6,46.3848 55.9848,48 54,48 Z" id="Shape"></path>
            </g>
        </g>
    </g>
</svg>