<?xml version="1.0" encoding="utf-8"?>
<!-- Generator: Adobe Illustrator 22.1.0, SVG Export Plug-In . SVG Version: 6.00 Build 0)  -->
<svg version="1.1" id="Capa_1" xmlns="http://www.w3.org/2000/svg" xmlns:xlink="http://www.w3.org/1999/xlink" x="0px" y="0px"
	 viewBox="0 0 30 30" style="enable-background:new 0 0 30 30;" xml:space="preserve">
<style type="text/css">
	.st0{fill:#43434C;}
</style>
<title>footer_icon_pinterest</title>
<desc>Created with Sketch.</desc>
<g>
	<path id="WhatsApp" class="st0" d="M29.9,14.7c0,8-6.6,14.6-14.7,14.6c-2.6,0-5-0.7-7.1-1.8L0,30l2.6-7.8c-1.3-2.2-2.1-4.8-2.1-7.5
		c0-8,6.6-14.6,14.7-14.6C23.3,0.1,29.9,6.6,29.9,14.7z M22.6,18c-0.1-0.1-0.3-0.2-0.7-0.4c-0.4-0.2-2.1-1-2.5-1.2
		c-0.3-0.1-0.6-0.2-0.8,0.2c-0.2,0.4-0.9,1.2-1.1,1.4c-0.2,0.2-0.4,0.3-0.8,0.1c-0.4-0.2-1.5-0.6-2.9-1.8c-1.1-0.9-1.8-2.1-2-2.5
		c-0.2-0.4,0-0.6,0.2-0.7c0.2-0.2,0.4-0.4,0.5-0.6c0.2-0.2,0.2-0.4,0.4-0.6c0.1-0.2,0.1-0.4,0-0.6c-0.1-0.2-0.8-1.9-1.1-2.6
		C11.5,7.9,11.2,8,11,8c-0.2,0-0.4,0-0.7,0c-0.2,0-0.6,0.1-1,0.4c-0.3,0.4-1.3,1.2-1.3,3c0,1.8,1.3,3.5,1.5,3.7
		c0.2,0.2,2.5,4,6.1,5.4c3.7,1.4,3.7,1,4.3,0.9c0.7-0.1,2.1-0.9,2.4-1.7C22.7,18.9,22.7,18.2,22.6,18z"/>
</g>
</svg>
