<?xml version="1.0" encoding="utf-8"?>
<!-- Generator: Adobe Illustrator 22.1.0, SVG Export Plug-In . SVG Version: 6.00 Build 0)  -->
<svg version="1.1" id="Capa_1" xmlns="http://www.w3.org/2000/svg" xmlns:xlink="http://www.w3.org/1999/xlink" x="0px" y="0px"
	 viewBox="0 0 25.4 25.4" style="enable-background:new 0 0 25.4 25.4;" xml:space="preserve">
<style type="text/css">
	.st0{fill:none;}
	.st1{fill:#55ACEE;}
	.st2{fill:#FFFFFF;}
</style>
<title>footer_icon_facebook</title>
<desc>Created with Sketch.</desc>
<rect x="-838.3" y="-338.9" class="st0" width="626" height="626"/>
<circle class="st1" cx="12.7" cy="12.7" r="12.7"/>
<g id="XMLID_33_">
	<g id="XMLID_35_">
		<path id="XMLID_32_" class="st2" d="M10.1,18.4c5.3,0,8.2-4.4,8.2-8.2c0-0.1,0-0.3,0-0.4c0.6-0.4,1.1-0.9,1.4-1.5
			c-0.5,0.2-1.1,0.4-1.6,0.4c0.6-0.4,1.1-0.9,1.3-1.6c-0.6,0.3-1.2,0.6-1.8,0.7C17,7.3,16.2,7,15.4,7c-1.6,0-2.9,1.3-2.9,2.9
			c0,0.2,0,0.4,0.1,0.7c-2.4-0.1-4.6-1.3-6-3C6.4,8,6.3,8.5,6.3,9c0,1,0.5,1.9,1.3,2.4c-0.5,0-0.9-0.2-1.3-0.4v0
			c0,1.4,1,2.6,2.3,2.8c-0.2,0-0.5,0.1-0.8,0.1c-0.2,0-0.4,0-0.5,0c0.4,1.2,1.4,2,2.7,2c-1,0.8-2.2,1.2-3.6,1.2c-0.2,0-0.4,0-0.7,0
			C7,17.9,8.5,18.4,10.1,18.4"/>
	</g>
</g>
</svg>
