<?xml version="1.0" encoding="utf-8"?>
<!-- Generator: Adobe Illustrator 22.0.0, SVG Export Plug-In . SVG Version: 6.00 Build 0)  -->
<svg version="1.1" id="Capa_1" xmlns="http://www.w3.org/2000/svg" xmlns:xlink="http://www.w3.org/1999/xlink" x="0px" y="0px"
	 viewBox="0 0 30 30" style="enable-background:new 0 0 30 30;" xml:space="preserve">
<style type="text/css">
	.st0{fill:#FFFFFF;}
</style>
<title>footer_icon_pinterest</title>
<desc>Created with Sketch.</desc>
<g id="Symbols">
	<g id="Footer" transform="translate(-1303.000000, -46.000000)">
		<path id="footer_icon_pinterest" class="st0" d="M1318,46c-8.3,0-15,6.7-15,15c0,6.4,4,11.8,9.5,14c-0.1-1.2-0.2-3,0.1-4.3
			c0.3-1.2,1.8-7.5,1.8-7.5s-0.4-0.9-0.4-2.2c0-2.1,1.2-3.6,2.7-3.6c1.3,0,1.9,1,1.9,2.1c0,1.3-0.8,3.2-1.2,5
			c-0.4,1.5,0.7,2.7,2.2,2.7c2.7,0,4.7-2.8,4.7-6.9c0-3.6-2.6-6.1-6.3-6.1c-4.3,0-6.8,3.2-6.8,6.5c0,1.3,0.5,2.7,1.1,3.4
			c0.1,0.1,0.1,0.3,0.1,0.4l-0.4,1.7c-0.1,0.3-0.2,0.3-0.5,0.2c-1.9-0.9-3-3.6-3-5.8c0-4.7,3.4-9.1,9.9-9.1c5.2,0,9.2,3.7,9.2,8.7
			c0,5.2-3.3,9.3-7.8,9.3c-1.5,0-2.9-0.8-3.4-1.7l-0.9,3.6c-0.3,1.3-1.3,2.9-1.9,3.9c1.4,0.4,2.9,0.7,4.4,0.7c8.3,0,15-6.7,15-15
			C1333,52.7,1326.3,46,1318,46z"/>
	</g>
</g>
</svg>
