<?xml version="1.0" encoding="utf-8"?>
<!-- Generator: Adobe Illustrator 22.1.0, SVG Export Plug-In . SVG Version: 6.00 Build 0)  -->
<svg version="1.1" id="Capa_1" xmlns="http://www.w3.org/2000/svg" xmlns:xlink="http://www.w3.org/1999/xlink" x="0px" y="0px"
	 viewBox="0 0 30 30" style="enable-background:new 0 0 30 30;" xml:space="preserve">
<style type="text/css">
	.st0{fill:#E63976;}
</style>
<title>footer_icon_instagram</title>
<desc>Created with Sketch.</desc>
<path class="st0" d="M29.9,8.8c-0.2-5.4-3.3-8.5-8.7-8.7C19.6,0,19.1,0,15,0s-4.6,0-6.2,0.1C3.4,0.3,0.3,3.4,0.1,8.8
	C0,10.4,0,10.9,0,15s0,4.6,0.1,6.2c0.2,5.4,3.3,8.5,8.7,8.7C10.4,30,10.9,30,15,30s4.6,0,6.2-0.1c5.4-0.2,8.5-3.3,8.7-8.7
	C30,19.6,30,19.1,30,15S30,10.4,29.9,8.8z M27.4,20.2c-0.2,4.5-2.7,7.1-7.3,7.3c-1.3,0.1-1.8,0.1-5.2,0.1s-3.8,0-5.2-0.1
	c-4.5-0.2-7.1-2.7-7.3-7.3c-0.1-1.3-0.1-1.8-0.1-5.2s0-3.8,0.1-5.2c0.2-4.5,2.7-7.1,7.3-7.3c1.3-0.1,1.8-0.1,5.2-0.1s3.8,0,5.2,0.1
	c4.5,0.2,7.1,2.7,7.3,7.3c0.1,1.3,0.1,1.8,0.1,5.2S27.5,18.8,27.4,20.2z"/>
<path class="st0" d="M15,7c-4.4,0-8,3.6-8,8s3.6,8,8,8s8-3.6,8-8S19.4,7,15,7z M15,20c-2.8,0-5-2.2-5-5s2.2-5,5-5s5,2.2,5,5
	S17.8,20,15,20z"/>
<path class="st0" d="M22.5,5C21.7,5,21,5.7,21,6.5S21.7,8,22.5,8S24,7.3,24,6.5S23.3,5,22.5,5z"/>
</svg>
