<?xml version="1.0" standalone="no"?>
<!DOCTYPE svg PUBLIC "-//W3C//DTD SVG 20010904//EN"
 "http://www.w3.org/TR/2001/REC-SVG-20010904/DTD/svg10.dtd">
<svg version="1.0" xmlns="http://www.w3.org/2000/svg"
 width="820.000000pt" height="471.000000pt" viewBox="0 0 820.000000 471.000000"
 preserveAspectRatio="xMidYMid meet">
<metadata>
Created by potrace 1.16, written by Peter Selinger 2001-2019
</metadata>
<g transform="translate(0.000000,471.000000) scale(0.100000,-0.100000)"
fill="#000000" stroke="none">
<path d="M245 4300 c-45 -14 -105 -69 -126 -114 -24 -52 -24 -120 0 -171 26
-58 3837 -3859 3895 -3886 57 -26 112 -24 172 6 38 19 464 440 1970 1947 2052
2054 1934 1930 1934 2027 -1 143 -177 246 -304 179 -13 -7 -849 -834 -1856
-1838 -1008 -1004 -1835 -1823 -1839 -1821 -3 2 -827 821 -1830 1820 -1002
999 -1836 1824 -1852 1834 -33 21 -121 30 -164 17z"/>
</g>
</svg>
