<svg xmlns="http://www.w3.org/2000/svg" xmlns:xlink="http://www.w3.org/1999/xlink" width="14.5" height="7" version="1.1" style=""><rect id="backgroundrect" width="100%" height="100%" x="0" y="0" fill="none" stroke="none" class="" style=""/>
    <!-- Generator: sketchtool 59.1 (101010) - https://sketch.com -->
    <title>B4451403-BFF1-4BAA-9C21-3CEA61DC6FD6</title>
    <desc>Created with sketchtool.</desc>
    
<g class="currentLayer" style=""><title>Layer 1</title><g id="Page-1" stroke="none" stroke-width="1" fill="none" fill-rule="evenodd" class="">
        <g id="SUBSCRIPTIONS-DESKTOP">
            <g id="Set:-Herramientas">
                <g id="Productos-Ilimitados">
                    <text id="Productos-ilimitados" font-family="Sarabun-Regular, Sarabun" font-size="16" font-weight="normal" fill="#37373E" y="-130.35671585798264" x="-450.8771710395813" transform="matrix(0.9929609894752502,0,0,1,-3.1738238548859954,0) ">
                        <tspan x="-450.8771710395813" y="-113.35671585798264" id="svg_1">Productos ilimitados</tspan>
                    </text>
                    <polyline id="Path-2" stroke="#37373E" stroke-width="2" points="0.919983995607879,-120.28689575195312 5.04003877502754,-115.35671997070312 11.842554879835632,-125.35671997070312 "/>
                    <polyline id="Path-2-Copy-5" stroke="#37373E" stroke-width="2" points="148.87117616222713,-120.28689575195312 152.99118548749993,-115.35671997070312 159.79374704645488,-125.35671997070312 "/>
                    <line x1="-449.6821662553858" y1="-99.35671585798264" x2="217.18336073500197" y2="-99.35671585798264" id="Line-2-Copy-9" stroke="#DAD8D6" stroke-linecap="square"/>
                </g>
                <g id="Tienda-en-línea">
                    <text font-family="Sarabun-Regular, Sarabun" font-size="16" font-weight="normal" fill="#37373E" y="-171.35671585798264" x="-450.8771710395813" id="svg_2" transform="matrix(0.9929609894752502,0,0,1,-3.1738238548859954,0) ">
                        <tspan x="-450.8771710395813" y="-154.35671585798264" id="svg_3">Tienda en línea</tspan>
                    </text>
                    <line x1="-449.6821662553858" y1="-140.35671585798264" x2="217.18336073500197" y2="-140.35671585798264" id="Line-2-Copy-20" stroke="#DAD8D6" stroke-linecap="square"/>
                </g>
                <polyline id="Path-2" stroke="#37373E" stroke-width="2" points="0.919983995607879,-160.28689575195312 5.04003877502754,-155.35670471191406 11.842554879835632,-165.35670471191406 " transform=""/>
                <polyline id="Path-2-Copy-5" stroke="#37373E" stroke-width="2" points="148.87117616222713,-160.28689575195312 152.99118548749993,-155.35670471191406 159.79374704645488,-165.35670471191406 "/>
                <g id="Promociones">
                    <text font-family="Sarabun-Regular, Sarabun" font-size="16" font-weight="normal" fill="#37373E" y="-89.35671585798264" x="-450.8771710395813" id="svg_4" transform="matrix(0.9929609894752502,0,0,1,-3.1738238548859954,0) ">
                        <tspan x="-450.8771710395813" y="-72.35671585798264" id="svg_5">Promociones</tspan>
                    </text>
                    <text id="Próximamente-Copy" font-family="Sarabun-Regular, Sarabun" font-size="13" font-weight="normal" fill="#37373E" y="-89.35671585798264" x="-450.8771710395813" transform="matrix(0.9929609894752502,0,0,1,-3.1738238548859954,0) ">
                        <tspan x="113.57863496041875" y="-72.35671585798264" id="svg_6">Próximamente</tspan>
                    </text>
                    <text id="Próximamente-Copy-2" font-family="Sarabun-Regular, Sarabun" font-size="13" font-weight="normal" fill="#37373E" y="-89.35671585798264" x="-450.8771710395813" transform="matrix(0.9929609894752502,0,0,1,-3.1738238548859954,0) ">
                        <tspan x="-32.01567103958132" y="-72.35671585798264" id="svg_7">Próximamente</tspan>
                    </text>
                    <line x1="-447.2941252885011" y1="-58.356715857982635" x2="219.17000998030218" y2="-58.356715857982635" id="Line-2-Copy-13" stroke="#DAD8D6" stroke-linecap="square"/>
                </g>
                <g id="Estadísticas">
                    <text font-family="Sarabun-Regular, Sarabun" font-size="16" font-weight="normal" fill="#37373E" y="-48.356715857982635" x="-450.8771710395813" id="svg_8" transform="matrix(0.9929609894752502,0,0,1,-3.1738238548859954,0) ">
                        <tspan x="-450.8771710395813" y="-31.356715857982635" id="svg_9">Estadísticas</tspan>
                    </text>
                    <text id="Próximamente" font-family="Sarabun-Regular, Sarabun" font-size="13" font-weight="normal" fill="#37373E" y="-48.356715857982635" x="-450.8771710395813" transform="matrix(0.9929609894752502,0,0,1,-3.1738238548859954,0) ">
                        <tspan x="117.66048596041867" y="-32.356715857982635" id="svg_10">Próximamente</tspan>
                    </text>
                    <text id="Próximamente-Copy-3" font-family="Sarabun-Regular, Sarabun" font-size="13" font-weight="normal" fill="#37373E" y="-48.356715857982635" x="-450.8771710395813" transform="matrix(0.9929609894752502,0,0,1,-3.1738238548859954,0) ">
                        <tspan x="-32.01567103958132" y="-32.356715857982635" id="svg_11">Próximamente</tspan>
                    </text>
                    <line x1="-447.2941252885011" y1="-17.356715857982635" x2="219.17000998030218" y2="-17.356715857982635" id="Line-2-Copy-14" stroke="#DAD8D6" stroke-linecap="square"/>
                </g>
                <g id="Publicidad">
                    <text font-family="Sarabun-Regular, Sarabun" font-size="16" font-weight="normal" fill="#37373E" y="-7.3567158579826355" x="-450.8771710395813" id="svg_12" transform="matrix(0.9929609894752502,0,0,1,-3.1738238548859954,0) ">
                        <tspan x="-450.8771710395813" y="9.643284142017365" id="svg_13">Publicidad</tspan>
                    </text>
                    <path d="M0.7786374651977388,3.6432841420173645 L13.153545860344686,3.6432841420173645 L0.7786374651977388,3.6432841420173645 z" id="Path-2-Copy-12" stroke="#37373E" stroke-width="2"/>
                    <polyline id="Path-2-Copy-5" stroke="#37373E" stroke-width="2" points="148.87117616222713,3.7131083011627197 152.99118548749993,8.64328384399414 159.79374704645488,-1.3567160367965698 " transform=""/>
                    <line x1="-447.2941252885011" y1="23.643284142017365" x2="219.17000998030218" y2="23.643284142017365" id="Line-2-Copy-19" stroke="#DAD8D6" stroke-linecap="square"/>
                </g>
                <g id="Subtitle:-Herramientas">
                    <text id="Herramientas" font-family="Sarabun-SemiBold, Sarabun SemiBold" font-size="18" font-weight="500" fill="#37373E" y="-214.35671585798264" x="-450.8771710395813" transform="matrix(0.9929609894752502,0,0,1,-3.1738238548859954,0) ">
                        <tspan x="-450.8771710395813" y="-195.35671585798264" id="svg_14">Herramientas</tspan>
                    </text>
                    <line x1="-449.6821662553858" y1="-181.35671585798264" x2="217.18336073500197" y2="-181.35671585798264" id="Line-2-Copy-8" stroke="#37373E" stroke-linecap="square"/>
                </g>
            </g>
        </g>
    </g></g></svg>