<?xml version="1.0" encoding="UTF-8"?>
<svg width="96px" height="98px" viewBox="0 0 96 98" version="1.1" xmlns="http://www.w3.org/2000/svg" xmlns:xlink="http://www.w3.org/1999/xlink">
    <!-- Generator: sketchtool 59.1 (101010) - https://sketch.com -->
    <title>9ABFF2CF-F024-4120-8F01-8A77DC355446</title>
    <desc>Created with sketchtool.</desc>
    <g id="Page-1" stroke="none" stroke-width="1" fill="none" fill-rule="evenodd">
        <g id="SUBSCRIPTIONS-DESKTOP" transform="translate(-204.000000, -95.000000)" fill="#42AAAC">
            <g id="HEADER" transform="translate(204.000000, 95.000000)">
                <g id="Background">
                    <path d="M92.1979569,68.1557932 C85.5834633,58.8435494 76.6763133,50.8668347 75.4735928,40.116989 C78.1304024,22.9617413 121.452972,10.9967859 101.492254,-3.32075618 C72.9198022,-23.8183024 -120.880458,-19.2772836 -160.679611,-11.1450071 C-200.47738,-3.01414477 -224.611248,22.0856546 -203.667117,48.0529798 C-189.655912,65.4216571 -141.169716,77.3782962 -141.473691,90.0040011 C-142.062222,114.445284 16.205033,108.268726 16.205033,108.268726 C76.3207912,105.066243 98.8138601,77.4680642 92.1979569,68.1557932 Z" id="Fill-1" transform="translate(-52.326338, 45.480022) rotate(-14.000000) translate(52.326338, -45.480022) "></path>
                </g>
            </g>
        </g>
    </g>
</svg>