<?xml version="1.0" encoding="UTF-8"?>
<svg width="248px" height="137px" viewBox="0 0 248 137" version="1.1" xmlns="http://www.w3.org/2000/svg" xmlns:xlink="http://www.w3.org/1999/xlink">
    <!-- Generator: sketchtool 59.1 (101010) - https://sketch.com -->
    <title>2443D738-583C-49C7-8928-C73CD4EF1ECF</title>
    <desc>Created with sketchtool.</desc>
    <defs>
        <polygon id="path-1" points="0.000488626402 0.155513514 39.2650517 0.155513514 39.2650517 41.9995459 0.000488626402 41.9995459"></polygon>
    </defs>
    <g id="Page-1" stroke="none" stroke-width="1" fill="none" fill-rule="evenodd">
        <g id="SUBSCRIPTIONS--PRO-DESCRIPTION" transform="translate(-16.000000, -307.000000)">
            <g id="Summary:-Standard" transform="translate(16.000000, 304.000000)">
                <text id="Standard" font-family="Sarabun-ExtraBold, Sarabun ExtraBold" font-size="22" font-weight="600" fill="#37373E">
                    <tspan x="59" y="23">Standard</tspan>
                </text>
                <text id="Siempre-gratuito" font-family="Sarabun-SemiBold, Sarabun SemiBold" font-size="16" font-weight="500" fill="#37373E">
                    <tspan x="59" y="51">Siempre gratuito</tspan>
                </text>
                <text id="Este-es-tu-plan-actu" font-family="Sarabun-SemiBold, Sarabun SemiBold" font-size="16" font-weight="500" fill="#37373E">
                    <tspan x="85" y="136">Este es tu plan actual</tspan>
                </text>
                <polyline id="check" stroke="#501E4D" stroke-width="2" points="64 130.06979 68.1492524 135 75 125"></polyline>
                <text id="Todo-lo-que-necesita" font-family="Sarabun-Regular, Sarabun" font-size="16" font-weight="normal" fill="#37373E">
                    <tspan x="59" y="83">Todo lo que necesitas para </tspan>
                    <tspan x="59" y="104">comenzar a vender en línea</tspan>
                </text>
                <g id="Icon:-Standard" transform="translate(0.000000, 3.000000)">
                    <path d="M20.5005787,16.230793 C17.4591467,16.230793 15.2278374,18.6640697 15.2278374,21.5023141 C15.2278374,22.9185437 15.837744,24.3394014 16.8515547,25.3529775 C17.8653653,26.3665535 19.28308,26.9728479 20.7031093,26.9728479 C22.120824,26.9728479 23.5420106,26.3665535 24.5558213,25.3529775 C25.569632,24.3394014 26.1760667,22.9185437 26.1760667,21.5023141 C25.7721626,18.6640697 23.3371653,16.230793 20.5005787,16.230793 M20.5005787,29 L20.5005787,29 C18.4718,29 16.649024,28.1889077 15.2278374,26.769207 C13.8101227,25.3529775 13,23.5283092 13,21.5011571 C13,17.4480099 16.4441787,14 20.5005787,14 C24.5558213,14 28,17.4480099 28,21.5011571 C28,23.5283092 27.1898773,25.3529775 25.7721626,26.769207 C24.350976,28.1889077 22.5282,29 20.5005787,29" id="Fill-1" fill="#825A7A"></path>
                    <g id="Group-5">
                        <mask id="mask-2" fill="white">
                            <use xlink:href="#path-1"></use>
                        </mask>
                        <g id="Clip-4"></g>
                        <path d="M12.9174857,33.1784108 L13.1186286,34.3737081 C13.7174857,37.3557081 16.1209143,39.5419784 19.1243429,39.740627 L19.7243429,39.740627 C23.1289143,39.740627 25.7312,37.3557081 26.3300571,33.9741405 L26.5300571,32.7811135 L27.7323429,33.1784108 C28.5323429,33.3793297 29.3334857,33.7743568 30.1334857,33.7743568 L31.3346286,33.7743568 C32.9380571,33.5779784 34.5392,32.5836 35.7414857,31.1896541 C36.7426286,29.6004649 37.3426286,28.0078703 37.1403429,26.4175459 C36.3403429,24.0314919 35.5403429,22.8396 34.1380571,21.8463568 L33.1369143,21.0483568 L34.1380571,20.252627 C36.5414857,18.4636541 37.1403429,15.2818703 35.9414857,12.4985189 C35.3403429,10.9070595 34.1380571,9.51538378 32.5380571,8.91943784 C30.9369143,8.32349189 29.1323429,8.12484324 27.7323429,8.91943784 L26.5300571,9.51538378 L26.3300571,8.32349189 C25.7312,5.34149189 23.5266286,2.95316757 20.5243429,2.55473514 C17.1220571,1.95878919 13.7174857,4.34711351 12.9174857,8.12484324 L12.7163429,9.51538378 L11.5140571,8.91943784 C10.5140571,8.52100541 9.51291429,8.52100541 8.11291429,8.32349189 C6.11062857,8.52100541 4.7072,9.51538378 3.7072,10.9070595 C2.5072,12.2987351 2.10605714,14.0911135 2.3072,15.8800865 C2.5072,17.270627 4.30948571,19.4580324 5.31062857,20.6510595 L5.70834286,21.0483568 L5.51062857,21.8463568 L5.31062857,22.0427351 C4.90834286,22.4411676 3.30834286,24.2301405 2.90605714,25.6240865 C2.3072,27.6128432 2.5072,29.4018162 3.10605714,30.7923568 C3.7072,31.9853838 4.90834286,33.5779784 6.91177143,34.1727892 C7.71062857,34.3737081 8.51291429,34.3737081 9.31405714,34.3737081 C9.91405714,34.3737081 10.5140571,34.1727892 11.3163429,33.9741405 L12.9174857,33.1784108 Z M20.1243429,41.9995459 L20.1243429,41.9995459 L19.5220571,41.9995459 C15.9197714,41.6022486 12.9174857,39.2150595 11.7140571,35.8368973 C10.9140571,36.0355459 10.3152,36.2330595 9.51291429,36.2330595 C8.51291429,36.2330595 7.51177143,36.2330595 6.51062857,35.8368973 C4.30834286,35.2386811 2.5072,33.6483568 1.30491429,31.4598162 C0.304914286,29.4721946 0.304914286,27.2859243 0.903771429,24.6989514 C1.30491429,23.3095459 2.5072,21.9156 3.10605714,21.1198703 C2.10605714,19.9268432 0.504914286,17.7394378 0.103771429,15.9504649 C-0.297371429,13.5655459 0.504914286,11.1772216 1.90491429,9.38824865 C3.10605714,7.59927568 5.10948571,6.40511351 7.71062857,6.00668108 L7.91177143,6.00668108 C9.11291429,6.00668108 10.1140571,6.00668108 11.1152,6.20646486 C12.5152,2.22895135 16.5197714,-0.355751351 20.7243429,0.240194595 C24.3266286,0.838410811 26.9312,3.22332973 27.9323429,6.60603243 C29.7346286,6.20646486 31.5346286,6.40511351 33.3369143,7.00105946 C35.5403429,7.99543784 37.1403429,9.58803243 37.9414857,11.7754378 C39.3426286,14.9560865 38.7437714,18.7338162 36.3403429,21.1198703 C37.5426286,22.3151676 38.3426286,23.704573 39.1426286,25.8931135 L39.1426286,26.0928973 C39.5449143,28.2803027 38.9414857,30.2690595 37.5426286,32.4541946 C35.9414857,34.4429514 33.9392,35.6359784 31.7369143,35.8368973 L31.5346286,35.8368973 L30.3334857,35.8368973 C29.7346286,35.8368973 28.9334857,35.6359784 28.3312,35.4373297 C27.3300571,39.6134919 24.1289143,41.9995459 20.1243429,41.9995459 L20.1243429,41.9995459 Z" id="Fill-3" fill="#825A7A" mask="url(#mask-2)"></path>
                    </g>
                    <path d="M14.4650942,10.9013671 C13.8615263,10.9013671 13.2556591,11.0977148 12.6532408,11.4848637 C11.6461447,12.0694697 10.8413875,12.8448768 10.6390486,13.8166316 C10.4367096,14.5942574 10.8413875,16.3425287 11.2414668,17.3142835 L11.4449554,17.7047604 L11.0402775,18.4801675 L10.6390486,18.6765152 C9.83429138,19.0636641 8.82719524,19.4519223 8.22132805,20.0343097 C7.61890981,20.6200249 7.01419227,21.7859089 7.01419227,22.9495742 C7.01419227,23.7283093 7.21423191,24.8930839 8.42251734,25.6696004 C8.82719524,26.0589679 9.22842418,26.2553156 9.83429138,26.4494447 C10.2343707,26.6413552 10.6390486,26.6413552 11.0402775,26.6413552 L12.6532408,26.8365936 L12.4509019,27.8083485 C12.0473736,29.5566198 12.8544301,31.308219 14.4662438,32.2788645 L14.6674331,32.4718843 C16.4792864,33.2495101 18.6958176,32.6660135 19.7017641,30.9177422 L20.305332,29.9459873 L21.3135778,30.7225038 C21.7159564,31.1129806 22.1171853,31.5001295 22.5218632,31.6942586 L23.1242815,31.889497 C24.1313776,32.0847354 25.3408127,32.0847354 26.3479088,31.5001295 C27.355005,30.9177422 27.9574232,30.1412257 28.3621011,29.1694709 C28.3621011,27.6131101 28.3621011,26.8365936 27.7585332,25.8648388 L27.1538157,24.6989548 L28.5632904,24.3118059 C30.3762934,23.9213291 31.5845788,22.3671869 31.5845788,20.4236772 C31.5845788,19.2577932 31.1799009,18.2860384 30.5774827,17.5084126 C29.7704262,16.7330055 28.9645193,16.3425287 27.9574232,16.3425287 L26.5490981,16.3425287 L26.9503271,15.1766447 C27.355005,13.4272641 26.7514371,11.6789928 25.1384737,10.5131089 C23.3254708,9.34833422 20.9088999,9.93072154 19.5005748,11.6789928 L18.6958176,12.8448768 L17.8899108,11.8731219 C17.4863826,11.4848637 16.8828147,11.0977148 16.0757582,10.707238 C15.2698513,10.9013671 14.8686224,10.9013671 14.4650942,10.9013671 M16.2769475,35 C15.4721903,35 14.4650942,34.8047616 13.660337,34.4153941 L13.2556591,34.2201556 C11.0402775,33.0564903 9.83429138,30.9177422 10.034331,28.5848649 C9.63195243,28.5848649 9.22842418,28.3929544 8.82719524,28.1988253 C8.22132805,28.0024776 7.61776016,27.6131101 7.01419227,27.0307228 C5.80590684,26.0589679 5,24.505935 5,22.7576637 C5,21.2013029 5.60471754,19.8423992 6.81300297,18.4801675 C7.41542121,17.8988895 8.42251734,17.3142835 9.02838454,16.9271346 C8.82719524,15.9553798 8.42251734,14.2059992 8.82719524,13.0412245 C9.22842418,11.4848637 10.4367096,10.12596 11.847334,9.34833422 C13.2556591,8.56959916 14.8686224,8.37657936 16.6816254,8.76372827 L16.8828147,8.76372827 C17.4863826,8.95896669 18.0888008,9.34833422 18.694668,9.73548312 C20.9088999,7.79197342 24.1313776,7.40593382 26.5490981,8.95896669 C28.5632904,10.3200891 29.5703865,12.4566186 29.3691972,14.5942574 C30.5774827,14.7894958 31.5845788,15.3707738 32.389336,16.3425287 C33.5987711,17.5084126 34,19.0636641 34,20.6200249 C34,22.9495742 32.5916749,25.087213 30.5774827,26.0589679 C30.7763726,27.0307228 30.9787116,28.0024776 30.7763726,29.3647093 L30.7763726,29.5566198 C30.3762934,31.1129806 29.3691972,32.2788645 27.7585332,33.0564903 C26.1455699,33.834116 24.5360555,34.0282451 22.9230922,33.6377683 L22.7230525,33.6377683 L21.915996,33.2495101 C21.5147671,33.0564903 21.3112785,32.8612519 20.9088999,32.6660135 C19.5005748,34.4153941 17.8899108,35 16.2769475,35" id="Fill-6" fill="#825A7A"></path>
                </g>
            </g>
        </g>
    </g>
</svg>