<?xml version="1.0" encoding="UTF-8"?>
<svg width="66px" height="66px" viewBox="0 0 66 66" version="1.1" xmlns="http://www.w3.org/2000/svg" xmlns:xlink="http://www.w3.org/1999/xlink">
    <!-- Generator: Sketch 48.1 (47250) - http://www.bohemiancoding.com/sketch -->
    <title>Group 9</title>
    <desc>Created with Sketch.</desc>
    <defs>
        <linearGradient x1="50%" y1="0%" x2="50%" y2="100%" id="linearGradient-1">
            <stop stop-color="#E63976" offset="0%"></stop>
            <stop stop-color="#B4106C" offset="100%"></stop>
        </linearGradient>
        <linearGradient x1="50%" y1="-102.000725%" x2="50%" y2="366.246944%" id="linearGradient-2">
            <stop stop-color="#E63976" offset="0%"></stop>
            <stop stop-color="#B4106C" offset="100%"></stop>
        </linearGradient>
        <linearGradient x1="-8.90258789%" y1="50%" x2="170.174561%" y2="50%" id="linearGradient-3">
            <stop stop-color="#E63976" offset="0%"></stop>
            <stop stop-color="#B4106C" offset="100%"></stop>
        </linearGradient>
    </defs>
    <g id="Users" stroke="none" stroke-width="1" fill="none" fill-rule="evenodd">
        <g id="Group-9">
            <g id="872656-copy-4" fill-rule="nonzero">
                <g id="Group" fill="url(#linearGradient-1)">
                    <path d="M32.9315656,0.000135245902 C14.7445082,-0.000405737705 0.000540983607,14.74275 0.000135245902,32.9298074 C-0.000135245902,41.6642582 3.46973361,50.0411189 9.64614344,56.2169877 C22.482332,69.1010533 43.3329221,69.1398689 56.2169877,56.3036803 C69.1010533,43.4674918 69.1398689,22.6169016 56.3036803,9.73283607 C56.274873,9.70389344 56.2459303,9.67495082 56.2169877,9.64614344 C50.0550492,3.4499877 41.670209,-0.023397541 32.9315656,0.000135245902 Z M32.9315656,63.1583484 C16.2645369,63.1583484 2.70491803,49.5987295 2.70491803,32.9317008 C2.70491803,16.2646721 16.2645369,2.70505328 32.9315656,2.70505328 C49.5985943,2.70505328 63.1582131,16.2646721 63.1582131,32.9317008 C63.1582131,49.5987295 49.5985943,63.1583484 32.9315656,63.1583484 Z" id="Shape"></path>
                </g>
                <g id="Group" transform="translate(9.000000, 15.000000)">
                    <path d="M42.4987649,3.29969231 C41.8632068,0.994134615 39.4599433,-0.364673077 37.1311955,0.264519231 C34.8197167,0.889134615 33.4468895,3.23951923 34.0533484,5.53430769 L36.2969745,13.9091346 L36.318187,13.9022692 L36.3252578,13.9231346 L44.7636034,11.6601154 C46.6668782,11.1473654 47.9876261,9.43667308 47.988034,7.48394231 C47.9873541,7.10675 47.9375864,6.73117308 47.8398187,6.36663462 C47.2154108,4.06336538 44.8283286,2.69257692 42.4987649,3.29969231 Z" id="Shape" fill="url(#linearGradient-2)"></path>
                    <path d="M11.6796374,13.9028077 L11.7008499,13.9096731 L13.9444759,5.53484615 C14.5554221,3.22282692 13.1574391,0.858173077 10.8220283,0.253346154 C8.50402266,-0.347038462 6.12999433,1.01190385 5.49905949,3.30023077 C3.16990368,2.69351923 0.783229462,4.06390385 0.158549575,6.36663462 C0.0607818697,6.73117308 0.0110141643,7.10675 0.0103342776,7.48394231 C0.0106062323,9.43707692 1.33176204,11.1480385 3.23544476,11.6606538 L11.6737904,13.9236731 L11.6796374,13.9028077 Z" id="Shape" fill="url(#linearGradient-3)"></path>
                </g>
            </g>
            <ellipse id="Oval-6" fill="#FCE7E7" cx="10" cy="31" rx="3" ry="2"></ellipse>
            <ellipse id="Oval-6-Copy" fill="#FCE7E7" cx="56" cy="31" rx="3" ry="2"></ellipse>
            <path d="M15,34.5416307 C21.5453058,30.8134254 48.4760746,31.5100052 52.7928443,34.5416307 C52.7928443,44.9555651 44.3159016,53.4380528 33.8964221,53.4380528 C23.4769426,53.4380528 15,44.9555651 15,34.5416307 Z M22.0094549,46.5759088 C25.426598,49.8799139 29.4003591,51.5319165 33.9307382,51.5319165 C38.4611173,51.5319165 42.7000656,49.7484112 46.6475831,46.1814005 C42.7760288,43.140401 38.3982715,41.6199012 33.5143114,41.6199012 C28.6303512,41.6199012 24.7953991,43.2719037 22.0094549,46.5759088 Z" id="Combined-Shape" fill="url(#linearGradient-3)" fill-rule="nonzero"></path>
        </g>
    </g>
</svg>